10

11 17
20
2 14
7 7
0 5
2 8
4 4
9 8
5 8
8 2
3 7
8 14
10 13
6 7
5 2
8 8
0 12
4 14
1 12
8 12
7 5
4 8
27 1

7 13
13
5 7
3 7
4 9
4 8
0 10
0 0
6 4
1 10
0 1
6 5
0 4
2 11
6 4
16 5

13 7
15
1 6
12 4
1 4
6 0
10 3
0 4
4 4
12 4
3 4
7 2
8 3
3 3
12 4
0 4
7 3
28 5

10 12
9
0 11
7 5
6 7
5 1
6 8
3 3
5 11
5 0
4 9
3 1

19 17
12
12 3
9 15
17 6
1 3
18 10
6 8
10 14
15 11
1 8
3 12
17 12
13 16
16 5

11 19
22
8 11
0 13
7 14
10 13
9 0
0 1
10 5
10 9
1 18
7 6
6 3
2 13
7 7
1 16
4 14
7 18
3 12
10 12
8 14
8 0
4 10
1 15
19 3

10 6
11
9 4
0 5
4 5
6 0
8 3
1 1
9 2
0 5
7 0
2 1
5 1
11 2

14 7
26
12 0
6 0
3 1
5 3
2 3
5 2
7 5
9 0
0 3
2 2
7 2
6 0
2 2
5 5
12 3
9 3
4 2
4 0
3 3
3 6
9 2
6 5
12 1
2 3
13 1
13 2
8 3

19 20
11
7 6
10 6
12 0
18 11
0 0
16 10
0 12
2 7
16 0
14 10
14 2
19 2

7 18
13
2 17
4 4
3 12
5 11
6 12
6 5
0 5
6 4
6 1
5 6
1 12
2 15
5 13
16 4
