9

11 16
6
5 11
1 4
0 4
5 0
0 5
8 10
7 1

12 8
10
5 5
0 1
10 6
10 0
0 1
7 3
10 1
6 5
5 5
7 0
4 1

19 20
5
16 5
12 12
17 16
11 0
16 1
6 1

19 8
5
14 5
18 2
11 2
2 0
14 4
8 1

18 12
6
7 0
9 2
2 2
6 8
17 6
13 4
8 1

10 18
10
1 1
2 10
7 7
1 13
5 0
4 0
6 3
6 9
1 17
1 5
6 1

8 20
11
5 18
4 19
6 19
6 12
2 15
7 15
1 12
3 18
7 19
5 9
2 0
4 1

20 13
5
15 4
4 9
2 9
7 8
14 7
3 1

8 16
13
7 2
1 15
7 8
6 11
7 3
0 12
3 3
0 8
0 2
4 7
3 11
4 9
3 1
4 1
