9

18 14
13
7 3
2 0
7 2
5 2
15 13
10 6
8 0
15 6
1 11
11 2
0 12
9 5
11 8
3 1

10 15
11
7 5
5 2
2 2
0 9
5 1
8 10
0 5
2 0
8 14
6 4
6 14
3 1

9 11
15
8 3
7 4
7 6
1 9
2 2
3 5
2 6
2 2
5 8
6 4
4 5
1 10
0 0
4 10
5 8
7 1

18 13
7
9 10
15 8
1 11
1 6
12 3
15 4
17 7
6 1

16 16
4
3 0
2 9
2 7
4 4
6 1

10 14
4
8 11
9 13
8 13
1 4
6 1

10 8
12
4 4
2 6
2 3
9 7
4 0
1 2
4 3
5 0
1 4
6 5
5 6
7 3
7 1

12 16
5
1 11
8 14
0 5
11 6
6 5
7 1

12 19
5
5 15
8 15
11 4
9 10
6 10
5 1
