*** Life<ConwayCell> 11x16 ***

Generation = 0, Population = 6.
....**..........
....*...........
................
................
................
*..........*....
................
................
..........*.....
................
................

Generation = 1, Population = 4.
....**..........
....**..........
................
................
................
................
................
................
................
................
................

Generation = 2, Population = 4.
....**..........
....**..........
................
................
................
................
................
................
................
................
................

Generation = 3, Population = 4.
....**..........
....**..........
................
................
................
................
................
................
................
................
................

Generation = 4, Population = 4.
....**..........
....**..........
................
................
................
................
................
................
................
................
................

Generation = 5, Population = 4.
....**..........
....**..........
................
................
................
................
................
................
................
................
................

Generation = 6, Population = 4.
....**..........
....**..........
................
................
................
................
................
................
................
................
................

Generation = 7, Population = 4.
....**..........
....**..........
................
................
................
................
................
................
................
................
................

*** Life<ConwayCell> 12x8 ***

Generation = 0, Population = 8.
.*......
........
........
........
........
.....*..
.....*..
*..*....
........
........
**....*.
........

Generation = 1, Population = 1.
........
........
........
........
........
........
....*...
........
........
........
........
........

Generation = 2, Population = 0.
........
........
........
........
........
........
........
........
........
........
........
........

Generation = 3, Population = 0.
........
........
........
........
........
........
........
........
........
........
........
........

Generation = 4, Population = 0.
........
........
........
........
........
........
........
........
........
........
........
........

*** Life<ConwayCell> 19x20 ***

Generation = 0, Population = 5.
....................
....................
....................
....................
....................
....................
....................
....................
....................
....................
....................
*...................
............*.......
....................
....................
....................
.*...*..............
................*...
....................

Generation = 1, Population = 0.
....................
....................
....................
....................
....................
....................
....................
....................
....................
....................
....................
....................
....................
....................
....................
....................
....................
....................
....................

Generation = 2, Population = 0.
....................
....................
....................
....................
....................
....................
....................
....................
....................
....................
....................
....................
....................
....................
....................
....................
....................
....................
....................

Generation = 3, Population = 0.
....................
....................
....................
....................
....................
....................
....................
....................
....................
....................
....................
....................
....................
....................
....................
....................
....................
....................
....................

Generation = 4, Population = 0.
....................
....................
....................
....................
....................
....................
....................
....................
....................
....................
....................
....................
....................
....................
....................
....................
....................
....................
....................

Generation = 5, Population = 0.
....................
....................
....................
....................
....................
....................
....................
....................
....................
....................
....................
....................
....................
....................
....................
....................
....................
....................
....................

Generation = 6, Population = 0.
....................
....................
....................
....................
....................
....................
....................
....................
....................
....................
....................
....................
....................
....................
....................
....................
....................
....................
....................

*** Life<ConwayCell> 19x8 ***

Generation = 0, Population = 5.
........
........
*.......
........
........
........
........
........
........
........
........
..*.....
........
........
....**..
........
........
........
..*.....

Generation = 1, Population = 0.
........
........
........
........
........
........
........
........
........
........
........
........
........
........
........
........
........
........
........

Generation = 2, Population = 0.
........
........
........
........
........
........
........
........
........
........
........
........
........
........
........
........
........
........
........

Generation = 3, Population = 0.
........
........
........
........
........
........
........
........
........
........
........
........
........
........
........
........
........
........
........

Generation = 4, Population = 0.
........
........
........
........
........
........
........
........
........
........
........
........
........
........
........
........
........
........
........

Generation = 5, Population = 0.
........
........
........
........
........
........
........
........
........
........
........
........
........
........
........
........
........
........
........

Generation = 6, Population = 0.
........
........
........
........
........
........
........
........
........
........
........
........
........
........
........
........
........
........
........

Generation = 7, Population = 0.
........
........
........
........
........
........
........
........
........
........
........
........
........
........
........
........
........
........
........

Generation = 8, Population = 0.
........
........
........
........
........
........
........
........
........
........
........
........
........
........
........
........
........
........
........

*** Life<ConwayCell> 18x12 ***

Generation = 0, Population = 6.
............
............
..*.........
............
............
............
........*...
*...........
............
..*.........
............
............
............
....*.......
............
............
............
......*.....

Generation = 1, Population = 0.
............
............
............
............
............
............
............
............
............
............
............
............
............
............
............
............
............
............

Generation = 2, Population = 0.
............
............
............
............
............
............
............
............
............
............
............
............
............
............
............
............
............
............

Generation = 3, Population = 0.
............
............
............
............
............
............
............
............
............
............
............
............
............
............
............
............
............
............

Generation = 4, Population = 0.
............
............
............
............
............
............
............
............
............
............
............
............
............
............
............
............
............
............

Generation = 5, Population = 0.
............
............
............
............
............
............
............
............
............
............
............
............
............
............
............
............
............
............

Generation = 6, Population = 0.
............
............
............
............
............
............
............
............
............
............
............
............
............
............
............
............
............
............

Generation = 7, Population = 0.
............
............
............
............
............
............
............
............
............
............
............
............
............
............
............
............
............
............

Generation = 8, Population = 0.
............
............
............
............
............
............
............
............
............
............
............
............
............
............
............
............
............
............

*** Life<ConwayCell> 10x18 ***

Generation = 0, Population = 10.
..................
.*...*.......*...*
..........*.......
..................
*.................
*.................
...*.....*........
.......*..........
..................
..................

Generation = 1, Population = 0.
..................
..................
..................
..................
..................
..................
..................
..................
..................
..................

Generation = 2, Population = 0.
..................
..................
..................
..................
..................
..................
..................
..................
..................
..................

Generation = 3, Population = 0.
..................
..................
..................
..................
..................
..................
..................
..................
..................
..................

Generation = 4, Population = 0.
..................
..................
..................
..................
..................
..................
..................
..................
..................
..................

Generation = 5, Population = 0.
..................
..................
..................
..................
..................
..................
..................
..................
..................
..................

Generation = 6, Population = 0.
..................
..................
..................
..................
..................
..................
..................
..................
..................
..................

*** Life<ConwayCell> 8x20 ***

Generation = 0, Population = 11.
....................
............*.......
*..............*....
..................*.
...................*
.........*........*.
............*......*
...............*...*

Generation = 1, Population = 6.
....................
....................
....................
....................
..................**
..................**
..................**
....................

Generation = 2, Population = 5.
....................
....................
....................
....................
..................**
.................*..
..................**
....................

Generation = 3, Population = 3.
....................
....................
....................
....................
..................*.
.................*..
..................*.
....................

Generation = 4, Population = 2.
....................
....................
....................
....................
....................
.................**.
....................
....................

*** Life<ConwayCell> 20x13 ***

Generation = 0, Population = 5.
.............
.............
.........*...
.............
.........*...
.............
.............
........*....
.............
.............
.............
.............
.............
.............
.......*.....
....*........
.............
.............
.............
.............

Generation = 1, Population = 0.
.............
.............
.............
.............
.............
.............
.............
.............
.............
.............
.............
.............
.............
.............
.............
.............
.............
.............
.............
.............

Generation = 2, Population = 0.
.............
.............
.............
.............
.............
.............
.............
.............
.............
.............
.............
.............
.............
.............
.............
.............
.............
.............
.............
.............

Generation = 3, Population = 0.
.............
.............
.............
.............
.............
.............
.............
.............
.............
.............
.............
.............
.............
.............
.............
.............
.............
.............
.............
.............

*** Life<ConwayCell> 8x16 ***

Generation = 0, Population = 13.
..*.....*...*...
...............*
................
.*.*.......*....
.......*.*......
................
...........*....
..**....*.......

Generation = 1, Population = 0.
................
................
................
................
................
................
................
................

Generation = 2, Population = 0.
................
................
................
................
................
................
................
................

Generation = 3, Population = 0.
................
................
................
................
................
................
................
................

Generation = 4, Population = 0.
................
................
................
................
................
................
................
................
