*** Life<ConwayCell> 10x10 ***

Generation = 0, Population = 6.
..........
.*........
.......*..
...*......
........*.
..........
....*.....
.....*....
..........
..........

Generation = 2, Population = 0.
..........
..........
..........
..........
..........
..........
..........
..........
..........
..........

Generation = 4, Population = 0.
..........
..........
..........
..........
..........
..........
..........
..........
..........
..........

Generation = 6, Population = 0.
..........
..........
..........
..........
..........
..........
..........
..........
..........
..........

*** Life<ConwayCell> 12x12 ***

Generation = 0, Population = 9.
............
..........*.
.....*......
....*.......
............
......*.....
.*..........
........*...
...*........
.........*..
............
..*.........

Generation = 1, Population = 0.
............
............
............
............
............
............
............
............
............
............
............
............

Generation = 2, Population = 0.
............
............
............
............
............
............
............
............
............
............
............
............

Generation = 3, Population = 0.
............
............
............
............
............
............
............
............
............
............
............
............

Generation = 4, Population = 0.
............
............
............
............
............
............
............
............
............
............
............
............

Generation = 5, Population = 0.
............
............
............
............
............
............
............
............
............
............
............
............

*** Life<ConwayCell> 15x15 ***

Generation = 0, Population = 10.
...............
...............
..*............
.............*.
....*..........
............*..
......*........
..........*....
..............*
.........*.....
.....*.........
...........*...
...............
...............
...............

Generation = 2, Population = 0.
...............
...............
...............
...............
...............
...............
...............
...............
...............
...............
...............
...............
...............
...............
...............

Generation = 4, Population = 0.
...............
...............
...............
...............
...............
...............
...............
...............
...............
...............
...............
...............
...............
...............
...............

Generation = 6, Population = 0.
...............
...............
...............
...............
...............
...............
...............
...............
...............
...............
...............
...............
...............
...............
...............

Generation = 8, Population = 0.
...............
...............
...............
...............
...............
...............
...............
...............
...............
...............
...............
...............
...............
...............
...............

*** Life<ConwayCell> 18x16 ***

Generation = 0, Population = 8.
................
................
................
................
....*...........
................
........*.......
................
...........*....
.........*......
...*............
..........*.....
................
......*.........
.......*........
................
................
................

Generation = 1, Population = 0.
................
................
................
................
................
................
................
................
................
................
................
................
................
................
................
................
................
................

Generation = 2, Population = 0.
................
................
................
................
................
................
................
................
................
................
................
................
................
................
................
................
................
................

Generation = 3, Population = 0.
................
................
................
................
................
................
................
................
................
................
................
................
................
................
................
................
................
................

Generation = 4, Population = 0.
................
................
................
................
................
................
................
................
................
................
................
................
................
................
................
................
................
................

Generation = 5, Population = 0.
................
................
................
................
................
................
................
................
................
................
................
................
................
................
................
................
................
................

*** Life<ConwayCell> 20x20 ***

Generation = 0, Population = 12.
....................
....................
....................
..........*.........
..*.................
....................
....*...............
.......*............
..............*.....
............*.......
....................
......*.............
.....*..............
....................
........*...........
.........*..........
...........*........
....................
...*................
....................

Generation = 1, Population = 0.
....................
....................
....................
....................
....................
....................
....................
....................
....................
....................
....................
....................
....................
....................
....................
....................
....................
....................
....................
....................

Generation = 2, Population = 0.
....................
....................
....................
....................
....................
....................
....................
....................
....................
....................
....................
....................
....................
....................
....................
....................
....................
....................
....................
....................

Generation = 3, Population = 0.
....................
....................
....................
....................
....................
....................
....................
....................
....................
....................
....................
....................
....................
....................
....................
....................
....................
....................
....................
....................

Generation = 4, Population = 0.
....................
....................
....................
....................
....................
....................
....................
....................
....................
....................
....................
....................
....................
....................
....................
....................
....................
....................
....................
....................

Generation = 5, Population = 0.
....................
....................
....................
....................
....................
....................
....................
....................
....................
....................
....................
....................
....................
....................
....................
....................
....................
....................
....................
....................

Generation = 6, Population = 0.
....................
....................
....................
....................
....................
....................
....................
....................
....................
....................
....................
....................
....................
....................
....................
....................
....................
....................
....................
....................

Generation = 7, Population = 0.
....................
....................
....................
....................
....................
....................
....................
....................
....................
....................
....................
....................
....................
....................
....................
....................
....................
....................
....................
....................

*** Life<ConwayCell> 9x11 ***

Generation = 0, Population = 5.
...........
...........
...........
......*....
........*..
.....*.....
...*.......
.......*...
...........

Generation = 1, Population = 0.
...........
...........
...........
...........
...........
...........
...........
...........
...........

Generation = 2, Population = 0.
...........
...........
...........
...........
...........
...........
...........
...........
...........

Generation = 3, Population = 0.
...........
...........
...........
...........
...........
...........
...........
...........
...........

Generation = 4, Population = 0.
...........
...........
...........
...........
...........
...........
...........
...........
...........

Generation = 5, Population = 0.
...........
...........
...........
...........
...........
...........
...........
...........
...........

Generation = 6, Population = 0.
...........
...........
...........
...........
...........
...........
...........
...........
...........

Generation = 7, Population = 0.
...........
...........
...........
...........
...........
...........
...........
...........
...........

*** Life<ConwayCell> 10x12 ***

Generation = 0, Population = 7.
............
.........*..
..........*.
............
......*.....
........*...
..*.........
.....*......
...........*
............

Generation = 1, Population = 0.
............
............
............
............
............
............
............
............
............
............

Generation = 2, Population = 0.
............
............
............
............
............
............
............
............
............
............

Generation = 3, Population = 0.
............
............
............
............
............
............
............
............
............
............

Generation = 4, Population = 0.
............
............
............
............
............
............
............
............
............
............

Generation = 5, Population = 0.
............
............
............
............
............
............
............
............
............
............

*** Life<ConwayCell> 14x14 ***

Generation = 0, Population = 6.
..............
..............
..............
.......*......
..............
.........*....
..........*...
...........*..
..............
..............
........*.....
..............
....*.........
..............

Generation = 4, Population = 0.
..............
..............
..............
..............
..............
..............
..............
..............
..............
..............
..............
..............
..............
..............

Generation = 8, Population = 0.
..............
..............
..............
..............
..............
..............
..............
..............
..............
..............
..............
..............
..............
..............
