*** Life<Cell> 15x47 ***

Generation = 0, Population = 1.
-----------------------------------------------
-----------------------------------------------
-----------------------------------------------
-----------------------------------------------
-----------------------------------------------
-----------------------------------------------
-----------------------------------------------
-----------------------------------------------
-----------------------------------------------
-0---------------------------------------------
-----------------------------------------------
-----------------------------------------------
-----------------------------------------------
-----------------------------------------------
-----------------------------------------------

Generation = 1, Population = 4.
-----------------------------------------------
-----------------------------------------------
-----------------------------------------------
-----------------------------------------------
-----------------------------------------------
-----------------------------------------------
-----------------------------------------------
-----------------------------------------------
-0---------------------------------------------
0-0--------------------------------------------
-0---------------------------------------------
-----------------------------------------------
-----------------------------------------------
-----------------------------------------------
-----------------------------------------------

*** Life<Cell> 48x39 ***

Generation = 0, Population = 7.
---------------------------------------
---------------------------------------
---------------------------------------
------------------------0--------------
---------------------------------------
---------------------------------------
---------------------------------------
----------------------------0----------
---------------------------------------
-------------------------0-------------
---------------------------------------
---------------------------------------
---------------------------------------
--0------------------------------------
---------------------------------------
------------0--------------------------
---0-----------------------------------
---------------------------------------
---------------------------------------
---------------------------------------
---------------------------------------
---------------------------------------
---------------------------------------
---------------------------------------
---------------------------------------
---------------------------------------
---------------------------------------
---------------------------------------
---------------------------------------
---------------------------------------
---------------------------------------
---------------------------------------
---------------------------------------
---------------------------------------
---------------------------------------
---------------------------------------
---------------------------------------
---------------------------------------
---------------------------------------
---------------------------------------
---------------------------------------
---------------------------------------
---------------------------------------
---------------------------------------
---------------------------------------
---------------------------------------
----------------------0----------------
---------------------------------------

Generation = 1, Population = 28.
---------------------------------------
---------------------------------------
------------------------0--------------
-----------------------0-0-------------
------------------------0--------------
---------------------------------------
----------------------------0----------
---------------------------0-0---------
-------------------------0--0----------
------------------------0-0------------
-------------------------0-------------
---------------------------------------
--0------------------------------------
-0-0-----------------------------------
--0---------0--------------------------
---0-------0-0-------------------------
--0-0-------0--------------------------
---0-----------------------------------
---------------------------------------
---------------------------------------
---------------------------------------
---------------------------------------
---------------------------------------
---------------------------------------
---------------------------------------
---------------------------------------
---------------------------------------
---------------------------------------
---------------------------------------
---------------------------------------
---------------------------------------
---------------------------------------
---------------------------------------
---------------------------------------
---------------------------------------
---------------------------------------
---------------------------------------
---------------------------------------
---------------------------------------
---------------------------------------
---------------------------------------
---------------------------------------
---------------------------------------
---------------------------------------
---------------------------------------
----------------------0----------------
---------------------0-0---------------
----------------------0----------------

*** Life<Cell> 25x28 ***

Generation = 0, Population = 14.
----------------------------
------------0---------------
-0---------------------0----
----------------------------
----------------------------
----------------------------
----------------------------
-------------------------0--
-----------------0----------
----------------------------
-------------------0--------
--------------------0-------
----------------------------
-------------------------0--
----------------------------
----------------------------
----------------------------
----------------------------
------------------------0-0-
----------------------------
----------------------0-----
--------0-------------------
0---------------------------
----------0-----------------
----------------------------

Generation = 1, Population = 49.
------------0---------------
-0---------0-0---------0----
0-0---------0---------0-0---
-0---------------------0----
----------------------------
----------------------------
-------------------------0--
-----------------0------0-0-
----------------0-0------0--
-----------------0-0--------
------------------0---------
---------------------0------
--------------------0----0--
------------------------0-0-
-------------------------0--
----------------------------
----------------------------
------------------------0-0-
-----------------------0---0
----------------------0-0-0-
--------0------------0-0----
0------0-0------------0-----
-0------0-0-----------------
0--------0-0----------------
----------0-----------------

*** Life<Cell> 38x25 ***

Generation = 0, Population = 3.
-------------------------
-------------------------
-------------------------
-------------------------
-------------------------
-------------------------
-------------------------
-------------------------
------------------0------
-------------------------
-------------------------
-------------------------
-------------------------
----0--------------------
-------------------------
-------------------------
-------------------------
-------------------------
-------------------------
-------------------------
-------------------------
-------------------------
-------------------------
-------------------------
-------------------------
-------------------------
-------------------------
-------------------------
-------------------------
-------------------------
-------------------------
-------------------------
-0-----------------------
-------------------------
-------------------------
-------------------------
-------------------------
-------------------------

Generation = 1, Population = 12.
-------------------------
-------------------------
-------------------------
-------------------------
-------------------------
-------------------------
-------------------------
------------------0------
-----------------0-0-----
------------------0------
-------------------------
-------------------------
----0--------------------
---0-0-------------------
----0--------------------
-------------------------
-------------------------
-------------------------
-------------------------
-------------------------
-------------------------
-------------------------
-------------------------
-------------------------
-------------------------
-------------------------
-------------------------
-------------------------
-------------------------
-------------------------
-------------------------
-0-----------------------
0-0----------------------
-0-----------------------
-------------------------
-------------------------
-------------------------
-------------------------

*** Life<Cell> 28x5 ***

Generation = 0, Population = 19.
---0-
-----
--0--
-----
-----
-----
-----
-0---
-0---
-0-0-
-0---
0---0
-----
-----
-0---
-0---
-----
-----
0----
-----
----0
---0-
---0-
-----
-0---
-----
-----
0-0-0

Generation = 1, Population = 48.
--0-0
--00-
-0-0-
--0--
-----
-----
-0---
010--
0-00-
0---0
-1000
---0-
0---0
-0---
010--
010--
-0---
0----
-0---
0---0
-----
--01-
--010
-0-0-
0-0--
-0---
0-0-0
-----

*** Life<Cell> 31x42 ***

Generation = 0, Population = 13.
------------------------------------------
------------------------------------------
------------------------------------------
-----------------------------------------0
------------------------------------------
-----------------------0------------------
------------------------------------------
------------------------------------------
------------------0-----------------------
--------0---------------------------------
-------0--------0-------------------------
------------------------------------------
------------------------------------------
-----------------------------------------0
------------------------------------------
------------------------------------------
------------------------------------------
------------------------------------------
------------------------------------------
------------------------------------------
------------------------------------------
----------0-------------------------------
---------------0--------------------------
---0----------------------0---------------
------------------------------------------
--------------------------0---------------
------------------------------------------
------------------------------------------
--------------------------------0---------
------------------------------------------
------------------------------------------

Generation = 1, Population = 44.
------------------------------------------
------------------------------------------
-----------------------------------------0
----------------------------------------0-
-----------------------0-----------------0
----------------------0-0-----------------
-----------------------0------------------
------------------0-----------------------
--------0--------0-0----------------------
---------0------0-0-----------------------
------0--------0-0------------------------
-------0--------0-------------------------
-----------------------------------------0
----------------------------------------0-
-----------------------------------------0
------------------------------------------
------------------------------------------
------------------------------------------
------------------------------------------
------------------------------------------
----------0-------------------------------
---------0-0---0--------------------------
---0------0---0-0---------0---------------
--0-0----------0---------0-0--------------
---0--------------------------------------
-------------------------0-0--------------
--------------------------0---------------
--------------------------------0---------
-------------------------------0-0--------
--------------------------------0---------
------------------------------------------

*** Life<Cell> 8x6 ***

Generation = 0, Population = 17.
----0-
00-0-0
---0--
---0-0
----00
-00---
-0----
00-0-0

Generation = 1, Population = 25.
00----
11-10-
000-0-
--0101
-00-1-
0-1000
---0-0
1-----

*** Life<Cell> 12x18 ***

Generation = 0, Population = 10.
------------------
---0---0--0-------
0-----------------
----------0---0---
-------------0----
------------------
------------------
---0----------0---
------------------
------------------
------------------
---------------0--

Generation = 1, Population = 32.
---0---0--0-------
0-0-0-0-00-0------
-0-0---0------0---
0--------0-0---0--
----------0-0-----
-------------0----
---0----------0---
--0-0--------0-0--
---0----------0---
------------------
---------------0--
--------------0-0-

*** Life<Cell> 5x14 ***

Generation = 0, Population = 13.
-0----0--0----
-----0--------
--0------0----
--00---0-0----
-0-----0--0---

Generation = 1, Population = 26.
0-0----00-0---
-00-0---------
-01--0-0010---
---10-01-1----
0--0--010--0--

*** Life<Cell> 18x25 ***

Generation = 0, Population = 17.
---0---------------------
----------0-------------0
--------0----------------
----------------------0--
---------0---------------
-------------------------
------------------------0
------0--00--------------
------------------------0
-------------------------
-------------------------
------------00-----------
---------------0---------
-------------------------
-------------------------
-------------------------
----0--------------------
-------------0--0--------

Generation = 1, Population = 60.
--0-0-----0-------------0
---0----00-0-----------0-
-------0-00-----------0-0
--------00-----------0-0-
--------0-0-----------0--
---------0--------------0
------0--00------------0-
-----0-00110-------------
------0--00------------0-
------------------------0
------------00-----------
-----------01100---------
------------000-0--------
---------------0---------
-------------------------
----0--------------------
---0-0-------0--0--------
----0-------0-00-0-------
