*** Life<ConwayCell> 12x19 ***

Generation = 0, Population = 15.
*..........**......
.*.........*....*..
....*..............
...................
......*............
...**..............
*...............*..
...................
....*..............
...............*...
...................
......*............

Generation = 1, Population = 4.
...........**......
...........**......
...................
...................
...................
...................
...................
...................
...................
...................
...................
...................

Generation = 2, Population = 4.
...........**......
...........**......
...................
...................
...................
...................
...................
...................
...................
...................
...................
...................

Generation = 3, Population = 4.
...........**......
...........**......
...................
...................
...................
...................
...................
...................
...................
...................
...................
...................

Generation = 4, Population = 4.
...........**......
...........**......
...................
...................
...................
...................
...................
...................
...................
...................
...................
...................

*** Life<ConwayCell> 5x13 ***

Generation = 0, Population = 12.
*.*.*.....*..
**......**..*
.....*.......
.*........*..
.............

Generation = 1, Population = 8.
*........*...
**.......*...
**.......*...
.............
.............

Generation = 2, Population = 7.
**...........
........***..
**...........
.............
.............

Generation = 3, Population = 3.
.........*...
.........*...
.........*...
.............
.............

Generation = 4, Population = 3.
.............
........***..
.............
.............
.............

Generation = 5, Population = 3.
.........*...
.........*...
.........*...
.............
.............

Generation = 6, Population = 3.
.............
........***..
.............
.............
.............

Generation = 7, Population = 3.
.........*...
.........*...
.........*...
.............
.............

Generation = 8, Population = 3.
.............
........***..
.............
.............
.............

Generation = 9, Population = 3.
.........*...
.........*...
.........*...
.............
.............

Generation = 10, Population = 3.
.............
........***..
.............
.............
.............

*** Life<ConwayCell> 17x10 ***

Generation = 0, Population = 15.
..........
..........
..........
..........
..........
...*......
.....*....
..........
.........*
......*..*
.*.**....*
.*.....*.*
.*.......*
..........
..........
.........*
..........

Generation = 1, Population = 8.
..........
..........
..........
..........
..........
..........
..........
..........
..........
........**
..*......*
**.......*
........*.
..........
..........
..........
..........

Generation = 2, Population = 7.
..........
..........
..........
..........
..........
..........
..........
..........
..........
........**
.*.......*
.*......**
..........
..........
..........
..........
..........

Generation = 3, Population = 4.
..........
..........
..........
..........
..........
..........
..........
..........
..........
........**
..........
........**
..........
..........
..........
..........
..........

Generation = 4, Population = 0.
..........
..........
..........
..........
..........
..........
..........
..........
..........
..........
..........
..........
..........
..........
..........
..........
..........

Generation = 5, Population = 0.
..........
..........
..........
..........
..........
..........
..........
..........
..........
..........
..........
..........
..........
..........
..........
..........
..........

Generation = 6, Population = 0.
..........
..........
..........
..........
..........
..........
..........
..........
..........
..........
..........
..........
..........
..........
..........
..........
..........

Generation = 7, Population = 0.
..........
..........
..........
..........
..........
..........
..........
..........
..........
..........
..........
..........
..........
..........
..........
..........
..........

Generation = 8, Population = 0.
..........
..........
..........
..........
..........
..........
..........
..........
..........
..........
..........
..........
..........
..........
..........
..........
..........

Generation = 9, Population = 0.
..........
..........
..........
..........
..........
..........
..........
..........
..........
..........
..........
..........
..........
..........
..........
..........
..........

*** Life<ConwayCell> 10x15 ***

Generation = 0, Population = 13.
........*......
.**......*.....
...............
...............
...............
*........*...*.
.**............
..*.........*..
...........*...
..*............

Generation = 1, Population = 5.
...............
...............
...............
...............
...............
.*.............
.**............
.**............
...............
...............

Generation = 2, Population = 5.
...............
...............
...............
...............
...............
.**............
*..............
.**............
...............
...............

Generation = 3, Population = 3.
...............
...............
...............
...............
...............
.*.............
*..............
.*.............
...............
...............

Generation = 4, Population = 2.
...............
...............
...............
...............
...............
...............
**.............
...............
...............
...............

Generation = 5, Population = 0.
...............
...............
...............
...............
...............
...............
...............
...............
...............
...............

Generation = 6, Population = 0.
...............
...............
...............
...............
...............
...............
...............
...............
...............
...............

Generation = 7, Population = 0.
...............
...............
...............
...............
...............
...............
...............
...............
...............
...............

Generation = 8, Population = 0.
...............
...............
...............
...............
...............
...............
...............
...............
...............
...............

Generation = 9, Population = 0.
...............
...............
...............
...............
...............
...............
...............
...............
...............
...............

Generation = 10, Population = 0.
...............
...............
...............
...............
...............
...............
...............
...............
...............
...............

*** Life<ConwayCell> 14x10 ***

Generation = 0, Population = 14.
.....*....
..........
*.....*..*
..........
.......*..
......*...
...*..*...
......*...
*.........
....*....*
....*.....
..........
..........
..*.......

Generation = 1, Population = 5.
..........
..........
..........
..........
..........
......**..
.....***..
..........
..........
..........
..........
..........
..........
..........

Generation = 2, Population = 5.
..........
..........
..........
..........
..........
.....*.*..
.....*.*..
......*...
..........
..........
..........
..........
..........
..........

*** Life<ConwayCell> 15x14 ***

Generation = 0, Population = 14.
.....*........
..............
...........*..
........*.....
..............
.........*....
.....*....*...
..*...........
.......*..*...
..............
..............
.....*........
........*.*...
..............
.*.....*......

Generation = 1, Population = 0.
..............
..............
..............
..............
..............
..............
..............
..............
..............
..............
..............
..............
..............
..............
..............

Generation = 2, Population = 0.
..............
..............
..............
..............
..............
..............
..............
..............
..............
..............
..............
..............
..............
..............
..............

Generation = 3, Population = 0.
..............
..............
..............
..............
..............
..............
..............
..............
..............
..............
..............
..............
..............
..............
..............

Generation = 4, Population = 0.
..............
..............
..............
..............
..............
..............
..............
..............
..............
..............
..............
..............
..............
..............
..............

Generation = 5, Population = 0.
..............
..............
..............
..............
..............
..............
..............
..............
..............
..............
..............
..............
..............
..............
..............

Generation = 6, Population = 0.
..............
..............
..............
..............
..............
..............
..............
..............
..............
..............
..............
..............
..............
..............
..............

Generation = 7, Population = 0.
..............
..............
..............
..............
..............
..............
..............
..............
..............
..............
..............
..............
..............
..............
..............

Generation = 8, Population = 0.
..............
..............
..............
..............
..............
..............
..............
..............
..............
..............
..............
..............
..............
..............
..............

Generation = 9, Population = 0.
..............
..............
..............
..............
..............
..............
..............
..............
..............
..............
..............
..............
..............
..............
..............

*** Life<ConwayCell> 14x8 ***

Generation = 0, Population = 13.
.....*..
........
.*....**
........
........
*.......
........
......**
........
.....*.*
..*...*.
........
*.......
.......*

Generation = 1, Population = 4.
........
......*.
........
........
........
........
........
........
.......*
......*.
......*.
........
........
........

Generation = 2, Population = 2.
........
........
........
........
........
........
........
........
........
......**
........
........
........
........

Generation = 3, Population = 0.
........
........
........
........
........
........
........
........
........
........
........
........
........
........

Generation = 4, Population = 0.
........
........
........
........
........
........
........
........
........
........
........
........
........
........

Generation = 5, Population = 0.
........
........
........
........
........
........
........
........
........
........
........
........
........
........

Generation = 6, Population = 0.
........
........
........
........
........
........
........
........
........
........
........
........
........
........

Generation = 7, Population = 0.
........
........
........
........
........
........
........
........
........
........
........
........
........
........

Generation = 8, Population = 0.
........
........
........
........
........
........
........
........
........
........
........
........
........
........

*** Life<ConwayCell> 18x17 ***

Generation = 0, Population = 11.
...*.............
...*............*
...............*.
.................
..*..............
.................
.................
.................
.................
.................
.................
.................
.............*...
.................
....*............
......*..........
.*.....*.........
..*..............

Generation = 1, Population = 0.
.................
.................
.................
.................
.................
.................
.................
.................
.................
.................
.................
.................
.................
.................
.................
.................
.................
.................

Generation = 2, Population = 0.
.................
.................
.................
.................
.................
.................
.................
.................
.................
.................
.................
.................
.................
.................
.................
.................
.................
.................

*** Life<ConwayCell> 20x9 ***

Generation = 0, Population = 15.
...**....
*......*.
.*....*..
.........
.........
.*.......
.....*...
.........
......*..
.........
.......*.
*.*......
.*....*..
.........
........*
.........
.........
.........
.........
.........

Generation = 1, Population = 2.
.........
.........
.........
.........
.........
.........
.........
.........
.........
.........
.........
.*.......
.*.......
.........
.........
.........
.........
.........
.........
.........

Generation = 2, Population = 0.
.........
.........
.........
.........
.........
.........
.........
.........
.........
.........
.........
.........
.........
.........
.........
.........
.........
.........
.........
.........

Generation = 3, Population = 0.
.........
.........
.........
.........
.........
.........
.........
.........
.........
.........
.........
.........
.........
.........
.........
.........
.........
.........
.........
.........

Generation = 4, Population = 0.
.........
.........
.........
.........
.........
.........
.........
.........
.........
.........
.........
.........
.........
.........
.........
.........
.........
.........
.........
.........

Generation = 5, Population = 0.
.........
.........
.........
.........
.........
.........
.........
.........
.........
.........
.........
.........
.........
.........
.........
.........
.........
.........
.........
.........

Generation = 6, Population = 0.
.........
.........
.........
.........
.........
.........
.........
.........
.........
.........
.........
.........
.........
.........
.........
.........
.........
.........
.........
.........

Generation = 7, Population = 0.
.........
.........
.........
.........
.........
.........
.........
.........
.........
.........
.........
.........
.........
.........
.........
.........
.........
.........
.........
.........

*** Life<ConwayCell> 10x11 ***

Generation = 0, Population = 15.
...*.......
.*..*......
....*......
....*....*.
....*...*..
...........
.*...*..*..
*....*.....
...*.......
..*........

Generation = 1, Population = 9.
...........
...**......
...***.....
...***.....
...........
...........
...........
....*......
...........
...........

Generation = 2, Population = 6.
...........
...*.*.....
..*........
...*.*.....
....*......
...........
...........
...........
...........
...........

Generation = 3, Population = 5.
...........
...........
..**.......
...**......
....*......
...........
...........
...........
...........
...........

Generation = 4, Population = 7.
...........
...........
..***......
..*.*......
...**......
...........
...........
...........
...........
...........

Generation = 5, Population = 7.
...........
...*.......
..*.*......
..*..*.....
...**......
...........
...........
...........
...........
...........

Generation = 6, Population = 7.
...........
...*.......
..*.*......
..*..*.....
...**......
...........
...........
...........
...........
...........

Generation = 7, Population = 7.
...........
...*.......
..*.*......
..*..*.....
...**......
...........
...........
...........
...........
...........

Generation = 8, Population = 7.
...........
...*.......
..*.*......
..*..*.....
...**......
...........
...........
...........
...........
...........
