*** Life<FredkinCell> 3x15 ***

Generation = 0, Population = 10.
-0-------00----
0-----0----00--
----0---0---0--

Generation = 1, Population = 21.
--0---0-011-0--
----00-000-1-0-
0--0-000-0--10-

Generation = 2, Population = 23.
-0-00--0-220---
0-0-1---110--10
-00-0---010-2-0

Generation = 3, Population = 22.
--01-00-0-31000
--10-0----1--2-
-1--10-0-2---01

Generation = 4, Population = 13.
-0----1------11
----1--01-2---0
0---2-------2-2

Generation = 5, Population = 26.
0-0-00--0-3-02-
00-020-12--10--
-1-030-00-00--3

Generation = 6, Population = 18.
10-1--1-1--1-31
--1--1--312---0
-2--4-----1--0-

Generation = 7, Population = 17.
210-0---2----4-
00-----1-----21
0--0----0-202--

Generation = 8, Population = 20.
-21--0---2--05-
1--02-0-3-21--2
1-0-4-----3-3-3

Generation = 9, Population = 22.
-32---------16-
2-11-1---1-20-3
2--0500-0240--4

Generation = 10, Population = 20.
-4---0---2---7-
30--22---22--24
32---11-13---05

Generation = 11, Population = 22.
-52--11-23--18-
-11133---33203-
--0---2-2---3--

Generation = 12, Population = 12.
2-----2-3-----1
3-----0-3-----4
--1-5-----4-4--

Generation = 13, Population = 28.
35---13-43---82
411-331-433-035
32---12-23---05

Generation = 14, Population = 8.
---------------
5-2-4-2-5-4-1-6
---------------

Generation = 15, Population = 16.
3-2-0-3-4-3-1-2
---------------
3-1-5-2-2-4-4-5

Generation = 16, Population = 0.
---------------
---------------
---------------

Generation = 17, Population = 0.
---------------
---------------
---------------

Generation = 18, Population = 0.
---------------
---------------
---------------

Generation = 19, Population = 0.
---------------
---------------
---------------

Generation = 20, Population = 0.
---------------
---------------
---------------

Generation = 21, Population = 0.
---------------
---------------
---------------

Generation = 22, Population = 0.
---------------
---------------
---------------

Generation = 23, Population = 0.
---------------
---------------
---------------

Generation = 24, Population = 0.
---------------
---------------
---------------

*** Life<FredkinCell> 11x8 ***

Generation = 0, Population = 21.
----0---
--00-000
-0------
-00-----
----00--
0----0--
------0-
00-----0
------00
--------
-0---0--

Generation = 3, Population = 45.
-1-0---0
-0---10-
0-020--0
--3--01-
022----1
-0-1010-
--0-01--
--21-00-
-2----31
120-0002
-10-012-

Generation = 6, Population = 39.
-------1
----1-33
--1-31-1
-----1-2
3331--0-
-314----
--1--2-1
1-3201--
05---2-2
2-1-0--2
-10-1-30

Generation = 9, Population = 43.
-22-30--
--4--3-4
04124--2
02-02---
46--41--
--2-2522
202-----
----042-
3--1-3--
52--11--
0---43-1

Generation = 12, Population = 40.
--3--133
-34-3655
---5--35
3-31-434
56---1-1
----2-2-
-1--0---
--3--5--
--1-3--3
-3--2-04
32-0-4--

Generation = 15, Population = 35.
-------3
--4----8
-----168
-442-5--
--6-74-4
----5624
5-22--2-
--44---2
5-4243--
---1----
--0--441

*** Life<FredkinCell> 9x19 ***

Generation = 0, Population = 11.
-------------------
----------------0--
----0-----0------0-
---0---------------
------0------------
0------------------
-0-----------------
-------------------
-0---00------------

Generation = 1, Population = 26.
----------------0--
----0-----0----0---
-----0---0-0------0
--0---0---0------0-
0--0-0-0-----------
------0------------
--0----------------
-----00------------
0-0-0110-----------

Generation = 2, Population = 30.
----0-----0------0-
---0----------0---0
--0-----0---0--0---
00---0----------0--
-0------0-0------0-
0-00---------------
-0-0-0-------------
0------------------
----12210----------

Generation = 3, Population = 48.
-----0---0-0--0-0--
--------0-0-00-----
0----0-0-0-0-0----0
1---0-0---0-0------
01-0-0-0---0------0
--1-00--0-0------0-
0-01--0------------
---00-000----------
0--02---10---------

Generation = 4, Population = 35.
----0-0---0------0-
0-----------1---0-0
10----0-0----10--0-
-------0-----------
-20--10---0--------
--2-1-----------0--
----0-1---0------0-
---1---------------
-00--22--10--------

Generation = 5, Population = 61.
0--0---0-0-00------
1---0---0-00--00---
-10--0-0-0---210---
1-0--00---0--00--0-
03-0-21--0-0----0--
--3-2----------0---
--0-1--0-0-0------0
-0---0---0-------0-
011-23311210-------

*** Life<FredkinCell> 8x16 ***

Generation = 0, Population = 3.
------0---------
----------------
----------------
-0--------------
--0-------------
----------------
----------------
----------------

Generation = 2, Population = 11.
----0-0-0-------
-0--------------
--0---0---------
---0------------
0---0-----------
-0--------------
--0-------------
----------------

Generation = 4, Population = 6.
----------0-----
----------------
------0---------
-0---0----------
0---------------
----------------
----------------
-0--------------

Generation = 6, Population = 18.
------0-0-0-0---
-0---0----------
0---0---0-0-----
-------0--------
0-0---0---------
-----0----------
0---------------
-0-0------------

Generation = 8, Population = 11.
0-------------0-
----------------
--0-------------
-0---0---0------
--0-0-----0-----
-0--------------
------0---------
----------------

Generation = 10, Population = 22.
------------0-0-
-0---0---0------
--0-------0---0-
-0---------0----
0---0---0---0---
-0-0-0---0------
--0-----0-0-----
-0--------------

Generation = 12, Population = 14.
--0-----------0-
-0--------------
--------------0-
---------0---0--
0-------0-------
-0---0----------
------0---0-----
-----0---0------

Generation = 14, Population = 29.
0-0-0-------0---
---0-----0---0--
0-0-----0---0-0-
-----0-0-------0
0-0-----------0-
-----0-0-----0--
0---0---0---0---
-0-0-----0-0----

*** Life<FredkinCell> 19x7 ***

Generation = 0, Population = 28.
---0-00
-------
0----0-
--0---0
---0---
-------
-0---0-
--00--0
-00----
----0--
-----0-
--00---
0-----0
00-----
--0----
--0--0-
-------
-0-----
------0

Generation = 2, Population = 52.
00--02-
--0---1
0-10-00
1-----0
0----0-
---1---
-001---
01--100
12-01--
--1----
0011--1
-----1-
2---010
0-0--0-
----0-0
---11--
--1---0
--10-0-
----0--

Generation = 4, Population = 50.
22012--
-------
--12022
1--10--
-101-00
----1--
0------
0-021--
-2-2-0-
-1----1
--3----
0--2-3-
-11----
--0--2-
1----1-
0013-10
0------
01---0-
----0--

Generation = 6, Population = 66.
4--14--
1--00--
-1342-4
10--011
-3010--
------1
2-----0
-----0-
141--0-
--21-01
2-3201-
0--2--1
--1011-
21211-1
-0-1---
2----12
--3-00-
-3-1-01
1-0-0-0

Generation = 8, Population = 41.
--1--4-
----2--
---6-3-
---3--1
-----11
11-----
--01-02
--2--2-
---3-00
-2-----
4----12
--2---1
---0--2
-3-----
-2---2-
---5-14
-0-----
03--0--
1----12

Generation = 10, Population = 66.
5-1-4--
--21---
-148-35
2----23
--021--
3----02
30---04
---43--
251-102
---2-12
4-42132
2-----1
3---33-
--4--4-
-4-3--0
20-5-16
02-1--1
0----0-
-00003-

*** Life<FredkinCell> 7x18 ***

Generation = 0, Population = 5.
--0-------------0-
------------------
------------------
------------------
---00-------------
0-----------------
------------------

Generation = 1, Population = 17.
-0-0-----------0-0
--0-------------0-
------------------
---00-------------
0-0110------------
-0-00-------------
0-----------------

Generation = 2, Population = 18.
0-0-0---------0-0-
------------------
--000-----------0-
0-----------------
-01--10-----------
0-0---------------
---00-------------

Generation = 3, Population = 34.
-----0-------0---0
0--0----------0---
001-10---------0-0
---0000---------0-
01-11210----------
-01-000-----------
0--110------------

Generation = 4, Population = 19.
0--00-0-----0---0-
1-----------------
--2-------------0-
------------------
1-1----10-------0-
0-2-1-------------
---22-------------

Generation = 5, Population = 46.
10011--0---0-0-0-0
20000-0-----0-----
00-0-----------0-0
0------00---------
2-211-1210-----0-0
1-3020-00-------0-
0--3-0------------

Generation = 6, Population = 37.
-112-0--0-0-0-----
3-1---------------
1-21--000---0-0---
--0-0-------------
---2-22--10---0-0-
----3-0-----------
10-421000-------0-

Generation = 7, Population = 57.
-223--00-----0----
40-0-000--0---0---
2-32-01-10-0---0--
001----0000-0---0-
-----3-21210-0---0
10-04---000---0---
21-53-1-10-----0-0

*** Life<FredkinCell> 5x6 ***

Generation = 0, Population = 19.
0000-0
00--00
-00--0
-00--0
-000-0

Generation = 1, Population = 18.
-1-101
-10-11
-1-0--
011-0-
0-11-1

Generation = 2, Population = 15.
02021-
021---
----00
-2----
10-20-

Generation = 3, Population = 19.
-31-21
-3---1
0-0011
-310-0
2--311

Generation = 4, Population = 13.
0-2-3-
-4101-
---1-2
0421--
------

Generation = 5, Population = 18.
-33241
-521--
0-0-1-
1---00
2013--
