*** Life<FredkinCell> 15x6 ***

Generation = 0, Population = 2.
--0---
---0--
------
------
------
------
------
------
------
------
------
------
------
------
------

Generation = 3, Population = 5.
-0----
--0---
-----0
----0-
---0--
------
------
------
------
------
------
------
------
------
------

Generation = 6, Population = 12.
------
-0-0--
--0-0-
-----0
0-0-0-
-0---0
--0---
---0--
------
------
------
------
------
------
------

Generation = 9, Population = 12.
---0-0
0-0---
-0-0--
------
---0--
----0-
-0----
------
-0----
----0-
---0--
------
------
------
------

Generation = 12, Population = 12.
----0-
------
----0-
------
----0-
-0---0
0-----
------
0-----
---0-0
--0---
------
--0---
---0--
------

Generation = 15, Population = 22.
-0-0--
------
---0-0
--0---
-0---0
0---0-
---0--
0-0---
------
0-0---
---0--
0---0-
-0---0
--0---
---0-0

*** Life<FredkinCell> 11x12 ***

Generation = 0, Population = 24.
----0-0-0---
--0----0----
---0---0----
-------0----
0--0------00
--------0---
-----------0
0-----0--0-0
-0--------0-
---0--------
-0---0-0----

Generation = 3, Population = 82.
0022--1-0--0
1-00-1-30100
-101-------1
-010-10--1-0
--21-1-222-1
-00--00202-1
2101----0--1
1-1-1-020101
0102010-1001
1-000-1--101
00---00-0-1-

Generation = 6, Population = 69.
1--3011---1-
2011----3213
--0----21-02
-01--232----
03-2-1-25321
-112-0---211
3-14--020---
---14-0--2--
121-0--01-04
-1--121----2
1-----11024-

Generation = 9, Population = 71.
215-0--13---
2--22----3--
2303---312-2
0-12-23515-0
-64-0--26-3-
---5-1-52221
-417-21--22-
1212--14-32-
--4-1-214-1-
1--3--1----5
22-10--2-2--

*** Life<FredkinCell> 19x16 ***

Generation = 0, Population = 6.
----------------
---------------0
----------------
----------------
----------------
----------------
----------------
-----------0----
----------------
------------0---
-----------0----
----------------
----------------
----------------
0---------------
----------------
----------------
--0-------------
----------------

Generation = 4, Population = 23.
----------------
-----------0-0-0
----------------
-----------0----
----------------
------------1--0
-----------1----
-------0-------0
----------------
--------0-------
0------0-------0
-----------0----
----------------
--1---------0---
--2-0------0----
----------------
----------------
2-0---0---------
1---------------

Generation = 8, Population = 23.
----------------
-------0-0--0---
-----------1----
----------------
----------------
---------------1
0---------------
---0---------1--
----------------
--1-0-------1--1
---1---------2--
----------------
----------------
--2-------------
------2-1-------
-----------0----
4---------------
----1-----0-0---
-----------0----

Generation = 12, Population = 74.
-----------2----
---0-0-000-010-1
0------0-------1
---0---------0--
----------------
--0-1--0-0-1-1-1
--201------2-0--
-------0-0-----0
----------------
--3---1----0-0-1
0-----0001-----2
---0-------0-0--
2---------------
2-2---0---1----0
--511-----2011--
-------0-------0
--2-1------3----
3-2-1-2---2-2-0-
2-----100------0

*** Life<FredkinCell> 16x16 ***

Generation = 0, Population = 21.
----0-----------
---0------------
--------0-------
----------------
------0-----00--
-----0-----0----
-----0----------
----------------
--------------0-
----------0----0
---0---------0--
----------------
---------0------
--0-0--------0--
------0------0--
-------------0--

Generation = 5, Population = 124.
-0-0--------110-
0-0--10-0-0-00--
---00200-----1--
--0-01--000-0-00
---0-0--11-0-143
0103--0--1-0-200
01-30---2---1-1-
-0-0--0-0-1-0-0-
--0-0-20012-1--0
-0--111---0-012-
--0---21--0-022-
------00-0--0--1
----0---000-0110
--00--4-22-003-1
-0-2-020-3-0--01
-010-00-02--0--3

Generation = 10, Population = 128.
--0-2220--2-1---
-0-4-4-10---01-0
-1---2---011--0-
-10114----2--0-0
-0--2----6-3-25-
0-241-1----2-2-0
1-1551---1102-1-
-3-10--0-1-1--30
-111-25-2---11--
014----0-1--2--2
---2-37200-025--
0-21--00-2000313
1--00302--23-2--
1----17-2--13412
0-0--12----5----
--1130-023-1----

*** Life<FredkinCell> 17x9 ***

Generation = 0, Population = 1.
---------
---------
---------
---------
---------
---------
---------
---------
---------
---------
---------
---------
---------
---------
---------
0--------
---------

Generation = 5, Population = 10.
---------
---------
---------
---------
---------
---------
---------
---------
---------
---------
0--------
-0-------
0--------
---------
0-0-0----
-----0---
0-0-0----

Generation = 10, Population = 10.
---------
---------
---------
---------
---------
0--------
---------
0-0------
---------
---------
---------
0-0------
---------
0-----0-0
---------
----0-0--
---------

Generation = 15, Population = 26.
0--------
-0-------
--0------
---0-----
0---0----
-0---0---
--0---0--
---0---0-
----0---0
-----0---
------0-0
---------
------0-0
-----0---
----0---0
---0---0-
----0-0--

*** Life<FredkinCell> 10x8 ***

Generation = 0, Population = 16.
---0----
--------
--0-0---
---0-0--
---0----
0-------
-00--0--
00--0--0
0-------
---0----

Generation = 4, Population = 37.
--121--0
1-------
-100-00-
0---0--0
1--2---0
--130---
0-1-0101
110100--
2-110---
-0--1---

Generation = 8, Population = 32.
1153----
2--2----
--22--2-
-1------
3-0450--
02--2-11
--1-2-05
312-2233
------1-
--------

Generation = 12, Population = 35.
-15----1
-032--0-
-4435-3-
1-3-3-14
5--56---
-3--2-2-
-----42-
-3-42--3
4--311--
--0--2--

Generation = 16, Population = 34.
--64----
44-243-2
------3-
-3---3-6
-2-9-4--
0-37----
---23--+
-4-6443-
414-21--
53-1----

*** Life<FredkinCell> 8x12 ***

Generation = 0, Population = 21.
0----------0
--0-00---000
-00----0----
-0----00----
-0----------
0--------00-
--0---------
------0----0

Generation = 5, Population = 44.
020020-1----
41-13--223-0
-3--2---0---
-13--2-0-0--
2--101---0-2
-----0001--1
-----0-100-0
-110-01-----

Generation = 10, Population = 51.
1---53-3----
5--2-4-2---0
0-243----3--
2--20520-30-
---40--4-1--
11---521-652
--013-1113-5
63231--1102-

Generation = 15, Population = 52.
3-35-3-6--03
5------3-8--
-437--2--814
43-3174-2--3
-62-12--1--4
-641---3597-
-2344-1----8
73542-2-42--

*** Life<FredkinCell> 17x10 ***

Generation = 0, Population = 20.
----------
0---------
---0------
----------
----------
----------
--------0-
0---0-00--
-------000
----0-----
-0------00
-------0--
----------
-----0----
-----0----
--00-0----
----------

Generation = 5, Population = 79.
0---------
---0-0-00-
--0-----10
-0-0--1100
---------2
----10-00-
0---20-1-2
--012-3-24
--0-1-----
---00-002-
0--0-201-1
-0---1-104
000--2---1
0-00-3-002
0-020001-0
3--3--21--
000002---0

Generation = 10, Population = 76.
-0-0-0--21
--0-0--23-
-0---021-1
0---0-4-21
1--02---1-
--0-------
-1-07142--
21------4-
3----222-4
0---0-0---
-2-23-2--4
--3-1--10-
0--114--21
123--60---
-1-3--24-1
5-1433--1-
---2-4--11

Generation = 15, Population = 83.
21-1-32--4
00----344-
--11115-4-
220----33-
4-152----4
2---1--232
233---43--
---541-36-
---4-335-7
----323360
1----532--
-44--2--0-
3-24-51--6
-3----012-
2--6----63
--6-4-6---
2-05---5-6
