10

10 10
5
1 2
2 3
3 1
3 2
3 3
20 5

15 15
6
7 7
7 8
8 7
8 8
9 9
10 10
50 10

8 8
9
1 1
1 2
2 1
2 2
4 4
5 5
6 6
7 7
7 6
30 5

12 12
7
5 5
5 6
6 5
6 6
10 10
11 11
11 10
40 10

9 9
6
4 4
4 5
5 4
5 5
8 8
7 7
25 5

11 11
8
3 3
3 4
4 3
4 4
7 7
7 8
8 7
8 8
35 7

13 13
10
2 2
2 3
3 2
3 3
5 5
5 6
6 5
6 6
10 10
10 11
60 12

7 7
4
0 0
0 1
1 0
1 1
15 3

14 14
12
6 6
6 7
7 6
7 7
12 12
12 13
13 12
13 13
5 5
5 6
6 5
6 6
45 9

16 16
16
0 0
0 1
1 0
1 1
14 14
14 15
15 14
15 15
7 7
7 8
8 7
8 8
10 10
10 11
11 10
11 11
50 10
