7

10 10
11
8 6
0 0
5 9
4 5
6 2
7 1
6 4
7 1
6 8
3 0
1 6
17 2

6 7
17
5 5
0 1
2 2
4 1
2 3
1 6
5 3
2 5
5 3
0 6
4 3
4 5
4 1
3 1
2 1
0 2
0 3
11 5

9 9
21
1 2
5 5
5 5
0 4
8 1
4 1
5 2
4 2
3 4
3 2
2 0
7 5
6 0
4 3
4 0
7 1
3 6
6 4
4 8
6 6
2 4
17 3

10 5
10
5 3
6 4
5 2
4 3
1 4
4 1
8 4
4 1
9 3
4 0
5 2

8 8
13
0 6
7 2
1 3
0 2
4 5
5 0
3 4
0 5
2 6
5 7
7 5
0 0
1 1
8 3

8 10
9
5 5
2 7
6 5
0 8
1 4
1 7
7 0
1 6
7 8
15 4

7 8
12
5 7
1 1
1 4
2 3
1 3
2 7
6 4
5 0
0 6
2 0
0 0
1 3
6 1
