*** Life<ConwayCell> 10x10 ***

Generation = 0, Population = 10.
*.........
......*...
..........
*.........
.....*....
.........*
..*.*...*.
.*........
......*...
..........

Generation = 2, Population = 0.
..........
..........
..........
..........
..........
..........
..........
..........
..........
..........

Generation = 4, Population = 0.
..........
..........
..........
..........
..........
..........
..........
..........
..........
..........

Generation = 6, Population = 0.
..........
..........
..........
..........
..........
..........
..........
..........
..........
..........

Generation = 8, Population = 0.
..........
..........
..........
..........
..........
..........
..........
..........
..........
..........

Generation = 10, Population = 0.
..........
..........
..........
..........
..........
..........
..........
..........
..........
..........

Generation = 12, Population = 0.
..........
..........
..........
..........
..........
..........
..........
..........
..........
..........

Generation = 14, Population = 0.
..........
..........
..........
..........
..........
..........
..........
..........
..........
..........

Generation = 16, Population = 0.
..........
..........
..........
..........
..........
..........
..........
..........
..........
..........

*** Life<ConwayCell> 6x7 ***

Generation = 0, Population = 15.
.***..*
......*
.***.*.
.*.....
.*.*.*.
...*.*.

Generation = 5, Population = 9.
....***
.......
....*.*
.....*.
***....
.......

Generation = 10, Population = 9.
.....*.
....*.*
....*.*
.*...*.
.*.....
.*.....

*** Life<ConwayCell> 9x9 ***

Generation = 0, Population = 20.
....*....
..*......
*...*....
..*.*.*..
****....*
..*..*...
*...*.*..
.*...*...
.*.......

Generation = 3, Population = 27.
.........
..*......
.*.**....
.*.****..
..*..***.
..**..**.
*.***.*..
.*****...
.........

Generation = 6, Population = 11.
.........
.........
*........
***......
.*.......
.........
...**.*..
..*...*..
..*......

Generation = 9, Population = 10.
.........
.........
.*.......
*.*......
*.**.....
.***.....
...*.....
.........
.........

Generation = 12, Population = 5.
.........
.........
.**......
*........
..**.....
.........
.........
.........
.........

Generation = 15, Population = 0.
.........
.........
.........
.........
.........
.........
.........
.........
.........

*** Life<ConwayCell> 10x5 ***

Generation = 0, Population = 9.
.....
....*
.....
.....
**.*.
..**.
....*
.....
....*
...*.

Generation = 2, Population = 7.
.....
.....
.....
.....
.*.**
.*..*
...**
.....
.....
.....

Generation = 4, Population = 3.
.....
.....
.....
...*.
...*.
..*..
.....
.....
.....
.....

*** Life<ConwayCell> 8x8 ***

Generation = 0, Population = 13.
*.*..**.
.*.*....
......*.
....*...
.....*..
*......*
........
..*..*..

Generation = 3, Population = 4.
.**.....
.**.....
........
........
........
........
........
........

Generation = 6, Population = 4.
.**.....
.**.....
........
........
........
........
........
........

*** Life<ConwayCell> 8x10 ***

Generation = 0, Population = 9.
........*.
....*.**..
.......*..
..........
..........
.....*....
.....*....
*.......*.

Generation = 4, Population = 7.
.......***
......*..*
.......**.
..........
..........
..........
..........
..........

Generation = 8, Population = 7.
.......***
......*..*
.......**.
..........
..........
..........
..........
..........

Generation = 12, Population = 7.
.......***
......*..*
.......**.
..........
..........
..........
..........
..........

*** Life<ConwayCell> 7x8 ***

Generation = 0, Population = 11.
*.....*.
.*.**...
*..*...*
........
........
*......*
....*...

Generation = 1, Population = 8.
........
*****...
..***...
........
........
........
........

Generation = 2, Population = 7.
.***....
.*..*...
....*...
...*....
........
........
........

Generation = 3, Population = 7.
.***....
.*..*...
...**...
........
........
........
........

Generation = 4, Population = 7.
.***....
.*..*...
...**...
........
........
........
........

Generation = 5, Population = 7.
.***....
.*..*...
...**...
........
........
........
........

Generation = 6, Population = 7.
.***....
.*..*...
...**...
........
........
........
........
