5

57 199
591
36 53
17 58
45 138
16 102
24 115
6 48
53 169
41 24
37 170
52 33
46 148
6 75
18 138
26 160
37 17
22 46
21 167
13 74
4 114
26 25
34 124
5 60
16 106
51 185
29 45
11 9
49 112
52 10
56 160
7 115
38 130
10 31
8 98
34 7
7 142
55 191
42 118
27 129
34 25
13 60
16 56
48 188
24 69
10 143
47 61
45 128
3 122
10 170
56 137
22 135
46 102
6 29
2 175
43 176
38 107
33 1
35 190
7 119
27 97
26 141
36 173
18 146
30 111
22 18
8 120
0 116
50 193
6 177
17 25
13 73
45 105
34 105
40 8
31 188
51 166
25 163
22 139
5 68
37 146
43 198
26 127
2 17
10 30
20 62
32 36
39 84
47 186
3 9
40 147
9 187
4 81
25 122
48 7
9 34
51 152
5 45
21 8
46 92
6 19
55 140
15 104
55 149
10 7
18 127
8 92
43 22
21 120
48 146
28 177
55 5
13 45
32 58
33 112
47 19
53 108
54 171
38 65
56 113
34 113
51 165
24 148
15 90
48 105
17 136
2 7
20 52
51 30
29 137
35 40
16 36
53 85
13 49
10 114
53 94
44 125
33 125
22 88
37 86
28 37
23 169
26 76
35 143
32 156
49 87
55 121
7 81
26 103
2 2
36 153
17 149
5 165
24 26
50 164
43 39
7 193
52 106
56 85
5 12
42 196
26 53
51 146
49 73
0 37
7 85
11 46
40 100
48 113
32 16
52 83
43 25
44 88
56 53
10 86
54 129
45 71
50 186
19 180
51 123
28 18
37 85
19 198
7 44
27 22
20 172
8 27
16 138
26 84
45 183
31 10
17 112
9 108
19 54
17 121
3 186
40 95
6 102
12 42
41 78
42 141
50 163
42 159
45 66
27 179
38 27
54 142
31 140
0 171
12 136
8 184
41 181
7 48
33 186
45 169
11 36
37 174
1 153
11 45
3 181
9 112
56 196
20 23
0 54
12 19
51 1
52 55
40 108
6 106
31 117
18 196
12 140
43 118
24 114
43 136
1 130
10 197
30 26
39 4
16 137
48 89
6 92
26 168
4 28
24 6
1 13
49 17
38 26
39 143
49 26
43 104
55 69
24 100
20 148
1 116
24 127
36 92
18 56
45 159
44 194
19 21
30 30
22 166
34 168
39 8
19 30
28 97
5 104
0 35
26 145
50 112
46 160
6 87
53 19
18 150
34 24
30 124
20 98
39 111
22 49
46 16
13 77
18 6
43 90
36 60
7 33
25 167
1 111
56 145
45 154
19 25
11 21
3 157
22 170
52 31
44 27
38 142
27 114
55 194
26 158
51 62
2 57
56 37
48 173
8 146
40 178
4 103
23 125
24 99
18 28
19 2
17 69
38 119
29 61
3 161
33 22
44 31
52 44
41 44
22 3
56 5
47 176
56 23
32 62
30 141
32 80
55 45
47 41
21 178
40 191
17 46
47 59
52 174
53 139
46 91
29 20
53 148
9 60
45 144
38 105
2 182
32 192
18 117
18 135
28 167
8 109
28 176
22 16
39 96
8 127
13 53
4 84
33 129
41 142
1 69
41 151
28 32
44 147
6 193
2 141
35 89
56 121
25 152
36 63
46 95
40 24
37 135
15 107
41 16
49 118
19 77
39 55
19 86
30 104
0 118
33 115
3 25
53 111
44 151
45 116
33 151
3 110
9 41
34 125
28 54
9 50
29 28
9 59
26 102
25 3
29 131
24 43
23 87
10 117
32 65
21 163
5 20
22 100
9 27
28 40
20 176
56 120
28 49
43 150
49 81
39 198
51 172
7 84
4 186
49 99
21 28
42 51
6 39
24 173
28 143
17 143
31 50
43 24
32 24
29 135
41 109
13 38
23 73
16 34
23 82
1 45
52 127
25 119
54 173
39 193
4 172
23 185
7 79
49 94
42 55
39 31
17 129
1 175
50 77
10 4
23 32
1 193
46 192
40 121
52 95
43 37
6 155
35 51
46 48
8 192
20 157
10 134
22 99
46 66
54 168
26 78
15 78
13 145
18 74
43 158
27 52
35 154
55 132
23 198
16 159
54 24
48 111
20 40
20 49
4 32
40 116
29 116
38 183
20 58
6 123
18 186
56 60
45 69
1 44
51 121
46 52
31 152
54 154
32 126
50 22
18 51
3 108
42 27
50 40
27 47
43 162
26 91
17 110
54 10
24 158
56 190
1 165
1 174
48 106
4 18
29 111
6 118
45 64
42 166
10 115
39 151
5 9
34 82
46 47
11 169
11 178
0 187
41 188
27 15
14 94
43 148
8 38
31 3
37 181
45 194
40 88
9 119
49 155
21 102
44 67
34 41
49 191
44 85
18 185
18 194
30 168
9 2
39 155
55 90
12 156
51 138
19 15
8 15
44 188
35 139
13 139
19 42
45 180
29 83
22 196
5 134
41 66
13 4
1 2
56 36
39 114
8 145
37 50
11 150
26 31
38 42
8 1
44 174
50 16
18 45
7 45
10 181
8 19
47 99
30 28
46 131
3 160
29 78
27 144
30 140
45 58
31 123
30 167
38 28
51 110
20 141
56 143
4 151
45 161
17 90
30 32
22 177
7 143
18 143
56 17
2 46
36 197
7 161
11 122
22 33
22 42
46 9
4 110
274 165

46 29
262
15 21
4 0
4 9
18 26
36 7
45 10
5 1
19 0
8 0
27 13
3 13
17 12
22 26
28 3
23 25
0 5
30 18
11 14
24 8
26 5
43 21
29 4
11 23
13 17
38 16
21 0
16 13
15 23
18 19
7 28
34 12
22 10
39 26
36 18
3 15
19 11
23 27
3 24
11 7
13 1
41 17
0 16
43 14
33 13
13 10
6 4
33 22
13 19
16 24
39 19
39 28
14 8
20 24
17 7
3 8
9 3
34 23
17 16
30 13
43 7
38 11
6 6
42 27
10 22
21 4
15 18
18 14
16 26
7 23
27 1
40 20
28 0
45 16
36 13
12 13
6 27
37 21
41 3
14 28
3 28
27 22
15 2
32 18
13 5
35 14
15 11
43 27
18 7
1 21
7 7
33 26
39 14
22 7
36 6
29 22
5 0
40 22
17 11
4 11
29 11
14 21
32 2
9 16
27 15
27 24
26 4
43 20
30 20
25 6
35 16
25 15
18 9
1 23
0 25
33 28
2 22
7 9
45 11
37 7
5 2
17 4
23 17
37 16
4 13
32 4
44 3
8 13
27 26
35 9
30 22
42 24
33 21
0 18
25 17
16 14
10 28
39 9
2 24
23 1
31 14
23 10
3 7
20 23
5 4
4 6
21 22
14 16
9 2
41 0
14 25
3 25
43 6
44 5
10 3
27 19
25 1
42 17
33 14
17 18
11 11
2 8
16 7
35 2
11 20
2 26
40 10
22 4
21 6
31 16
22 13
21 15
23 12
6 26
12 12
21 24
23 21
6 9
43 8
10 5
13 4
36 24
17 20
25 3
10 14
25 12
10 23
0 22
40 3
39 22
38 24
26 22
7 18
23 23
12 23
42 3
45 20
33 0
27 14
11 6
25 5
16 2
37 25
30 28
20 2
29 14
40 14
20 11
6 21
4 3
36 10
42 5
10 0
30 3
42 14
30 12
9 11
11 8
42 23
10 18
40 7
29 7
6 14
18 13
1 27
21 12
15 26
7 22
34 15
34 24
33 4
8 5
36 21
45 24
9 13
14 27
25 9
17 26
27 27
9 22
38 12
38 21
6 16
7 15
12 11
23 11
16 27
4 7
21 23
7 24
17 1
22 15
28 1
4 16
34 17
19 7
36 23
0 3
2 0
17 19
11 3
38 5
43 28
390 86

74 66
505
67 59
38 23
59 55
17 58
18 35
19 0
9 63
71 47
0 5
40 59
41 33
72 11
34 3
52 51
2 41
2 50
3 24
56 39
67 36
35 65
24 65
13 65
26 16
47 48
59 59
9 58
41 1
30 13
41 19
6 61
73 60
41 37
64 2
54 65
56 7
2 45
45 25
43 55
35 60
68 8
13 60
38 4
47 34
67 49
59 45
70 54
59 63
17 57
48 53
40 49
73 55
2 13
54 60
32 41
66 61
3 23
1 53
17 25
18 2
36 38
63 10
40 8
36 65
71 32
21 13
58 62
9 57
29 35
40 44
21 40
39 48
39 57
64 1
20 62
54 64
43 45
55 10
67 39
26 1
71 0
28 38
17 56
5 54
69 57
50 62
54 50
73 63
3 4
36 1
67 16
24 45
70 12
17 6
28 6
55 32
59 30
49 65
17 42
69 52
29 25
27 55
61 57
39 29
31 34
54 45
51 39
32 35
35 40
55 18
17 1
57 55
28 19
47 32
9 15
69 29
28 37
29 2
6 0
42 48
27 59
50 61
62 26
73 35
39 42
10 6
31 47
23 43
4 48
35 26
34 58
47 0
46 41
36 18
57 50
46 50
65 63
69 24
58 24
29 6
27 36
6 13
8 32
61 47
62 12
50 56
73 21
11 37
27 63
39 28
42 61
39 46
4 25
66 18
43 16
23 47
1 10
1 19
35 21
34 62
37 58
17 0
65 58
9 5
28 18
57 54
69 19
27 31
61 42
8 36
20 1
31 19
19 63
20 37
31 37
72 47
35 16
45 48
34 48
1 23
53 61
65 26
16 30
68 31
3 60
5 2
57 40
58 5
57 49
49 45
61 19
26 61
61 28
19 31
20 5
27 53
54 16
0 54
12 19
11 54
12 28
33 60
53 38
72 60
45 43
64 56
53 56
53 65
3 55
14 55
65 39
49 22
69 9
50 5
18 61
27 39
30 44
60 45
53 15
33 46
52 59
43 1
44 55
72 46
45 29
53 42
56 38
56 47
34 56
15 15
46 30
14 59
37 61
7 56
30 21
39 8
72 5
11 35
72 23
44 50
56 15
2 53
56 42
38 3
34 51
15 10
57 25
7 6
15 19
26 28
15 28
69 8
18 33
17 65
42 9
40 39
8 16
40 57
52 31
41 31
21 62
41 40
44 36
56 10
10 52
2 48
56 37
22 44
3 40
38 7
15 5
55 59
70 57
7 19
36 55
15 32
47 64
9 65
63 45
52 8
64 9
53 18
64 27
2 43
45 23
14 17
18 23
71 44
41 21
25 4
33 17
62 53
10 24
33 35
45 0
14 3
43 48
3 12
37 14
37 23
43 57
3 21
16 58
59 38
18 0
15 13
18 9
59 56
63 35
6 31
6 40
10 1
33 3
52 16
44 3
10 10
10 19
39 55
2 15
2 33
66 36
23 65
56 13
32 43
67 10
22 20
32 61
47 22
1 64
47 40
71 7
9 23
70 42
5 34
6 17
29 28
10 23
14 11
47 17
16 48
47 26
47 35
17 31
48 27
9 45
50 46
6 30
66 8
39 54
66 17
12 46
43 33
23 64
16 34
55 16
36 12
28 8
58 36
29 9
6 16
58 63
42 46
69 63
62 24
42 55
42 64
0 58
62 42
39 49
23 32
31 45
20 45
35 33
35 42
47 7
17 12
65 61
69 22
9 17
69 31
9 26
38 62
29 4
61 36
7 65
58 49
50 45
19 39
61 54
30 57
51 0
23 27
35 1
35 10
20 58
51 36
24 19
1 26
24 37
68 43
5 14
49 48
38 57
5 32
15 64
27 29
50 49
73 14
42 45
20 8
11 39
0 48
43 0
72 45
32 9
72 63
64 59
36 6
3 58
68 38
38 34
68 47
69 12
68 56
46 56
9 16
50 17
15 50
42 13
62 0
7 64
27 51
8 56
60 57
4 13
11 61
51 8
41 62
44 58
66 6
4 31
1 7
1 16
34 50
47 1
27 10
7 41
50 30
7 59
8 24
39 11
30 51
52 48
53 22
33 53
23 30
34 36
35 13
34 45
14 48
22 61
45 63
14 57
15 31
68 46
59 65
7 27
50 7
26 58
27 23
63 44
18 54
31 2
20 2
21 65
20 11
52 52
4 12
2 51
14 34
38 1
3 34
37 45
26 8
68 23
59 51
26 26
49 37
50 2
17 63
30 5
63 39
8 14
29 46
40 55
11 28
52 38
4 16
56 26
2 55
22 33
2 64
37 31
3 47
57 27
7 8
1377 117

177 157
263
97 127
62 72
70 0
64 133
53 133
41 58
54 22
170 41
11 115
127 134
154 118
148 132
129 64
140 64
77 90
40 105
108 75
110 102
102 34
65 134
123 66
4 39
18 1
103 72
20 120
98 85
118 33
96 33
130 108
59 2
96 51
113 101
27 61
50 127
119 25
148 70
5 131
125 84
129 121
76 118
47 91
4 87
122 133
11 144
58 42
111 112
161 125
89 118
127 47
110 6
159 146
24 101
16 33
118 117
103 40
20 88
77 30
57 116
60 133
14 35
126 87
130 21
152 51
155 105
107 19
104 66
98 80
116 95
13 140
80 108
79 140
118 147
33 88
62 14
104 11
9 42
28 110
173 110
153 34
137 154
94 9
156 112
166 25
149 128
43 119
130 5
76 67
4 27
38 114
52 21
60 153
53 50
1 131
81 66
91 43
99 90
110 1
128 135
105 60
0 105
155 128
82 156
94 121
8 63
73 98
80 12
63 97
32 112
94 2
35 53
27 79
104 6
95 122
54 51
96 32
50 99
113 146
173 96
125 1
3 115
8 56
148 69
61 65
20 103
1 117
55 152
106 51
62 48
80 96
35 128
13 73
167 76
171 92
137 5
87 120
134 52
161 133
56 59
76 37
37 9
6 143
20 142
139 148
21 77
23 138
35 48
69 135
104 102
35 112
72 106
47 150
9 23
65 21
116 39
88 87
171 103
20 62
99 151
154 32
40 19
128 141
104 22
131 103
15 29
15 84
165 50
12 76
20 89
143 150
80 146
130 132
133 50
67 94
99 126
147 56
156 59
35 132
61 96
62 61
74 26
73 125
19 35
174 58
166 45
70 108
102 115
112 28
168 124
59 1
166 72
38 42
50 126
15 104
162 59
43 65
147 104
7 45
67 151
15 58
61 135
0 70
22 100
173 150
43 22
131 144
49 72
10 153
108 39
63 71
112 30
129 46
144 7
9 118
69 68
67 25
88 112
116 9
176 60
164 58
78 153
134 152
137 114
18 120
163 96
23 0
78 0
75 102
12 128
20 141
115 147
150 89
104 101
175 152
25 110
101 56
124 152
111 152
165 13
163 80
47 103
48 68
175 54
148 100
43 26
43 81
121 83
151 41
78 66
23 75
4 126
175 145
4 16
16 109
90 58
133 93
77 88
23 32
85 25
34 108
83 147
154 79
148 38
154 152
1481 96

87 157
590
12 132
61 6
72 155
47 80
34 147
65 125
37 143
77 108
83 39
84 4
38 135
81 78
18 138
39 81
8 121
60 140
84 116
59 41
15 16
13 83
53 119
53 137
72 150
82 42
5 87
33 6
28 89
76 138
29 63
49 130
50 95
41 37
79 140
44 42
50 122
27 129
22 23
14 19
86 35
70 27
43 73
35 69
1 67
15 11
67 49
70 45
24 87
7 16
71 28
57 93
68 93
14 122
49 98
38 98
56 155
86 156
14 149
67 152
46 129
49 134
39 62
10 35
34 2
18 146
20 76
67 8
14 14
84 97
32 77
79 9
59 40
48 12
77 57
9 39
57 88
64 136
37 119
46 97
86 133
65 110
22 139
9 66
7 96
78 147
59 143
15 118
7 114
7 123
81 72
71 144
14 0
19 115
52 112
12 85
84 101
23 94
72 117
72 126
6 10
49 88
26 86
7 109
42 76
31 57
0 88
32 40
31 84
32 49
16 32
47 19
10 119
53 99
47 28
74 131
22 102
47 46
14 107
21 30
73 31
47 131
82 98
67 146
15 108
62 58
60 88
74 32
60 115
43 53
6 153
21 151
1 56
36 23
76 68
9 15
56 99
9 24
78 105
14 111
13 143
7 81
67 141
27 68
82 102
29 105
77 154
0 87
53 62
34 58
28 5
10 118
31 150
14 79
34 94
22 92
69 24
3 97
37 99
13 129
40 6
78 118
67 118
42 43
73 21
0 46
42 61
75 58
63 102
36 148
32 7
35 12
4 43
60 105
42 155
22 60
39 140
5 7
74 125
43 119
50 15
27 22
18 62
27 40
43 155
1 149
71 83
19 45
43 2
52 69
9 135
29 113
75 80
52 78
1 5
41 87
72 65
33 83
53 61
39 126
85 93
10 99
76 44
3 60
17 4
54 142
76 53
43 105
51 118
69 5
3 87
77 36
61 19
66 134
50 28
61 28
42 33
27 44
76 147
29 72
6 79
6 88
75 57
29 99
44 60
69 144
23 37
25 56
29 108
10 67
80 153
25 65
34 43
52 91
54 110
22 41
64 65
22 68
66 102
26 29
32 100
46 44
27 12
80 27
66 129
78 94
50 23
9 89
20 0
30 44
5 109
33 46
50 126
54 96
85 74
19 138
16 2
30 147
76 25
11 143
49 8
8 156
54 123
65 34
61 0
7 29
64 145
23 153
13 118
17 97
39 8
47 110
6 69
10 48
18 150
69 143
34 33
85 87
2 80
13 77
18 6
7 6
31 134
79 31
65 114
82 45
16 109
19 16
30 25
60 35
48 79
80 111
50 107
18 136
42 103
27 123
39 88
56 19
10 61
73 99
46 11
59 39
75 154
4 112
78 61
70 66
4 130
65 109
8 11
9 74
49 137
15 144
62 76
7 140
30 114
8 123
19 141
32 71
23 102
70 34
59 43
33 143
64 121
70 52
5 53
17 64
69 74
76 122
56 153
62 53
61 97
73 62
27 95
81 84
33 44
54 76
25 40
78 15
60 128
14 21
11 123
72 102
18 0
59 38
55 49
64 125
40 15
3 115
14 124
5 84
80 87
49 118
70 150
10 19
42 88
19 95
30 113
6 152
86 32
23 92
16 53
33 133
13 75
71 7
47 49
17 45
29 10
65 94
5 61
67 131
7 89
6 44
78 149
80 91
71 110
79 123
2 10
61 96
82 137
11 95
75 98
63 133
31 73
32 38
51 60
86 27
55 21
44 128
41 141
52 141
37 89
17 31
45 111
28 40
48 18
14 114
14 123
81 24
78 135
39 36
80 86
27 80
66 8
19 94
20 59
84 62
40 126
74 39
13 20
32 42
78 9
51 55
86 22
35 38
84 89
40 153
72 87
4 78
56 88
76 66
17 35
38 67
80 54
36 124
47 124
26 101
16 155
44 6
66 3
47 151
9 143
60 90
84 57
85 34
48 143
1 22
33 91
66 39
75 106
60 117
10 98
4 64
43 46
73 145
34 74
41 122
24 51
44 118
28 12
64 96
36 25
10 125
22 90
17 21
37 88
14 95
85 146
5 37
3 104
35 136
15 87
7 83
36 128
18 101
83 69
77 147
83 78
29 107
12 36
83 87
84 52
35 10
84 61
66 25
53 55
60 103
33 86
16 15
52 99
41 99
2 89
39 138
54 136
68 43
76 74
37 92
7 51
38 66
27 29
78 102
78 111
27 38
39 3
69 53
24 149
7 87
71 90
82 99
39 39
48 106
66 2
28 137
84 38
58 147
33 72
40 120
58 156
21 116
73 126
10 88
30 155
2 102
37 69
39 151
85 118
2 111
14 76
9 7
51 143
18 64
26 77
67 115
79 89
8 47
23 8
19 56
29 88
40 88
4 31
72 49
6 113
1 16
10 92
74 95
20 142
61 12
16 108
78 101
79 75
75 50
58 128
77 141
84 37
81 120
50 151
76 32
2 92
32 93
46 37
61 7
1 105
12 142
79 43
26 58
0 6
70 92
48 55
68 131
40 60
65 144
46 140
52 43
5 120
75 54
4 12
65 0
10 64
62 120
74 85
68 32
14 61
55 62
38 28
72 142
32 106
47 67
71 34
64 156
27 27
17 90
75 49
34 8
58 136
22 15
31 91
62 106
22 33
10 77
12 96
54 111
32 74
85 89
1785 28
