25

17 5
14
10 4
15 0
2 1
6 2
10 2
15 4
5 2
8 2
3 3
4 4
5 4
3 0
7 3
9 3
12 3

11 5
3
7 4
3 3
10 1
12 2

9 6
7
1 0
1 1
7 5
1 5
6 4
5 5
0 1
11 2

11 16
5
3 9
2 14
4 4
3 7
9 5
11 2

16 10
4
0 9
1 4
6 5
9 1
8 1

14 12
13
11 0
1 9
8 0
9 4
6 2
0 6
1 1
11 4
4 7
9 1
7 7
2 8
9 3
8 1

11 12
8
8 5
10 5
3 4
7 7
4 10
2 10
8 1
1 3
12 3

13 20
11
5 9
5 17
8 13
8 4
7 18
0 6
6 11
0 19
1 9
10 8
6 13
12 1

14 6
5
3 3
3 1
9 3
12 0
0 4
6 4

11 18
10
3 14
10 4
3 17
9 12
5 0
3 3
10 12
4 2
9 6
0 8
20 4

17 5
14
2 4
1 2
3 0
2 3
6 3
6 0
0 0
9 3
13 1
2 1
6 1
4 4
11 1
8 1
8 3

18 8
4
3 4
2 3
16 4
14 5
13 3

10 12
3
4 9
1 2
6 4
19 2

7 15
3
6 2
4 11
6 5
15 2

19 17
14
1 4
12 10
10 14
14 13
12 15
11 2
18 15
2 3
17 4
12 8
5 7
13 0
9 12
18 6
16 4

14 20
7
9 8
12 8
8 5
3 3
1 15
9 15
0 1
20 4

15 7
14
0 5
12 0
12 3
6 5
1 4
1 1
9 4
8 5
2 6
2 5
3 0
13 3
9 0
9 1
9 1

20 6
5
19 1
2 0
19 2
12 1
0 1
10 1

10 20
3
2 2
7 13
5 15
14 2

12 16
11
5 9
0 8
7 6
5 3
9 13
1 2
1 4
5 11
8 9
9 10
6 6
18 2

8 20
3
3 18
5 10
4 3
8 4

13 7
9
5 4
5 0
0 0
11 4
8 1
0 5
12 0
6 6
1 4
18 1

16 14
12
6 12
5 3
1 5
4 4
3 3
7 4
6 7
3 4
14 5
8 0
11 2
12 13
12 2

12 7
10
10 5
1 1
4 4
3 4
6 3
8 4
9 4
7 5
8 6
9 3
14 1

12 11
5
0 7
7 8
11 6
2 4
7 1
11 2
