10

9 9
18
8 0
1 8
7 5
0 1
0 4
5 1
2 6
2 0
1 5
0 4
4 1
2 6
8 0
7 1
1 5
1 0
1 5
8 1
12 5

15 18
9
0 6
3 0
7 17
5 16
9 11
14 5
4 17
8 8
14 2
62 8

9 5
17
6 1
8 0
0 0
7 2
4 3
7 4
0 2
3 1
8 1
4 1
7 0
5 0
2 1
4 4
7 2
3 0
2 2
10 2

15 6
7
11 4
2 3
1 5
11 5
5 4
12 3
5 3
73 4

11 19
23
6 5
3 8
0 12
5 3
9 8
2 15
5 12
3 14
2 7
6 13
0 17
7 1
2 5
8 16
8 13
6 6
5 11
3 7
2 18
5 6
8 9
6 1
2 12
62 9

8 17
11
4 10
6 14
2 11
2 11
0 3
2 13
1 8
7 3
6 16
2 13
3 3
26 4

16 13
8
11 3
13 2
12 0
5 2
14 10
0 8
1 1
8 11
34 10

17 7
11
15 5
5 0
9 5
15 4
1 3
10 0
13 3
16 5
15 4
0 6
9 5
24 9

4 9
7
3 6
3 0
1 7
1 3
2 1
0 5
3 8
31 4

11 18
22
0 2
9 4
6 0
0 10
6 1
3 2
8 4
1 5
0 2
4 14
4 12
2 11
10 5
7 14
7 9
2 12
5 14
5 3
10 12
3 10
10 4
4 11
85 7
