11

9 11
11
8 10
2 0
8 6
7 3
3 6
5 1
1 10
2 8
0 7
4 8
1 8
100 6

17 19
17
11 8
0 12
6 1
0 14
4 12
0 17
6 3
8 6
9 6
15 4
12 12
11 15
0 2
10 17
12 18
0 1
2 6
69 1

5 20
24
3 14
1 9
4 5
1 13
0 14
0 19
3 7
3 3
1 16
1 3
3 15
2 12
3 15
4 11
4 15
4 7
3 3
4 4
1 9
1 18
0 6
3 3
1 0
1 1
20 10

18 14
5
9 0
0 12
14 2
9 11
3 11
3 10

12 15
11
10 3
1 9
10 7
1 9
11 6
2 11
4 12
2 0
3 7
1 1
10 2
7 4

9 17
21
8 12
8 7
3 3
1 5
8 6
0 10
4 13
8 9
8 9
4 1
1 2
8 16
8 15
6 7
1 15
7 12
3 0
4 10
3 0
3 11
3 6
97 10

13 9
1
6 8
91 4

18 8
19
0 5
1 6
6 4
5 3
11 1
13 7
8 1
7 0
14 2
8 1
14 1
7 3
13 4
15 2
8 1
5 3
5 6
13 7
15 7
98 5

18 17
15
10 4
1 15
9 7
4 6
7 4
0 16
17 14
8 0
14 16
6 3
8 10
7 7
11 3
8 2
4 3
2 6

8 8
16
2 4
7 5
5 7
1 7
1 3
5 6
0 5
0 2
7 5
2 5
5 3
3 5
6 0
6 1
3 3
1 3
30 6

7 10
24
4 3
2 0
0 4
6 8
4 3
4 4
3 8
0 4
6 9
6 4
2 0
0 0
5 5
4 6
4 2
0 4
0 7
6 9
6 6
0 8
1 3
2 9
3 7
0 7
96 2
