8

4 9
12
1 0
3 1
3 1
2 1
0 8
2 0
2 4
0 7
0 4
1 1
2 4
3 2
25 12

12 17
24
11 1
9 10
10 2
3 2
6 11
11 0
4 0
11 14
10 9
3 13
10 15
6 2
11 0
10 1
4 12
1 1
4 15
9 6
10 14
8 15
3 14
2 16
2 6
1 13
62 18

7 18
24
6 11
2 0
2 13
4 5
2 16
5 4
0 11
1 2
2 16
4 5
6 7
0 17
2 4
3 13
4 12
5 9
4 14
4 4
5 10
1 4
6 15
0 3
6 7
0 7
34 13

7 16
13
4 12
2 4
0 1
1 10
6 8
4 4
6 14
5 15
5 8
2 15
5 1
0 0
0 14
96 15

18 15
14
6 11
17 7
16 6
9 6
13 6
12 3
7 10
7 0
11 3
8 7
15 9
7 4
15 13
0 11
4 13

9 19
19
4 12
6 8
4 12
0 3
5 0
7 6
7 9
2 6
6 11
0 8
4 10
7 10
5 5
1 14
8 9
2 15
0 8
7 11
8 15
2 11

13 5
22
8 0
8 2
6 4
3 1
7 4
5 1
9 0
4 1
7 2
4 4
6 3
11 1
1 1
12 0
7 0
3 2
3 4
0 2
0 1
2 2
10 4
2 4
58 1

16 9
7
7 4
15 4
3 7
15 6
7 4
7 7
7 8
58 12
