*** Life<Cell> 14x15 ***

Generation = 0, Population = 11.
---------------
--------0------
----------0----
---------------
-------0------0
---------------
-------------0-
---------------
00-------------
---0------0-0--
---------------
---------------
0--------------
---------------

Generation = 3, Population = 76.
------0--010---
-----0--00*00-0
-------1-000---
-----0--1-0--0-
----0-0--11-1-1
00---0-0-00000-
1100--0-0----0-
-0-10--0-0-0--0
.1*-00--0---0--
-*-00-00-----0-
0100-0--0-----0
00--0----0---0-
----------0-0--
0-0------------

*** Life<Cell> 15x18 ***

Generation = 0, Population = 10.
--------0---------
------------------
---0--------------
------------------
-----0------------
------------------
---------------0--
-0----0-----------
------------------
------------------
--------------0---
------------------
------------------
------0-----------
-------0--------0-

Generation = 2, Population = 33.
---0--0-0-0-------
------------------
-0------0---------
------------------
-------0-------0--
-0----0-----------
-----0-------0---0
---00---0---------
--------------00--
-0----0-----------
------------0---0-
------0-----------
-------0------0-0-
----0---0---------
-----0-0-0----0-0-

Generation = 4, Population = 38.
---011------0-----
------------------
-------10------0--
-1----0-----------
-1------10--------
------------------
---1-------0--1--0
-01--0----0-------
-----0------------
------0-----------
-------0--0----10-
-0----0-----------
-------0--------0-
--0---0---0-------
---0-------00-0-0-

*** Life<Cell> 16x18 ***

Generation = 0, Population = 18.
-----------0---0--
------------------
------------------
-----------00-----
--0---------------
--------------0---
------0-----------
-0--0------0------
-----------0------
0-----------------
--0--0--------0---
-------0----------
---0--------------
------------------
------------------
--0---------------

Generation = 2, Population = 59.
---------0-0---0-0
-----------10-----
--0--------1---0--
---------01--1----
0---0-0-----------
-0--0-----------0-
--0-1---0--1------
1-11--1--0---00---
--0--00--0---00---
011-0--0---1------
1---1--1---00---0-
0----1---0--------
-01-----------0---
--0----0----------
---0--------------
0-0-0-------------

Generation = 4, Population = 57.
--0----0---*---0-0
-----------.--0---
------0----.---0--
-0--1--01-.1---10-
0-----0--------0--
0---------0-------
----.1----1---1---
10*.-0.-0--*1--1--
--00---0-------1--
--1-*------.--1---
10--*--.-11-------
-0100-------------
-------1---0------
0-*---------------
--1--0--------0---
0-----00----------

Generation = 6, Population = 105.
0-0-0010---.---0-0
-0--0--10-0.---1--
0-0-1-001--.00----
0-11-1--.**----.-1
*-0-*10-1----01*-0
-----1-00-------0-
0---..1-1-.-----0-
*0..--.0-*0..--*-0
--**-*-------00*-0
--.1.10-0--.---00-
.-10.10*1..-1--0--
-0100*0-------0---
1*--1----01--00---
0-.---01----------
0-.11------00---0-
0---00**10--------

Generation = 8, Population = 102.
---0--10-0-.0----0
1------*0-0.-1-.--
----.1-*100.-*----
0-..1.-*.*.-*-1.-.
.0*-.1--.--0---.--
101-0.0--1----10--
*---.*1-.0*---1---
*-**0-*01.-**1-*--
10**-*0------*0.1-
0-*-.*--*--.-1----
.--*.*0*-..--10*--
-0**-*---1--1--0--
-.10.-----.1------
-0*101-.------1---
-1..10-0------0---
*-00-0.*1-11------

*** Life<Cell> 10x18 ***

Generation = 0, Population = 11.
-----------0------
-0----------------
-------------0----
-------------0----
------------------
--------------0---
----0-------------
------------------
-------00-0-0-----
----0-------------

*** Life<Cell> 12x16 ***

Generation = 0, Population = 18.
----------------
-----0----0---0-
----------------
----------------
----0-----------
--------------0-
----------------
------------00--
0--------0--0---
-------0--------
---00---0--0--0-
-0-0------------

Generation = 3, Population = 76.
---0---00-------
--0---0110------
-------00-0-----
--0------0-0----
-0-0---0--0--0--
0-0-0-0--0----0-
-0-0-0-00------0
--00--01---*--0-
-0111-0-*0*-10-0
01-*0100--00*-0-
1**-1-00---0-*0-
000-01--0-0--0--

*** Life<Cell> 20x18 ***

Generation = 0, Population = 19.
------------------
-----------------0
-0--0-------------
------------------
------------------
------0-----00----
--------------0---
---------------0--
------------------
----------0-------
------0-----------
---------------0--
---------------0--
------------------
-----------0------
------------------
------------------
----------0--0----
-----0-------00---
--------0---------

Generation = 3, Population = 156.
0-00-0---------0-0
-0000-0-------0---
-0**0010----00-0--
-0000010---011--0-
0-00100-0-000-10-0
-0-010-0--1*-1100-
----0-0-0---*000--
-----010-0--100---
-----0100-0--0-0-0
----0-0010-0-000--
---0-0-0100-000-00
----0-0-00--010101
-----0-0-----10101
------0--0-0--0*00
--------0---01-10-
-----0------0--0--
----0-0----10-1---
---0-0-0--0*---1--
--0-0-----0---1-10
---0-0-0-0-0--000-

Generation = 6, Population = 136.
1-11011-0-----0---
--0-1---1-0--10---
*...1-11--0-1---0-
------1-10--11-01-
0---100-1-0---1---
0---*-11--1.--1--1
--011-1-----.--1--
--0-----0---*01*0-
-00-0-1----1-10*-1
----------10*-100-
0---0---11*0-0.10-
---------0--1-0*0.
--0--000-01*---*1.
--------0----*0.0-
---01*-*00---.-*--
--------010--101--
-0----10--0--1-*--
------00--0.11*-1*
-------010----*-*.
--0-0----1-1-100-1

Generation = 9, Population = 152.
--*11-.--00000.0--
1---*0*-*-*-1.0---
..**.-**-1-0.--0--
11----10-1-01.0.1-
--1-*---.-1**0*--0
.-*0.-..--*.11*-**
0-0--0.0-0*1.*0.00
------1-0---....1-
--0----0-0-*--1.1-
0--000---011.-1--1
1*-01*00**.--1*..-
00--000-10--11-.*.
-----1-.00*.1--...
---0-1-0.00*-.-.-0
--0.*.1*00---.-*--
---0-----.00--0**0
--0------1-1-*-*0-
---00*01*-**....1.
----010--11-.*.-..
-----0---.**1*-.-*

*** Life<Cell> 15x19 ***

Generation = 0, Population = 24.
--------------0----
---------0---------
-------------------
----0-----0-0------
-0---0--0----0-----
----------------0--
----0----0---------
------0------------
--0--0-------------
---0-----0---0-----
--------0-----00--0
-------------------
-------------------
------0--------0---
-------------------

Generation = 3, Population = 120.
----0--0--0-1----0-
-0-0--0--0*-----0--
0-------1--001-00--
---00-10-*-0-010-0-
--001-**0--10-0---0
-0-0*--00-1--0---0-
0-00-0------01--0-0
000-*0001-0001---00
--01-0--1-0---1--0-
---00-1--00-00-*00-
----0-1-----1-1-0*1
----0-10-----10*00-
---00-001----01-0--
---0-0-010--0--00--
----0---0----0---0-

Generation = 6, Population = 143.
-0--1*11-1.1**101--
0--0----0-.11--11-1
-0--0000*0-0-1--000
0-10-0-0*.-0-1.0---
--1-.1..--1-.1.-0-0
1001.----0110--1--*
---1-1*010-0-.0*--*
0--1.010-*0-1-1-001
--1111--.1-00*--1--
--001-.*11--0.0*-*0
0-0----1--00.-.-*..
--1000.10-11---.1--
0--01--011110--*0--
01-.-001-*--0--.-0-
--1--01-1-1-00*0-1-

Generation = 9, Population = 147.
---0**1*0**1*.----0
0*0-0*1-.1..*-0*.**
010-1.-...--**-*--1
0-1.0-*0**0.-1.1*-0
1--*....01*...*-01.
.-11.0-00-..11-.0-.
1*--0*.**101-.1.00.
-0-1**.1-*.0.1*--1-
0*-1.-0-.--1-.10.0-
-*1--1**1100-*-.1*.
---0--11-01-*-.-..*
00---**.--.*-*1.10-
-1101-1-....0-..--1
1*0*---**.-1---.1-0
0--0*1101-1-01**0.0

*** Life<Cell> 13x20 ***

Generation = 0, Population = 16.
--------------------
--------------------
------------------0-
---------0-------0--
-----0--------------
--------------------
------0-0---------0-
0------------------0
--------------------
-----------0------0-
------0--0----------
----------0-00------
--------------------

Generation = 3, Population = 96.
---------0---------0
-----0--0-0---------
----0-00-0-0-------0
---0-0-1--0-0-0---0-
0-0-00*11--0---0-0--
-0-000-00-----------
--001-1--0-----0-00-
---0000--0--0----111
--0----01--00---0-*0
-0--0--00-*0-0-0-0--
0--0-00*--0-0-000-00
----0-0-10-0.-*100-0
-----0-0----0-00--0-

*** Life<Cell> 16x20 ***

Generation = 0, Population = 18.
--------------------
-----------0--------
--------------------
----00---0-------00-
------------0-------
-----------0---0----
--------------------
--------------0-----
-----------------00-
-----0---------0----
--------------------
--------------------
--------------------
-----------------0--
--------------0-----
-0-------0----------

Generation = 2, Population = 51.
--------------------
----00-------0---00-
------------0-------
--01--1----0----1--1
----------0---0-----
----00--------1---0-
------------0----00-
-----0-----00---0---
---------------11--1
---0---0-----01--1--
-----------------00-
-----0---------0-0--
--------------0-----
-0-------0-----0---0
------------0---0---
-0-0---0-0-0-----0--

Generation = 4, Population = 49.
------------0-------
-------0------------
--------------------
01-.-*--00--------*1
--------0-------101-
-----*-0------.----1
--------------------
----10---01------0--
------------110*--*1
-0-------0----.0-.-1
--------------1-----
-0-------0----0-----
-----------------10-
-0---0---0---0-0---0
----------0---0---0-
-0-----------0---0--

*** Life<Cell> 15x20 ***

Generation = 0, Population = 19.
--------------------
-0--0--0------------
--------------------
----------0---------
----------------0---
------------0-------
--------------------
--------------0-----
------------0-------
--------------0-----
-----------0---0----
--------------0----0
---0--0-------------
----------------00--
-----------0--0-----

*** Life<Cell> 17x15 ***

Generation = 0, Population = 14.
---------------
---0--------0--
---------------
--0------------
-------0---00--
-----------0---
-----0---------
--0------------
-----0---------
---------------
---------------
---------------
--0------------
0--------------
-------0-------
-------------0-
---------------

Generation = 3, Population = 109.
-00--0----0---0
01*00-00-0--00-
0000000-0----00
-00*10-0------0
0--00---------1
---0-0--0--1-1-
0-0-0-0--00-1--
-0-0-0-0--01---
0---0---0--0---
-01----0-------
00100-0--------
100-00-0-------
-000-00-0----0-
1-*000-0-0--0-0
-0100-0-0-00-0-
-00--0-0-00-0--
0-----0-0--0---

*** Life<Cell> 15x15 ***

Generation = 0, Population = 17.
0----0---------
--0------------
---------0-----
0--------------
---------------
---------------
------0--------
---------------
---------0-----
---------------
0----0---------
-------------00
-------------0-
--00-----------
-0-----0--0----

Generation = 3, Population = 94.
-0*10-----0----
0-0--0---0-0---
*0------0-0-0--
10---000-0-0---
-----0-00-0----
-0--0-0-0------
0--0-0-0110----
0---000000-0---
-0--01-10-0-000
--00-00--0-00-1
----0-0---00-*0
----00---0--*0.
---0-1--001--1-
-11-*10-00-0--1
-1--01-1--1-1--

Generation = 6, Population = 82.
0*.----------0-
1-.-1---0------
*-0--1--00-0---
*-0-0----------
---0-11--010-0-
--*------0---00
*-*11----..10--
*-10-----1-01-*
1--11.1--------
-1-.01---11--01
01*---.--0110.-
0-----1-1--1.*.
00---1-*1-.-1.1
--.-.*--1-1----
-*-*-**111*-1*-

*** Life<Cell> 15x17 ***

Generation = 0, Population = 12.
-----------0-----
-----------------
---------0-------
---0-------------
-----------------
-----------------
-----------------
------0-----0----
-----------------
-0---------------
-----------------
---------------0-
-----0-----------
------------0----
0-0---------0----

Generation = 2, Population = 37.
-----------0-0---
---0-------------
-------0---------
-0---0-----------
---------0-------
---0--0-----0----
-----------------
-0--0---0-0---0--
-----------------
---0--0-----0--0-
-----0-----------
-0----------00---
0-00---0----1----
----------0---00-
0---00----0-*-0--

Generation = 4, Population = 44.
-------0-0-----0-
-----------------
-----1-----0-0---
------11----0----
-----------0-----
-0---------------
---------0-------
--11----0-0----10
-----0-----------
-0---0------0----
0-0---------0----
------0----10--0-
01*------0--.----
-0------0---1---1
0-0-**1-0---.---0

Generation = 6, Population = 84.
---------------0-
------01----0----
---0---------0---
-0--00..100---0--
-----0-----0-----
--1---000-0-0--00
-----0-0---------
01..1-0-0-0--01.*
0-11---0-0--1----
--00--100--1*-0-0
01--01---00---0--
----01---11.0-1-1
-..*-0100---.0--1
---011-----11--*.
-1--*..0-110.01--

*** Life<Cell> 20x16 ***

Generation = 0, Population = 18.
-------------0--
----------------
----------------
----------------
---0-0----0-----
----------------
----------------
------0---------
----------------
----------------
-------------0--
---------0------
--------------0-
------0---0-----
----------------
--------0-------
----0---0-------
----0-----------
----------------
---0----0-00----

Generation = 3, Population = 129.
----------0-----
---0-0----00---0
--0---0--0-00-0-
-0-----00-0-00--
0-----0110-0-0--
-0---0--0-0-0---
--0-0---00-0----
-------0-00--0--
----0-0-00--0-0-
-----0-00-00-000
-------0-0-100*1
-----01100*--000
----0-00000--*0-
---010-0-*001-0-
---0-0-0*---00-0
--00*0--1-0---0-
-01-1-0--01-----
-0-*-0-000-10---
-000*--0--0-00--
0--1*-10---.-10-

Generation = 6, Population = 140.
-0------1*.10---
------0---------
-0-0-010--00-01-
----0---0-------
---001-*11--1.-1
--0---1--10-----
-0-0-000-110-0-0
0---0-001*110---
-0-0-0-000---1-1
--0-000-00*-001-
---001000-01--.*
--00-**-*0.--1-1
--1-*-0-.0.-0*.1
0-0-.---1..11-.-
0---1--0.1010--0
101-*00-.-1-00--
*---*---.--1*00-
*-0.*-0-1--.0010
1--0*0--*0--101-
0-0-.-.-0--.-*.-

Generation = 9, Population = 132.
----0-00.***.0--
---0-------000--
--0--..-----0..-
-00--0--1-00-*--
01-.1.-..--**.*1
-000--.-0.1--*--
0------00*1-010-
-0--0--1**..-0--
0--011--1---0.--
---0--0-1-.-*..0
-0-0-*00*11.-0*.
0-0--***.1.*0.--
00*-*-*0..*--...
.-.*.-*0*..1*1*0
0--0*101.*...-*0
.-*-.0-1*0*-.1--
*1-**01-.--*.00-
.--*.---.--.----
-*0-.*--.-0*1-*-
1--1.0.--0-*-*.*

*** Life<Cell> 10x17 ***

Generation = 0, Population = 21.
-----------------
0---0------------
---00------------
-----------------
----0---------0-0
-------------00-0
0-0------0--0-0-0
--0--------------
----------0------
------00-------0-

Generation = 1, Population = 52.
0---0------------
-0--10-----------
0-01-0-----------
---0----------0-0
---0-0--------1-1
0-0-0----0---11--
--10----0-00-01-1
0010-----00-0-0-0
--0---00-0-0---0-
-----0110-0---0-0

Generation = 2, Population = 56.
---01------------
0-----0----------
-01-010-------0-0
0---0--------01-1
0--10-0--0------*
--1--------00-*0-
--*----0---10-*-*
1---0-00-----0101
0-1-----01----0-0
--0-01**10---0-0-

Generation = 3, Population = 80.
0-01*00----------
--00--10------0-0
01*----0------1-1
1-0------0--01---
10-*---00-0000--*
00*-0-00-00---*10
00.00--10-0--0.-*
*0-0--1--0-0-1--*
1-*0-0-0--0--01-1
001-1-***-0-0-0--

Generation = 4, Population = 58.
---**---------0-0
--1-----0----01-1
--.----100--0-*-*
--1--------------
*--*----1---1---*
1-.-1-11-11-01*-1
11.--00-1-1-01.-*
.-1----0-------0*
--.-0--1--1-----*
---0-1***-1--0100

Generation = 5, Population = 67.
---*.0--0-----1-1
-0--1---1----1*--
--.---0*1100-0*-.
10-----0-0----1--
.0-*--0---00*-10.
--.--0-*-*--1**--
-*.--1---0*---.-*
.--000-1----0111*
--.------1*0-010.
--1-1****-*001---

Generation = 6, Population = 83.
-00.*-0010----*--
0-1---1---000-.01
0-.-011.**-1--.0.
*-10--01010-0----
*1-.0--0-01-*0*1.
--*0111.-*1--.*-1
1..0--0-1-*1--.-*
.011----0---1****
--.0--0--*.--1*-*
-0--*****0.1---0-

Generation = 7, Population = 88.
-1-*.----1-000.-1
10*0-----01111*-*
-1*-1-*...-*0-.1*
*0*10--*1--01-1--
**0.1-0111*-*-**.
--*1*--.-.*-1.*1*
-..---1-*0**-1.-*
.1-*0--11-0-*...*
--.1--1-0**0--.-*
0-1-*****-*-01---

*** Life<Cell> 18x19 ***

Generation = 0, Population = 14.
------0------------
-------------------
------------0------
-------------------
--------0----------
-------------------
------------------0
-------------------
------------0------
-------------------
------------0------
0------------------
-------------------
-------0-----------
-0-------------0---
-------------------
----00-------0-----
------------------0

Generation = 2, Population = 46.
----0-0-0---0------
-------------------
------0-0-0---0----
-------------------
------0---0-0-----0
-------------------
--------0---0---0-0
-------------------
----------0-0-0---0
0------------------
----------0-0-0----
0-0----0-----------
-0----------0--0---
0----0---0---------
---000-----------0-
-------0----------0
-001--10---0-------
----------------0--

*** Life<Cell> 15x17 ***

Generation = 0, Population = 14.
----------0---00-
---------0----0--
---------------0-
---0-------------
-----------------
-----------------
--------0-0------
-------0--------0
-----------------
-0---------------
-----------------
---------------00
-----------------
-----------------
-----------------

Generation = 1, Population = 35.
-----------0-0-10
--------0----010-
---0-----0------0
--0-0----------0-
---0-------------
--------0-0------
-----------0----0
------0---0----0-
-0-----0--------0
0-0--------------
-0-------------00
--------------011
---------------00
-----------------
-----------------

Generation = 2, Population = 44.
--------0-0--10-1
---0---0---00---0
----------0--000-
-0---0---0----0--
--------0-0----0-
---0---0--------0
------0-0-0-0----
-0---0---0----0-0
--------0-0------
---0---0-------0-
-----------------
-0-----------01-*
-----------------
---------------00
-----------------

Generation = 3, Population = 83.
---0---------*1-*
--0-0-0---0110--1
-0-0-0-0-----111-
0-0-0-0---0---10-
-0-0-0---0-0-----
--0-0---0---0----
-0-0---0-0---00--
0-0-0---0-0-00---
-0-0-0---0-0--000
--0-0-0---0---0-0
-0-0---0-----0000
0-0---------01*-.
-0-----------000-
--------------011
---------------00

*** Life<Cell> 17x17 ***

Generation = 0, Population = 11.
-----------------
-----------------
-0-------0-------
-----------------
-----------------
-----------------
-------0---------
----0--0---------
-----0--0--------
--------------0--
-----------------
-----------------
-----------------
-----------------
-----------0-----
----------0------
----------0------

*** Life<Cell> 18x19 ***

Generation = 0, Population = 13.
-------------------
-------------------
-------------------
-------------------
-------------------
--0------------0---
--------------0----
---0---------------
--------------0----
------------0------
-------------------
---------------0---
-----0-------------
------------------0
-------------------
-------------------
-----0-------------
0----0--0----------

Generation = 2, Population = 47.
-------------------
-------------------
-------------------
--0------------0---
--------------0----
0--10--------0---0-
------------0-0-0--
-01--0------0--0---
------------1-0-0--
---0------0---10---
-----0--------0----
------------00---00
---0---0-----------
---------------00-0
-------------------
0----1--0---------0
---0---0-----------
--00-*110-0--------

Generation = 4, Population = 49.
-------------------
--0------------0---
--------------0----
---1---------------
--------------0----
0--.--0----00------
----------0-------0
--.----0-------0---
-----1----1-.-----0
--1-----0-----.*0-0
--------------*----
---1-------1-------
-0---0---0----0----
0----0--0---0-1-*--
-------------------
0----1--0------0---
-0---1---0---------
-1*-0.1*-0--0-----0

Generation = 6, Population = 122.
--------------0----
0--10--------0---0-
------------0-0-0--
001--00----00--0---
----------0-1-0-0-0
0-0.1--1000--110---
-----0--0-0-*-0-0--
0-.--11-10-000-0100
---0---11-1-.-1-1--
0--10-01--10-0.**0-
-0-------00-0-.-1-1
011------1--*100--1
-----------11-*-1--
--0--*110--10-.1.-0
--------------1----
-0-01*--000--01-100
-----.-*---0-------
-1.00**.1-110-000--

*** Life<Cell> 13x15 ***

Generation = 0, Population = 10.
-----0------0--
---------------
--0------------
---------------
--0------------
---------------
----0----------
--0-------0----
---------------
---------------
---0-----------
----------0-0--
---------------

Generation = 2, Population = 32.
--00-0-0--0-0-0
---------------
0-0-00------0--
---------------
0-0------------
--1-------0----
------0--------
0---1---0---0--
---00----------
--0---------0--
-0---0---------
--------0-0-0-0
---0-----------

Generation = 4, Population = 31.
-1------11----0
---------------
0---**1-----0--
--0-------0----
0----00-----0--
--.------------
1-10----1------
0---.-----0-0-0
--0------------
---------------
----1--0-------
--0---0-0---0--
---0-----------

Generation = 6, Population = 66.
11-100-1..10---
--0-11----0----
-1--...1-01-0--
0----0--0---0--
0-*--**1--1-0-0
00.1--------1-0
*0.-1-----1-1--
*-0-.---1-0----
--0*---00------
0-1---0-0-0---0
---1-10--0-----
0-----0-0-----0
-0-010-0-------

Generation = 8, Population = 52.
*.-**00-..1*-0-
--011-1000-----
-10-...11*1----
-01-1*-1--0-0--
01*--...--1----
--.--11--------
*0.-11----.-.--
*1--*0--.------
---.10------0--
--.------------
--01-.-----0---
----1-------0--
--0-1----------

*** Life<Cell> 10x20 ***

Generation = 0, Population = 10.
-------------0------
---------------0----
---------------0----
----------0-0-------
--------00----------
-------------------0
--------------------
----0---------------
--------------------
---------0----------

Generation = 1, Population = 31.
------------0-00----
-------------0010---
----------0-0-010---
--------0----0-0----
-------011--0------0
--------00--------0-
----0--------------0
---0-0--------------
----0----0----------
--------0-0---------

Generation = 2, Population = 35.
-----------0-0------
----------0-01---0--
--------00-------0--
--------1-0-0-01---0
------01--00---0----
----0-----0-0----0-0
--------00----------
--0---0--0---------0
--------------------
----0--0-0-0--------

Generation = 3, Population = 75.
------------010--0--
--------0--01-0-010-
-------0-10--0010100
------0-*010--1-000-
----001*-1110--100--
---0-0000-10-0-00---
--0-0-001---0----0--
-0-0-0-0-10-------0-
--0-0-00---0-------0
---0-00-----0-------

Generation = 4, Population = 29.
--------0------0-1--
-----------1---1----
-----------0-1-----1
----0-1-.-----*-1---
----11-.----1-------
---------0-------0--
---------------0----
0-------0*1-0-------
--------00----------
----01-------0-----0

Generation = 5, Population = 75.
-------0-0-0--01--0-
--------0-0*110*01-0
----0-0---01---10-0-
---010-0.--00-.--0-0
---0-*-.-1-1-00-00--
----00--0-1-0--00-0-
0-------1-0-0-0-00--
-0-----0-.*--0-0----
0---00-0----00-----0
---01*0-00--0-0---0-

Generation = 6, Population = 90.
------0-0-01--------
----0-0--0-.--1.1*--
----10--01-*01-----1
--0-*-1-.0-11-*1110-
--01-.1.--1*-111---0
0---1-0010*01-011--0
----00--*---10---1--
0-0-0001-*.0010--0-0
------01-000---0----
0-01*.10110010-0-0--

Generation = 7, Population = 111.
----001--01*0-0-01--
---0101001-.1--.*.00
--00*1001*-*1*01----
-010*0*0*11*--.*--10
00-*1.-.11-.-*-*00-1
-00-*0--*-.1---**-01
--001-00.000*-00-*0-
-----11-0*.-1*1-01--
---0--1*01110--10--0
--1-.*-1-*11-1-1--0-

Generation = 8, Population = 54.
-----1-----*-----*-0
-------11*-.---.*.11
----.----.0.**------
--*-.1.1.--*--..--*-
11-.*.1.*--*1.-.11--
----.1--.0.*-0-..---
-------1.--1.0---.--
--0--**--..0*.-----0
----00-.1-**-0------
-0--..1*1.*-1--*-0--

Generation = 9, Population = 88.
----0-10001.0----*01
-----01*-*-*11-..**-
--0-.1--1*-**.0-0--1
0-.0.-*-.--.10..1-.0
**-.*.-**-1**.-.**--
00--.--0*-.*110..0--
--0-----.00-.10--.-0
-0-0-**-0..1.*----0-
-0001-1.*-*.--01-0-0
0-1-.***-.*1--0.--0-

*** Life<Cell> 17x19 ***

Generation = 0, Population = 24.
-------0-----------
----0--------------
-0----------------0
--------0----------
--0----0---0---0---
-------------------
0-0----------------
-------------0----0
-0-0-----00--------
--0-----0----------
0-------0----------
-------------------
---0---------------
-------0-----------
-------------------
-------------0-----
-------------------

Generation = 1, Population = 73.
----0-0-0----------
-0-0-0-0----------0
0-0-0---0--------0-
-00------0-0---0--0
-0-0--0---0-0-0-0--
0------0---0---0---
---0---------0----0
0000-----00-0-0--0-
0-0-0----110-0----0
0------01-0--------
-00----010---------
0--0----0----------
--0-0--0-----------
---0--0-0----------
-------0-----0-----
------------0-0----
-------------0-----

Generation = 2, Population = 72.
-0---0-0-0--------0
--0---0-0----------
--10-------0---00-0
----0-0---0--------
-10-00-----------00
--------0----0----0
-0-10--0-000---0---
--1-----0--0---00-0
-010-0-0---10------
1---0-0---1--0----0
011---0--1---------
--0----01----------
00---0--0----------
-----0---0---0-----
---0---------------
-------0---0---0---
-------------------

Generation = 3, Population = 122.
0---0-0-0-0------0-
--1----0---0---00--
-0-1----0---0-011--
-0--10-0-0-----000-
0*1--1--0-0--0--01-
--00-0----000-00--1
0-0*100--1--0001---
-0*000-0------0-1--
-1*10-0-----1--00--
*0---01-------0--0-
---0001------0----0
-010-0-1-----------
11--010-1----0-----
00-0010---0-0-0----
--0-00-0-0-0-0-0---
---0--0-0-0-0-0-0--
-------0---0---0---

Generation = 4, Population = 69.
-000---0-------0--0
0---0---0----------
011--0-0------1-*--
----*-------00----0
1.----0--01----0---
--1-0---0----------
-01.*-1-0---------0
--.-----00----1-*0-
-*.*--1----1-001---
*---0-*0----0------
0-----------0------
------------------0
-*-0---0-00--------
--01----0--0-------
0-------0----------
---------0---0---0-
---0---------------

Generation = 5, Population = 135.
-1-1--0-------0-00-
10-----0-0----000-0
--*10-------0---.00
-000.-00-00011-000-
-.1--1-0-1*0000-0-0
0-*-10-01-0----0--1
01-..---------0-0--
--.00--0-100--*0*1-
-...-0*-011-111*-0-
*-----*11---1-00---
11--0-10---010----0
00-0---1-00-0----0-
1.010-0-111-------0
0-1-0---1---0------
-000---01--0-0---0-
0--0------0-0-0-0-0
--0-0----0---0---0-

*** Life<Cell> 14x15 ***

Generation = 0, Population = 15.
---------------
---------------
-----0---------
------0-0--0---
-----------0-0-
------0--------
------0----0-0-
---------------
---------------
---------0-----
-------------0-
--0------------
---------------
--------0-----0

Generation = 2, Population = 41.
-----0---------
------0-0--0---
---0---0---1-0-
----0---011--1-
-----00--0-----
----0-*----0---
----0---00-----
------1--0-----
------0----0---
--0----0---0---
-----------0---
0---0---00----0
-------------0-
--0---0-0-0-0--

*** Life<Cell> 15x20 ***

Generation = 0, Population = 16.
--------------------
0---------0------0--
0--000--------------
--------------------
-------------0----0-
--------------------
--0-----------------
------------------0-
-0----0--------0----
--------------------
----------------0---
--------------------
--------------------
---0----------------
--------------------

Generation = 1, Population = 60.
0---------0------0--
10-000---0-0----0-0-
1001-10---0------0--
0--000-------0----0-
------------0-0--0-0
--0----------0----0-
-0-0--------------0-
-00---0--------0-0-0
0-0--0-0------0-0-0-
-0----0--------00---
---------------0-0--
----------------0---
---0----------------
--0-0---------------
---0----------------

Generation = 2, Population = 55.
1--000--------------
*-0-----0---0--0---0
*1-*-*10-----0----0-
1---------0------0--
0-0000-----0---00---
------------------1-
01--0-0------0-0--1-
----------------0---
--100---0----0--10--
------------------0-
-0----0-------01--0-
---0----------------
----------------0---
-0---0--------------
--------------------

Generation = 3, Population = 123.
*0-1-10-0---0--0---0
*0-00-0--0-0--0-0---
**0.-.-1--0---00----
--0-0-00-0---0-0----
1-1--10-----0-011-0-
-000-00----0-0--00*0
1*00---0----0----0*0
0000--0-0-------1-0-
-0*-10-0-0--0-00-1--
-0000-0-0----0000-10
0-00-0-0-----01*0010
-00-0-0-------000-0-
-0-0-0---------0-0--
0-0-0-0---------0---
-0---0--------------

Generation = 4, Population = 57.
*--*0*-------0----0-
.10-101---0--01--0-0
*.-.-.1*00----------
-----0------------0-
-0----1--0----1*-01-
0---------0------1.-
-.-1000---------0-.-
--------------0---1-
-1.--1----00-0----00
---1----------------
--1---------0--.----
------------------1-
-1----0--------1----
---0---0------------
----------------0---

Generation = 5, Population = 115.
.--*1.----0-01------
**10-1--0--00-*00-0-
.*0.0.-*-1---00--000
10--0-000-----00--10
--1----00----0*.---0
---000-----0--00-**-
1.0*--10--0---00--.-
-0-00-0---00---010*-
0-.01-0--011-----1-1
-0--00----0000----10
-0---------0-0-.--1-
-00---0-----0--0-0-0
0-00-0--------0-0-0-
-00-0---0------00---
---0---0-------0-0--

Generation = 6, Population = 111.
.0-**.--00-0-*-00-0-
*.*---1----1--.-101-
..-.1.-.--00-110-1--
*-001-1------0110--1
1----1---0-001..-011
0-0--1--0---0-1--.*-
-*1.0--10010-0-1--.-
0-01------1-0----1*-
-1.-*11001-*-0-0-*-*
-10--1--------0-----
0---000----1-11.--*0
-------0--------0---
--110---0---00--10--
-1-------0--------0-
-0----0-------010-0-

*** Life<Cell> 10x18 ***

Generation = 0, Population = 18.
0-----------0-----
------------0-----
----------------0-
0-----------------
----0-----0-------
------0----------0
0----0---------0--
-------0-----0----
----------0-------
-----0----0-0-----

Generation = 2, Population = 57.
--0-------0-*-0-0-
1---------0---0---
1---0-----0-1-0---
0-0---0-----0----0
1-0--11-0---0--00-
1---1--10----0-1-0
0-001--1-----1---1
------1--0101--1-0
0----1--0---1--0--
---0-0--0----10---

Generation = 4, Population = 52.
--0-----0-*-.-----
.-----0-0---1---10
-----1------.--10-
--*-1--1-----1----
-----*1-*-0-*-1---
--0-*0-------*-.--
-0*-1--.-1-1-*--11
0--1-0---*101--.-*
----1.0-----.-0---
-0-----1*1---**-00

Generation = 6, Population = 91.
0-0-001---.1*0-01-
.-1---00*----1-0-*
--10-101---0*--*-0
0-.-----00-001-110
-0101.*1*0--*-1110
--*0.-0--11--.-.-*
1**-*10*1.1.1.1-.1
0-010--01.-*.0-.0*
-1---.0----1.0*--0
10----0**.-0-.*0-*

Generation = 8, Population = 77.
----*-1-*-.**--0*-
*1---1*-.----.--**
*----.---1*0.1*.10
0-.0-1----0--.-..-
--*-...1.-0-*1...*
*-.0*00*1----.0.-*
-*.-.1*.1***1*11.-
*--10---1*-**--*-.
1.01-.*-1-*1.-.-00
*0---*0*..---***1.
