20

20 15
9
1 8
7 8
19 6
13 13
11 9
12 6
9 13
11 9
7 2
34 28

19 19
5
7 18
8 3
0 14
13 8
14 13
44 22

16 18
5
0 7
11 6
9 8
9 10
14 11
63 4

17 18
12
14 4
2 15
12 13
14 0
3 6
5 6
2 10
12 11
11 11
3 14
4 11
2 13
60 35

8 20
11
3 15
6 0
6 8
6 8
6 5
4 14
5 9
3 10
6 10
0 3
6 7
48 18

8 8
18
6 0
4 4
3 7
5 7
3 2
2 7
1 4
2 0
1 3
4 0
3 0
5 7
6 2
0 2
6 1
7 3
5 5
6 7
69 24

15 17
12
5 4
7 11
7 5
1 16
3 11
7 13
2 13
12 15
2 3
7 1
13 15
7 3
60 8

10 12
12
1 7
2 2
2 4
2 6
8 10
7 8
3 10
3 6
8 5
1 11
3 6
7 1
54 6

17 9
11
6 5
16 2
12 8
11 3
2 8
0 3
10 7
13 7
1 4
10 8
12 3
30 49

6 9
7
1 8
4 5
1 7
1 0
5 2
5 7
5 1
80 9

17 7
12
9 6
2 2
12 2
14 1
10 2
16 5
13 3
13 3
5 5
2 0
5 1
2 5
88 12

11 8
5
1 7
2 3
6 7
1 0
7 5
99 32

7 15
14
0 11
5 11
2 2
3 0
5 14
5 14
1 11
2 7
3 11
1 14
1 13
5 12
6 8
6 3
84 43

11 19
7
6 3
3 4
2 1
2 13
2 2
8 17
9 13
18 40

17 9
7
4 3
3 6
2 8
5 7
11 8
8 1
2 7
33 49

9 15
7
7 0
3 12
3 11
1 1
5 13
0 5
8 2
59 25

12 16
15
4 10
5 6
4 12
7 15
0 8
5 4
6 0
7 15
7 0
6 15
8 15
2 1
6 14
8 7
10 14
33 31

10 6
5
4 2
0 5
9 5
6 4
5 2
10 34

13 12
18
11 6
1 4
0 2
12 9
3 1
12 8
7 7
12 9
12 7
3 2
2 10
11 4
0 7
6 5
11 6
7 10
9 4
4 9
96 19

9 17
7
0 9
0 3
7 11
5 6
5 7
6 2
7 14
53 35
