20

6 5
18
4 0
4 0
4 1
3 0
2 1
3 1
5 4
5 1
5 4
5 0
4 3
3 1
5 4
4 3
1 3
0 1
5 0
5 0
64 25

8 15
20
1 9
2 3
1 9
7 0
6 14
2 10
5 5
2 12
6 3
5 11
7 5
3 9
2 7
1 6
6 5
6 6
4 1
6 6
0 8
2 4
50 50

5 20
16
1 9
4 6
2 5
1 19
1 18
2 9
3 10
1 8
3 14
0 19
1 0
2 14
4 17
1 8
1 10
0 5
40 20

6 19
7
4 13
0 15
3 7
2 13
5 9
3 4
1 5
89 21

16 16
6
5 5
9 9
5 9
0 4
0 1
9 7
57 18

19 11
12
1 6
7 8
1 6
4 8
12 7
13 6
10 2
8 9
13 0
12 6
1 0
14 8
32 28

15 20
8
9 16
0 18
10 5
9 2
1 11
11 9
7 7
0 14
11 35

20 10
20
8 4
7 4
8 2
8 4
15 5
5 2
3 3
8 5
4 0
12 6
12 3
12 5
10 8
5 3
5 3
9 0
11 6
4 8
15 5
7 1
22 4

20 16
6
6 10
12 0
8 14
0 10
2 15
10 0
92 27

11 5
16
1 2
9 1
4 3
0 0
1 0
3 1
7 2
1 1
2 3
0 4
6 1
3 2
7 1
3 4
3 4
9 2
30 42

15 12
16
4 10
10 11
4 11
13 5
8 10
12 10
6 1
3 1
14 6
7 7
14 5
12 10
6 11
2 3
12 11
9 4
95 16

14 10
9
0 9
0 5
5 1
9 6
6 3
8 6
1 0
4 0
12 1
29 35

17 18
7
1 7
16 15
3 2
15 15
6 6
16 9
2 6
31 21

17 19
8
7 9
12 0
8 12
7 0
6 14
14 4
11 8
7 2
52 16

11 14
18
7 2
3 9
5 1
2 5
0 9
0 9
4 13
0 13
1 9
3 0
10 10
5 4
5 9
3 9
6 6
3 12
2 11
1 6
27 42

12 10
10
10 0
3 6
0 2
9 7
10 3
1 4
11 5
10 9
8 6
7 4
92 29

6 16
6
4 2
1 13
0 4
1 10
5 1
3 4
79 44

11 5
5
6 4
3 3
5 3
5 2
5 3
73 27

14 5
15
5 1
1 1
13 1
7 0
8 4
2 1
11 3
7 1
2 0
1 4
11 2
7 0
2 3
9 3
4 2
63 19

13 6
18
6 4
3 1
9 0
4 4
6 4
12 0
5 1
12 2
1 3
6 2
2 1
1 3
8 0
6 0
11 1
1 4
7 1
6 3
49 32
