*** Life<FredkinCell> 3x15 ***

Generation = 0, Population = 14.
---00----0-0---
0-0---0-----0-0
-0-----00---00-

Generation = 1, Population = 19.
0--1100-0-----0
-0--00--00--10-
-------110-0-1-

Generation = 2, Population = 20.
--02211-1---0--
--0-----1-0-2--
-0--00022---020

Generation = 3, Population = 17.
-0----2-200010-
--1-----------0
0--01----000--1

Generation = 4, Population = 20.
0----1--3----1-
0---0-0-1---2-1
-0-120--21-1022

Generation = 5, Population = 16.
10-----040-----
1---1-------3-2
---231-2-2-21--

Generation = 6, Population = 21.
-10-2-21-10-1-0
2---2---1---4--
0-0342-----3-22

Generation = 7, Population = 23.
-21-3-32421-2--
3-----0---0-5--
1-1-530-2-0-133

Generation = 8, Population = 10.
-32---------31-
4-------------2
2---6-----1---4

Generation = 9, Population = 20.
-432-------042-
5-1-2-----0-5-3
30-3-3---2-3-35

Generation = 10, Population = 18.
-543-------153-
6-2---------6-4
-11-6-0-2-1-14-

Generation = 11, Population = 14.
-6543-----1264-
----2-0-1-0----
-2-----------5-

Generation = 12, Population = 20.
17---13-42---50
--2-3-----1-6--
3-1-6-0-2-1-1-5

Generation = 13, Population = 16.
28---24-53---61
--3-4-----2-7--
--2-7-----2-2--

Generation = 14, Population = 24.
39---35-64---72
6-4-5-0-1-3-8-4
-23-83---23-35-

Generation = 15, Population = 16.
-+---4---5---8-
7-5-6-1-2-4-9-5
-3---4---3---6-

Generation = 16, Population = 0.
---------------
---------------
---------------

Generation = 17, Population = 0.
---------------
---------------
---------------

Generation = 18, Population = 0.
---------------
---------------
---------------

Generation = 19, Population = 0.
---------------
---------------
---------------

Generation = 20, Population = 0.
---------------
---------------
---------------

Generation = 21, Population = 0.
---------------
---------------
---------------

Generation = 22, Population = 0.
---------------
---------------
---------------

Generation = 23, Population = 0.
---------------
---------------
---------------

Generation = 24, Population = 0.
---------------
---------------
---------------

*** Life<FredkinCell> 11x8 ***

Generation = 0, Population = 23.
-------0
0-----0-
---00--0
---0-0--
-0-0----
0-0-----
--0---0-
-0-0-00-
00--0---
-------0
----0---

Generation = 3, Population = 42.
0---1---
----2--0
0-21-01-
0---0---
0121-2--
0--0-02-
0-111-1-
----230-
3--1--00
02-1-0-1
111--01-

Generation = 6, Population = 39.
1---4--0
1-2152--
1-3--1--
-1-212--
1--1-3--
0---2-32
-0-2---2
-3-23---
6-3--20-
-3--1-2-
-42-01--

Generation = 9, Population = 37.
------2-
1---6--2
----1--0
0-1-13--
21-21-00
--30----
13--1-25
-4-34-3-
60--2-00
2--22---
1--0----

Generation = 12, Population = 47.
--1-61--
1-31922-
----2-4-
3122--2-
2-2--41-
21614062
4-33-1-8
2---54--
7-3-----
----34-2
4-6313-1

Generation = 15, Population = 41.
50-3---1
--4--5-6
3-------
-1-5252-
-2-2--4-
3--4-17-
4--4424-
2-4-64--
8---2-01
-5--445-
---3-434

*** Life<FredkinCell> 9x19 ***

Generation = 0, Population = 12.
-------0-----------
---------0-----0---
----0--------0-----
-----0-------------
-----------------0-
--------------0----
-----------0-------
---0---------------
----------0-------0

Generation = 1, Population = 40.
------0-00-----0---
----0--00-0--00-0--
---0-----0--0-00---
------0------0---0-
-----0--------0-0-0
-----------0-0-0-0-
---0------0-0-0----
--0-0-----00------0
---0-----0-0-----0-

Generation = 2, Population = 42.
----00-0-1---0-----
-----0-1---0-1---0-
--0---00---0---1-0-
---0---0-0----00---
----0------0-0-0---
---0-0------0---0--
---------01--0---00
-0---0--------0----
--------0-010---0--

Generation = 3, Population = 83.
---01--1--00010--0-
--0--10-0001-200010
-0----11000100-2-10
-------1--0---1100-
---0---0-00-0-01---
--0-0-0--00--0----0
-0-0----0120-----11
0-0-0-0-00-00--0000
-0---0-0--1-1000-0-

Generation = 4, Population = 42.
---12------1-2---1-
-----2---1-2-311---
0------211-2-----2-
-0-0-----0---------
-------1--1--0---00
---------11----0--1
----0--0--3--0-0--2
---0-0-0-----------
------0----1----01-

Generation = 5, Population = 83.
--023----102-3-00-0
0--0--01-2-----20--
---0-013-2-300020-0
----0----1-0-0----0
-0-0--0-00200-0101-
----0---0220--010--
------010-400--1013
--0-0-010-00-0-0000
---0------1-1--0120

*** Life<FredkinCell> 8x16 ***

Generation = 0, Population = 3.
----------------
----------------
----------0-----
--------0-------
----------------
---------------0
----------------
----------------

Generation = 2, Population = 12.
----------0-----
--------0-------
--------1---0---
------0---1----0
----------0-----
--------0----0-0
----------------
---------------0

Generation = 4, Population = 11.
----------0-----
---------------0
------1-------0-
----0-------1---
----------------
-----------0-0--
----------0-----
--------0------0

Generation = 6, Population = 35.
------0-0-0-0-0-
----0-------00-0
----1---2-0-1---
--0---1---21-110
------0---1---0-
----0---00-000--
--------1---0---
------0-0-10----

Generation = 8, Population = 11.
----------------
---------------0
--1-----------1-
0-------1------2
----------3-----
-------102------
----------1-----
----------------

Generation = 10, Population = 37.
--0-----------0-
0-------1----1--
1---2-----1-2---
0-1---21114--2--
--0-----0-3-0-1-
0----0130411---0
--------2-1-1---
-------010------

Generation = 12, Population = 32.
--0-------0---0-
-------111-0-1-0
1-----2-------1-
--3--------322--
------1-------1-
---012-----321-0
--0---1---3-----
0------2-2-----0

Generation = 14, Population = 56.
--0-0-0-1-0-----
--1--003--1011--
1---2-2-3-2-3---
2--1-0-12-652432
0-2-1---0-3-0-1-
00-2-42---1-2310
1-----1-----2-0-
--100-------0--0

*** Life<FredkinCell> 19x7 ***

Generation = 0, Population = 28.
-0-----
0-0----
0--0---
----0-0
--00---
--0----
-00----
----0--
--0---0
-00----
0-----0
0------
-----0-
------0
-----0-
-0-0---
---0---
-----0-
----0--

Generation = 2, Population = 52.
00-----
--0---0
2--0-0-
1-1-0--
--0200-
0---0-0
1---1-0
-10---1
-02----
---1---
2---01-
21----1
1--0-00
00-00-0
-----0-
-0-2--0
-1--1--
-0-----
--010-0

Generation = 4, Population = 60.
220--0-
--0-0-0
----1--
3-3---0
010----
-1----2
31-1-0-
----1--
1--0001
120--1-
-00--3-
-311---
-112-22
-2--20-
10--001
12---0-
----11-
-2----1
0--1-00

Generation = 6, Population = 66.
42---0-
------0
--0--10
-1--2-0
030--1-
2-01---
5--13-0
0----1-
-02-22-
-4-1---
-22----
-511-0-
-33-12-
0--0-22
1211--3
1-1-100
-10-3-0
02-1113
-02--2-

Generation = 8, Population = 50.
-4----0
-1-----
3-01--2
4---2-2
0--2-1-
2-0---3
-2---1-
-1-1---
-0-2---
2-0--2-
4--11--
----1-3
--323--
--1--2-
-231---
-2-31--
--0--10
-40---3
0----40

Generation = 10, Population = 62.
661-0-0
1--11-1
5-23---
-35-2-4
------1
42010--
54---1-
-1-3--2
2---4--
-50---1
6-2-141
4-2-1--
-----34
12--2-3
32----3
--13---
-22--3-
16--2-3
---12-0

*** Life<FredkinCell> 7x18 ***

Generation = 0, Population = 5.
------------------
---------------0--
------------------
--------------0---
-----0------------
------------0-----
--0---------------

Generation = 1, Population = 19.
---------------0--
--------------0-0-
--------------00--
-----0-------0-0--
----0-0-----0-0---
--0--0-----0-0----
-0-0--------0-----

Generation = 2, Population = 14.
------------------
-------------01--0
-----0------------
---------------10-
--00---0----------
----------0-------
0-0-00------------

Generation = 3, Population = 44.
-------------00--0
-----0------01200-
----0-0------00000
--00-0-0------0210
-0110-0-0-0----00-
0--000-0-0-0------
----110---0-------

Generation = 4, Population = 17.
-----0------------
-----------01--1-0
--0---------------
----------0-------
-12------0--------
--------0---0--00-
0----21-----------

Generation = 5, Population = 50.
----0-0----00--0-0
--0--0----01212---
-0-0------000--0-0
-0---------0------
0231--------0--00-
000--000---0-00110
-0--13200---0--00-

Generation = 6, Population = 36.
--00-0-0----------
---------0----31--
010-00---0--------
-----------10---10
--420000---0------
------1---0--1---1
-1-0243110--------

Generation = 7, Population = 67.
-011----00----00--
00-00--0010--1420-
1-1-110-01000-0000
00-0--00-00-10-221
-25---110--1-0--0-
-00--0-00---0-0-1-
0--1--4--1---0---0

*** Life<FredkinCell> 5x6 ***

Generation = 0, Population = 30.
000000
000000
000000
000000
000000

Generation = 1, Population = 14.
-1111-
1----1
1----1
1----1
-1111-

Generation = 2, Population = 14.
-2--2-
2-00-2
-0--0-
2-00-2
-2--2-

Generation = 3, Population = 8.
------
--11--
1-00-1
--11--
------

Generation = 4, Population = 14.
--11--
20--02
--11--
20--02
--11--

Generation = 5, Population = 24.
0-22-0
311113
-0220-
311113
0-22-0
