7

18 5
5
11 2
3 4
6 3
8 0
4 1
70 17

18 5
11
13 2
0 3
2 0
10 1
16 4
1 3
14 0
11 3
7 2
12 1
4 4
24 5

8 16
22
1 14
3 0
5 10
4 5
0 13
7 1
2 8
1 7
6 3
2 5
3 4
1 5
0 1
4 14
6 15
2 11
3 12
7 5
0 7
5 3
1 9
2 6
66 8

16 20
10
10 14
8 15
11 19
7 10
12 5
14 17
5 4
3 2
11 10
14 7
14 11

3 5
10
2 1
1 0
0 3
2 3
1 1
1 2
0 4
2 0
1 3
0 0
40 6

20 4
12
17 1
15 0
5 2
11 0
3 3
1 2
10 3
13 2
16 1
4 0
14 3
2 0
69 17

14 9
25
13 5
10 2
7 7
2 3
9 1
4 8
8 4
5 1
11 0
6 7
1 3
8 5
0 4
6 8
1 7
3 8
7 3
13 8
5 4
2 6
9 3
0 6
8 7
3 1
12 5
5 1
