*** Life<FredkinCell> 13x6 ***

Generation = 0, Population = 18.
------
-0-0--
--0-0-
---0-0
------
-0--0-
------
--00--
---000
------
0-0-0-
---0--
-0----

Generation = 117, Population = 50.
---+++
+-++++
--+-+-
8++-++
++--++
+++-+-
-8-1++
-+-8++
9-++++
-+--+-
+--+++
++--+-
+-++++

Generation = 234, Population = 39.
-+--++
--+---
++++++
+-+++-
++-++-
-+-+--
-++---
----++
+--+--
-+--+-
-+++-+
+--++-
++++--

Generation = 351, Population = 48.
++-+++
--++++
+++-++
-++--+
-++--+
--++-+
-++-++
++---+
-++-++
-+++--
+-+-++
-+++-+
--+-++

*** Life<FredkinCell> 6x19 ***

Generation = 0, Population = 3.
-------------------
0------------------
-------------------
---------------0---
-------------------
0------------------

Generation = 28, Population = 19.
-------------------
0-----305-4-8------
-------------------
---1---2--221------
-------------------
0--1--515--2--3-4--

Generation = 56, Population = 17.
-------------------
4------3------+-+--
-------------------
------555-----323--
-------------------
1-----+3+-----73+--

Generation = 84, Population = 20.
-------------------
5------3---6--+-+--
-------------------
------97+-7-4--2---
-------------------
3-424-+-+-9-+--4---

Generation = 112, Population = 15.
-------------------
6-------------+6+--
-------------------
-------+------+5+--
-------------------
7-----+8+-----+7+--

Generation = 140, Population = 21.
-------------------
7-----+7+--+---+---
-------------------
--+-+--+--+-+-+-+--
-------------------
+--5------+9+-+9+--

Generation = 168, Population = 7.
-------------------
+-----+-+----------
-------------------
-------+-----------
-------------------
+-----+-+----------

Generation = 196, Population = 24.
-------------------
+-+-+--9--+-+-+++--
-------------------
--+8+--+--+-+--9---
-------------------
+--9--+++-----+++--

Generation = 224, Population = 12.
-------------------
+------+-------+---
-------------------
--------------+++--
-------------------
+-----+-+-----+++--

Generation = 252, Population = 21.
-------------------
+--+---+---+---+---
-------------------
--+-+-+-+-+-+-+++--
-------------------
+-+-+--+---+--+-+--

Generation = 280, Population = 11.
-------------------
+------+-----------
-------------------
------+-+------+---
-------------------
+-----+-+-----+++--

Generation = 308, Population = 19.
-------------------
+--+-------+--+++--
-------------------
--+-+-+++------+---
-------------------
+-+++--+--+-+------

Generation = 336, Population = 8.
-------------------
+-------------+-+--
-------------------
-------+-------+---
-------------------
+-------------+-+--

Generation = 364, Population = 15.
-------------------
+-+-+----------+---
-------------------
--+-+------+---+---
-------------------
+-----+-+--+--+++--

Generation = 392, Population = 13.
-------------------
+-----+-+------+---
-------------------
------+++----------
-------------------
+-----+++-----+-+--

Generation = 420, Population = 17.
-------------------
+--+--+-+------+---
-------------------
--+-+--+------+-+--
-------------------
+--+---+--+++--+---

Generation = 448, Population = 16.
-------------------
+-----+++------+---
-------------------
------+++-----+-+--
-------------------
+-----+++-----+-+--

Generation = 476, Population = 18.
-------------------
+--+---+-----------
-------------------
------+-+-+-+-+++--
-------------------
+-+-+-+++--+---+---

Generation = 504, Population = 3.
-------------------
+------------------
-------------------
---------------+---
-------------------
+------------------

Generation = 532, Population = 19.
-------------------
+-----+++-+-+------
-------------------
---+---+--+++------
-------------------
+--+--+++--+--+-+--

Generation = 560, Population = 17.
-------------------
+------+------+-+--
-------------------
------+++-----+++--
-------------------
+-----+++-----+++--

Generation = 588, Population = 20.
-------------------
+------+---+--+-+--
-------------------
------+++-+-+--+---
-------------------
+-+++-+-+-+-+--+---

Generation = 616, Population = 15.
-------------------
+-------------+++--
-------------------
-------+------+++--
-------------------
+-----+++-----+++--

Generation = 644, Population = 21.
-------------------
+-----+++--+---+---
-------------------
--+-+--+--+-+-+-+--
-------------------
+--+------+++-+++--

Generation = 672, Population = 7.
-------------------
+-----+-+----------
-------------------
-------+-----------
-------------------
+-----+-+----------

Generation = 700, Population = 24.
-------------------
+-+-+--+--+-+-+++--
-------------------
--+++--+--+-+--+---
-------------------
+--+--+++-----+++--

Generation = 728, Population = 12.
-------------------
+------+-------+---
-------------------
--------------+++--
-------------------
+-----+-+-----+++--

Generation = 756, Population = 21.
-------------------
+--+---+---+---+---
-------------------
--+-+-+-+-+-+-+++--
-------------------
+-+-+--+---+--+-+--

Generation = 784, Population = 11.
-------------------
+------+-----------
-------------------
------+-+------+---
-------------------
+-----+-+-----+++--

Generation = 812, Population = 19.
-------------------
+--+-------+--+++--
-------------------
--+-+-+++------+---
-------------------
+-+++--+--+-+------

Generation = 840, Population = 8.
-------------------
+-------------+-+--
-------------------
-------+-------+---
-------------------
+-------------+-+--

Generation = 868, Population = 15.
-------------------
+-+-+----------+---
-------------------
--+-+------+---+---
-------------------
+-----+-+--+--+++--

Generation = 896, Population = 13.
-------------------
+-----+-+------+---
-------------------
------+++----------
-------------------
+-----+++-----+-+--

Generation = 924, Population = 17.
-------------------
+--+--+-+------+---
-------------------
--+-+--+------+-+--
-------------------
+--+---+--+++--+---

Generation = 952, Population = 16.
-------------------
+-----+++------+---
-------------------
------+++-----+-+--
-------------------
+-----+++-----+-+--

Generation = 980, Population = 18.
-------------------
+--+---+-----------
-------------------
------+-+-+-+-+++--
-------------------
+-+-+-+++--+---+---

Generation = 1008, Population = 3.
-------------------
+------------------
-------------------
---------------+---
-------------------
+------------------

Generation = 1036, Population = 19.
-------------------
+-----+++-+-+------
-------------------
---+---+--+++------
-------------------
+--+--+++--+--+-+--

Generation = 1064, Population = 17.
-------------------
+------+------+-+--
-------------------
------+++-----+++--
-------------------
+-----+++-----+++--

Generation = 1092, Population = 20.
-------------------
+------+---+--+-+--
-------------------
------+++-+-+--+---
-------------------
+-+++-+-+-+-+--+---

Generation = 1120, Population = 15.
-------------------
+-------------+++--
-------------------
-------+------+++--
-------------------
+-----+++-----+++--

Generation = 1148, Population = 21.
-------------------
+-----+++--+---+---
-------------------
--+-+--+--+-+-+-+--
-------------------
+--+------+++-+++--

Generation = 1176, Population = 7.
-------------------
+-----+-+----------
-------------------
-------+-----------
-------------------
+-----+-+----------

Generation = 1204, Population = 24.
-------------------
+-+-+--+--+-+-+++--
-------------------
--+++--+--+-+--+---
-------------------
+--+--+++-----+++--

Generation = 1232, Population = 12.
-------------------
+------+-------+---
-------------------
--------------+++--
-------------------
+-----+-+-----+++--

Generation = 1260, Population = 21.
-------------------
+--+---+---+---+---
-------------------
--+-+-+-+-+-+-+++--
-------------------
+-+-+--+---+--+-+--

Generation = 1288, Population = 11.
-------------------
+------+-----------
-------------------
------+-+------+---
-------------------
+-----+-+-----+++--

Generation = 1316, Population = 19.
-------------------
+--+-------+--+++--
-------------------
--+-+-+++------+---
-------------------
+-+++--+--+-+------

Generation = 1344, Population = 8.
-------------------
+-------------+-+--
-------------------
-------+-------+---
-------------------
+-------------+-+--

Generation = 1372, Population = 15.
-------------------
+-+-+----------+---
-------------------
--+-+------+---+---
-------------------
+-----+-+--+--+++--

Generation = 1400, Population = 13.
-------------------
+-----+-+------+---
-------------------
------+++----------
-------------------
+-----+++-----+-+--

Generation = 1428, Population = 17.
-------------------
+--+--+-+------+---
-------------------
--+-+--+------+-+--
-------------------
+--+---+--+++--+---

*** Life<FredkinCell> 12x11 ***

Generation = 0, Population = 4.
-----------
----------0
--0--------
--------0--
-----------
-----------
-----------
----0------
-----------
-----------
-----------
-----------

Generation = 140, Population = 40.
+-+-+-+---+
--+---+-+-+
--+-+-----+
--+-+-----+
--+-+-----+
-----------
+-+---+----
+-+---+-9--
+-----+----
----+-+-+-+
+-+-+-+---+
+-----+-+-+

Generation = 280, Population = 26.
----+-----+
--+-------+
--+--------
+-----+----
--+-+-----+
--+-----+--
--+-+-----+
----------+
----+-----+
+-+-+-+----
--+--------
+---+-+----

Generation = 420, Population = 36.
--+-+-----+
------+-+--
+-----+----
--+---+-+-+
+---+-+---+
+-+-+------
-----------
----+-+-+-+
+-+---+----
+-+-+-+-+-+
+-+---+----
+---------+

Generation = 560, Population = 29.
----+-----+
+-+---+-+--
-----------
+-+-+-+-+-+
-----------
----+---+-+
--+-+-----+
----+-----+
--+--------
--+-+---+--
----+-----+
--+-----+-+

Generation = 700, Population = 40.
+-----+----
+-+---+-+-+
+-+-+-+---+
+-+-------+
+-+---+----
+-+-+------
+-+---+----
+-+-+-----+
----+-----+
--+---+-+--
----+-----+
--+-+-+-+-+

Generation = 840, Population = 28.
--+-+-----+
----------+
--+--------
--------+--
-----------
+-----+-+--
-----------
----+------
--+-+-----+
+-+-+-+-+-+
--+-+-----+
+-+-+-+-+-+

Generation = 980, Population = 41.
+-+-+-+---+
+---+------
--+-+-----+
+-----+-+--
--+-+-----+
+-----+-+--
+---+-+---+
+-+---+-+--
+-+-+-+---+
+---+-----+
+-+-+-+---+
----------+

Generation = 1120, Population = 28.
----+-----+
+-+---+-+-+
----+-----+
--------+--
-----------
+-+---+----
-----------
+-+-+-+-+--
----+-----+
+-----+---+
--+--------
+-+---+---+

Generation = 1260, Population = 36.
-----------
--+-+-+-+-+
+-+-+-+---+
+-+-------+
+---+-+---+
--+-+-+-+--
-----------
--+---+-+--
+---+-+---+
-----------
+---+-+---+
--+-+-+-+--

Generation = 1400, Population = 32.
--+--------
----+-----+
--+-+-----+
--+-+-----+
--+-+-----+
+---+-+---+
--+-+-----+
+-+---+-+--
----+-----+
+-+-+-+----
--+--------
----+---+--

Generation = 1540, Population = 38.
+-----+----
--+-------+
+-+-+-+---+
--+---+-+-+
+-+---+----
+---------+
+-+---+----
--+-+-+-+-+
----+-----+
----+-+-+-+
--+--------
--+-+-+-+-+

*** Life<FredkinCell> 15x19 ***

Generation = 0, Population = 1.
-------------------
-------------------
-------------------
-------------------
-------------------
-------------------
-------------------
-------------------
-------------------
----0--------------
-------------------
-------------------
-------------------
-------------------
-------------------

Generation = 161, Population = 7.
-------------------
-------------------
-------------------
-------------------
-------------------
-------------------
-------------------
-------------------
----------0-------0
---------0-0-----0-
----------0-------0
-------------------
-------------------
-------------------
-------------------

Generation = 322, Population = 8.
-------------------
-------------------
-------------------
-------------------
-------------------
-------------------
-------------------
--0---------0------
-------------------
0---0-----0---0----
-------------------
--0---------0------
-------------------
-------------------
-------------------

Generation = 483, Population = 34.
-------------------
-------------------
-------------------
-------------------
-------------------
-------------------
--0-------0-0-----0
-0-0-----0---0---0-
0-0-0---0-----0-0--
-0-0-0-0-----------
0-0-0---0-----0-0--
-0-0-----0---0---0-
--0-------0-0-----0
-------------------
-------------------

Generation = 644, Population = 6.
-------------------
-------------------
-------------------
-------------------
-------------------
----------0-------0
-------------------
-------------------
-------------------
------0---------0--
-------------------
-------------------
-------------------
----------0-------0
-------------------

Generation = 805, Population = 29.
-------------------
-------------------
-------------------
-------------------
--0---------0------
-0-0-------0-0-----
--0---------0------
-------------------
0-----0-0-------0--
-0---0---0-----0-0-
0-----0-0-------0--
-------------------
--0---------0------
-0-0-------0-0-----
--0---------0------

*** Life<FredkinCell> 22x12 ***

Generation = 0, Population = 22.
------------
0------0----
0-----------
--0---------
0----0------
------------
------------
-----------0
------------
-----------0
------------
---00-------
--0------0--
---0--------
----0-------
----0--0----
------------
-----0------
------------
0---------0-
-----0-0----
---0--------

Generation = 186, Population = 133.
+++-+-+-++-+
--++-++----+
-+++-+---+++
-+-+--------
+-++-+-++++-
-++--+++++++
-+-----++--+
--++++++-+--
++-+-+--+-++
++++----+-+-
+----++++++-
---+---++-++
-+-+-------+
-------+-++-
-----++-+-++
+--+++-+--++
+-----++++++
+-+++++-++--
-+++++-+++--
++--++--+-+-
--+---++-+--
--++++-+-++-

*** Life<FredkinCell> 8x11 ***

Generation = 0, Population = 20.
------0----
------00-00
0-------0--
---0000----
--00-----0-
----0-0---0
---------0-
---00------

*** Life<FredkinCell> 6x14 ***

Generation = 0, Population = 3.
0-------------
--------------
------------0-
--------------
------0-------
--------------

Generation = 134, Population = 10.
--0---0---0---
--------------
--0-0-----0-0-
--------------
0-0-----0-----
--------------

Generation = 268, Population = 6.
----------0---
--------------
--0---------0-
--------------
------0-0---0-
--------------

Generation = 402, Population = 12.
0-0-0-----0---
--------------
0-----0-0-0-0-
--------------
0-0-------0---
--------------

Generation = 536, Population = 16.
0-0-0-0-0-0-0-
--------------
----0-0-0-0-0-
--------------
0-0-0-----0---
--------------

Generation = 670, Population = 11.
--0-----0-0-0-
--------------
--0-----0-0---
--------------
--0-0---0-0---
--------------

Generation = 804, Population = 13.
0-0-------0---
--------------
0-0-0-0-0-0---
--------------
0-0---0-----0-
--------------

Generation = 938, Population = 12.
--0-0---------
--------------
0-0---0-0-0---
--------------
0-0---0-0-0---
--------------

Generation = 1072, Population = 11.
0-0-----0---0-
--------------
--------0---0-
--------------
0-0-0---0---0-
--------------

Generation = 1206, Population = 11.
--0-0-0-0-0---
--------------
0---0---0-0---
--------------
------0---0---
--------------

Generation = 1340, Population = 10.
0-0-0---0-0---
--------------
--0---0---0---
--------------
--0-----0-----
--------------

*** Life<FredkinCell> 22x16 ***

Generation = 0, Population = 11.
----------------
----------------
----------------
----------------
--0-------------
----------------
----------------
--0------0------
----------------
----------------
--------------0-
----------------
----------------
-0--------------
-----------0----
----------------
----------0-----
------------0---
-----0----0-----
----------------
----------------
-----0----------

Generation = 98, Population = 161.
+++++++----+-++-
--+----6++--+---
++-+-+++-++++-+-
--+++------7-9+-
------+--+++++--
+-+-++--++-++---
-+++++-+-+------
-+++--+------+++
+++-+-+-++-+----
-+--+-++-----+-+
-+-+++-++++-+---
---8-+-++++---+-
+---+--+++---+--
-8+---+---+-----
++--+++----+--++
-+-+--88+-+-----
+--+++-++++-++--
+--+-+-+---++---
-+--+--+-+-+--++
-++---+--++++---
+-+++-+++---+---
-+--+-+-+++-+-++

Generation = 196, Population = 171.
--++-++++-++-+--
++--+-+---+----+
++---++--+++-+--
++---++----+--++
-++++-+--+--++--
+-+--++--++-++--
--++-+-+--++-+-+
----+--+-----++-
+++++++++--+--+-
+-------++-+--+-
+++----+---+--++
+-+---+--+-+--+-
-++--++-++---+--
-++--++-+++-+---
++-++-+--+----++
+++-+++--++-++-+
-+-+---+--++---+
-++-++----+-++--
+++-+-++-+++--++
--+--+-----+--++
++-+--++-++--+++
--+-+++-++++++-+

Generation = 294, Population = 172.
+--++++----+--+-
+-+++---+---+--+
+-++-++-+++----+
--+---++-----+++
++-++---++++---+
++--+------+-+-+
-++++-+++++--++-
+--++-+--+-+-+--
--+-++++----++-+
-+--+++++------+
-++-++-+---+-+--
++++---+++---+++
-+---+-+-+-+-+-+
-++--+++-+++++--
++-+++++--++---+
---+----+-+----+
-----+-+--+-++-+
--+++---+--+--++
+-++-+---+-++--+
-----+-++-+-+-++
--++++--+++--++-
++-+++-+-++++---

Generation = 392, Population = 145.
-+++-+--+-+---+-
--+--++--+-+-+--
-++++-+-+-++-++-
-+--+--+-++++---
+++++-----+++-+-
-++-++---+--++++
--++-----++---+-
++--+--+---+-+-+
-+-+-+---+---+++
-+-----------+-+
+-+---+---+----+
---+++-+-----+++
+--+--+------+--
--++-----------+
++-++----++--+--
-++++-+--++-++-+
--+-----+++----+
--+--+++-----+--
-+-+-+++----+--+
--+--+-+-+++--+-
+++-+++-+++-----
---++--+--++---+

Generation = 490, Population = 185.
--+--+++-+++-+++
+-++-++++-+-++-+
-+++-+++++-+-+--
-+----+--+-+++--
+++++++---+--+--
-++++--++-+++--+
+++++-+--++-+++-
--++++-+--------
+-+---+--+-+--++
-+++--++-+++--+-
-+-+---+-++--+++
---+-++++--+++++
-++-++-+---++++-
+--+++--++---++-
-++++-++++--+---
-+-+-++--+---+--
+-++-+-+++-++---
--++--+-+--+-++-
++++-++---+--++-
+-++--++-+--+++-
--++-----+--+-+-
-+++---+---+++-+

Generation = 588, Population = 177.
++-+-+++-----+--
+--+-----+-+++++
+++-++++-++-----
---+--+++-+-++++
-+-++-++-+------
---++--+--+-+++-
-+++-+++--+-+++-
+-+++++--+-+-+++
-+---+++----+-++
++-++++-++-++---
-+++-++---++--+-
+-+--++-+--++---
-+++-++--+--+--+
+--++-+---+-++--
-++-+++--++--+++
---+++---+---++-
+-+++---+-----+-
+-+---++---++-++
++-++-+-++---+--
++++++---+++-+--
+-+-+++--+--++-+
++--+---+---+-+-

Generation = 686, Population = 171.
-+++-++++-++++++
---+++-++-+++---
-+++-+---+-++-++
---+--+--+++--++
--+----+-+-++--+
-+-+-++---+++-+-
+--+-++++++--+++
--+++-+-+--++-+-
--+-+---+-++---+
+--+++--+++---+-
---++---+-+-+--+
+----+-++-++++-+
+++++-++-++---+-
-----+-+---+-+++
-++---++------+-
----+--++--++---
-++-+-+++--++++-
++--+-+++++-++--
--+++-+-----++--
---+-++--+----+-
-+-+---+++---+++
+-+-++-------+++

Generation = 784, Population = 135.
++--+-+---+++++-
-+--++--------+-
+---++++--+--+--
+++++----+-+---+
-+-+++-+-+-+-+--
----+-------++++
---+-+-+--+--++-
----++-------+-+
----+-++--++-+--
-+++-------+-+-+
-++--++---+-----
-+---++--+-++-++
+--+---+++----+-
++++-+-+-++-----
-++-+-+++-+++--+
---+-+-----+-++-
----++-+++--+---
++------+--+-+-+
-++-----+--+++--
-------+----+---
--+----+---+----
--+--+---++-++-+

Generation = 882, Population = 175.
-++++-++-++----+
+-+-+-+-+++-++-+
--+++-++++++--+-
--+-++++---++-+-
+--++-+------+++
---+-+-+++-++++-
--++-++++++--+-+
--+-+-+--+++---+
-++----+--+--+++
+-++-++++-----++
++-+-+----+-+--+
--+--+-++-++-+--
+-+--+--++++++-+
-++--+--+-----++
+---+-+-++-----+
----++-++-+-++--
++--++++--+---++
--------++-+-+--
-+---++---++-+-+
+-++++++-+++-+++
+-+---+++---++--
-++-----++----++

Generation = 980, Population = 185.
-++---+--++---++
+-++-++--++--+-+
+-++++---++++--+
++-++--+---+----
++++--+++-++++++
--++---++++--+-+
+++++--+---+++--
-----++------+-+
+--++--++++---++
-+---+++-+-++-++
-++---+++---++++
----+---++-++---
++-+++++-+---+++
----+-++-+-++-++
-+---+-++-++-+-+
++--++-+-+-+-+++
--+---+---++++++
++-+++---+-++-+-
++---++-+-+++-++
--+--+--+-++++--
+----+--+++++---
+-++--++++--+-+-

Generation = 1078, Population = 164.
++--+--+--+--+--
----++-+-+---+-+
+-++-+-++-+++--+
---+---+++-+-+-+
----++----+---+-
-+----+-+-++---+
++-+---+--+--++-
+---+-+-+-+-++--
--+--+-+-++--++-
-++--+-+--+----+
---++++-++-++-++
+++++-++-+-++-+-
-+++++-+-++--+--
----++-----+-++-
+---+-+++--+-++-
+-+++--+++-+--++
-++++----+++----
----+---+---+--+
-+++-+-----+---+
--++++-+---+--++
+--++++-++++-+++
+---+++--++--++-

Generation = 1176, Population = 183.
----+++++-++-++-
+++++-+--+-+-+-+
-+--+++----+-+-+
++--++--++----+-
+-++-+++-++--+++
+++---++--++++++
++--++-+-++--++-
-+--+----+-+-+++
-+++----+-+-----
+--++------+-+-+
-+++-+-++-++-++-
-+++++-+-+------
++-++-+-+-+----+
--+-+++-+-+--+++
-++++-+-+---+-+-
+++--++-+++----+
+---+++++--+---+
-+-+++--++++----
---+-+-+-++++--+
--+-+++++--+--+-
-+-+-++-++++++--
--++--+-+++--++-

Generation = 1274, Population = 184.
--++-++-++++--+-
+-+---+-++++++-+
+---++++-++----+
+--+++-+-----++-
++-+++++++-++--+
-++++--++++++-+-
+++-+-+--+-+++++
++-+-+-+--++++--
--+--+-++++---+-
-+-++----++----+
-++--+--++---+--
+-+----+-+++-++-
+++---++--++-+--
-+---++++---+-++
++-++---++---+--
--+--++------+++
+++++-++-+-+++-+
-+++---++-++-++-
---+-++--++++--+
-+-++----+-+----
+--++-+-+--+-+++
+++-+---+-+---++

Generation = 1372, Population = 163.
-+--+------++-+-
++++-+-+--++-+-+
---+--+-++----+-
+------+-++-++--
-+-+--++-++--+-+
-+-+--+---++++-+
+--+-----++--++-
---+--+--+-+-++-
-+-++-++--+-----
-+----++++--+--+
+-+++++-++----++
---+---+++-++-+-
--+-+-++++--++-+
-++----+-++++--+
-+--+++---+---++
--++++--+-+-+++-
--+++-+-++++-+++
+-+----+-----+-+
+-+--+-+-++++++-
-+-+-+++-++++---
-++-------+---+-
--+--++++---++--

Generation = 1470, Population = 153.
-+--+---+-+--+++
---+-+--++-++---
+-++--++--+++-+-
-----++--+++-+-+
---+++-+++++++--
---++--++-------
-++-+-------++-+
----+------++---
-++-++---+--+--+
+++-----+----+--
-+++-------++-+-
---+--++----+-+-
++-++++-+--++---
-+++--+---+-+--+
-----+--++--++++
+-+---+---++-+--
--+++-+++++++-++
+++--+----+---+-
+-+---++++-----+
++++---++-+++-+-
--+---+---++++-+
++-++--++-----+-

Generation = 1568, Population = 174.
-+----+----+++-+
--+----+-++-+-++
--+----++++--+-+
++++------+-++--
---+-++--+---+++
---+---+-+-----+
---++++-+-++--++
-+--++--+--++-++
+-++++-++-+----+
---+-+-++++++-+-
-++-++-+----++++
-+--+--+-+-+-++-
--+++++++-------
-++---+-+-+----+
-+++-+---++-++--
++++--+-+-++-++-
+-++-+-+---++--+
--+---+--+--++--
+-+-++++-+-+++-+
-+--+++++-+++++-
--++-+-+---++--+
++--+++-++-+++++

Generation = 1666, Population = 176.
-+--+--+-+----+-
-+-+--+++++++---
++-+++-+---+-+--
--+-+-+---++++--
++-----++++--++-
+--++--+++++-+++
+--+++--++++++--
-++-+++++-+++++-
++-++---++---+--
--+-+-+-+++---+-
++--++-+---+---+
-+--+-++++++--+-
-+--++----++++--
+++-++--+-++-+++
++--+-+---+++--+
++-+--+--+-++-+-
--++----+++-++-+
+-+-+--++-+++-+-
---+++--+-----++
-+--+---++--+--+
-++-------++---+
++---+-++-++--+-

Generation = 1764, Population = 171.
-----+--+++++-++
-----+--++--+++-
---++-+--+++++-+
-++---------+--+
--+++--+-+++++--
----+-+++-+-+---
-+-+----+---++--
--++--+----++-++
----++--+---++++
-++++--++++-++-+
-++--+--+-++---+
-+--++++-+--+-++
+--+-+-+-+-++---
--+-+-+-++-+-++-
+--+-+----+--+-+
+---+++--+++----
++++-++++++-++--
+-+-+--+++-+++++
--+-------+-++-+
+-+-+++--+++-+--
++-++++++---++--
+++++-+--+----+-

Generation = 1862, Population = 182.
-+-+-+-+---+-+-+
+-++-++--++-+-+-
++-+---++-+--+--
++-++-++-+-----+
----+-+++----+--
+++++++--+--+---
-+--++--+---+---
+--+++-++++---++
++-+++--++-+-+++
+-+++-++-+++--+-
+-+-++-+----+--+
++--++++-+-+--+-
+++---+++++++-+-
--+-+-+--+++-++-
+-------+-+-+++-
+++-+++--+-++---
-+---+-++-+++-++
+++-++-+++++++++
+--+--+-++--++--
++++---+--++-++-
+----+-+-+---+--
-----+-+--++++-+

Generation = 1960, Population = 182.
++-+-+---+++++++
+--+-+++++----+-
++++-+---+-+-+--
-++++---+-----++
-+-++--+++-++-+-
+-+----+++++++-+
+-+-++-+++---+++
++++-+-++-++--++
-+------+--+--++
++-----++-++-+-+
-+++--+++-------
+++--+-+--+++-+-
+++-----+------+
-+-+++--+-+-++-+
+++--++--+---+++
----++---+-+++-+
++++---++-----+-
++-++-+---+---++
-+----++-++-+++-
+--+++--+-++-+-+
+----++++--+---+
+++-+-++--+-++++

*** Life<FredkinCell> 13x20 ***

Generation = 0, Population = 8.
--------------------
--------------------
--0-----------------
------------0-------
--------------------
--------------------
-----------------0--
-----------------0--
------0------------0
--------------------
-------------0------
-----0--------------
--------------------

Generation = 73, Population = 132.
-77-+---5--8+++-+---
6--6--+557219-645---
-8--8------+-++++---
9-++---+++----------
-+-9+-+-++-++----+97
---6556--674-7--5+56
-9++--++8+-8---+-++-
9-7++-++9---+++--+--
---+++-+-++8+--++--+
3-9--+3+-9379--97+-4
----9-+++-+--6+-++--
-++-6-------++7-8-3-
+----+++-7+-+-++++-+

Generation = 146, Population = 125.
+++--+----+--+++++++
++-++----+8---++-+--
---+-+--+-----++-+++
++-+-++++--+-+-+++-+
--+++---+-+--++-++--
+-+-+--+---------+-+
--++-++---+-+--+-+++
++-++--+++-+-+--+--+
+++--+++--+-++--+---
-+-+-+---+-++--+----
-+-+---+--+--+-++--+
+--+++-++-+--++-++-+
---+----+++++-+++-+-

Generation = 219, Population = 126.
+++--+--+-+----++---
+--++-+--+-7--+-+---
+--+++-+--+-++-+++--
++---+-+--++++-----+
----+---+++-+-+-++--
--+-++---++++------+
-+---++---+--++-+++-
++++-+++++++--+-++--
---+-+---++--+----++
++---+-++--++----+++
++++++-++--++---+++-
--+++------+++-+-+--
-++++-----+++++++-++

Generation = 292, Population = 72.
----+--+-+++----+---
--------------------
+--++-+--+----++---+
--++++---+----+---+-
+----------++-+--+-+
--------------------
--+-+-+---+--+-+---+
-+-++--------+---+-+
-++-+---+-+-----++-+
--------------------
--++--+--+--+---++--
-+++-+---+-++--+--+-
+-+--+++---+-++-----

Generation = 365, Population = 136.
++-+++++-----++-++--
+-+++-+--++-----+-+-
-----+--+++-+--+-++-
++-----+-++++--+--++
+--+--+--+-++-+-+++-
-++-+-+--++--++++---
-----+--+-++++-++-+-
-++--++-+-++++--++++
-+--++++++--+++++-+-
--+--+----++++-++---
-+-+-++++-+-+-+-++++
+++-++-++-+--+--+---
-+-+-++++++--++--+-+

Generation = 438, Population = 134.
-+++-++--+---++++-+-
++-+---++-+----+--+-
+--+---++++++++++-+-
++++--+-+++-++--++--
-+---+--++-+--+--+-+
++++--++---+-+++-+-+
++-+++---+-+--+-+-+-
+-----+--+++-+---+--
+--+++-++++++++-++++
----+-++-++-+-++++++
-++-+--+---+----+-+-
+-+-++-+-------+-++-
--++------++++-++++-

Generation = 511, Population = 114.
-+-----++--------++-
+-+----+++------+-+-
-+-+--+-+++----+-+++
--+--+-+-+-+-++-++++
-----++-+++-+++++++-
----+-+++++++++-++--
---+-+--+++-++-+----
--+-+------+--++-+--
-+-+-+--+-----++--+-
--+-+-++-+---++-+--+
---+-++++-+-++-+-+--
--+-+--+++--+-+-+-++
---+----++-+---+--++

Generation = 584, Population = 87.
-+++--+-+--------+++
--------------------
+-+---+-+--++++--+--
-+++-++-++---+-+++++
-+++-+++----+-----++
--------------------
-++--------++-+--+-+
-+-+--+-++-+++---+--
+-++------+++---+++-
--------------------
--++-+++++--+-------
--+--+++++-+--------
-+----++-----+--++++

Generation = 657, Population = 134.
--+-+-+++--+++-+++--
+++++-+-+++---++-+--
----+-+++++-+-+-+-++
-+-+--+---+---++++--
+---+++++---++-++--+
+--+-----++++++++++-
---+-+-+++-+--+-+++-
+-++-+--+-+-+++--++-
-+-++--+--++--+-+---
-+++++-+--++-+++++++
---+++--+-+-+---++--
+---+----+-++------+
+--+--+---++++-++-++

Generation = 730, Population = 141.
--+++--+---++-+-+++-
++-+--+++--++++-----
+++++++----+--++-+++
+++++-+-+--++++++---
++++---++--+--++++--
-+--+++-+-+-+-+-++-+
++-----++++++--+++++
++-+--+++--++++--++-
---++-++--+----+---+
++---+-+-+-+-+++++-+
-+++--+--+-+++-+--++
-+++-++++--+-+--++--
+-++---+----+--+-+--

Generation = 803, Population = 126.
--+-+-+-+---+--+--+-
-+-+--+--+-++-+-+++-
+-+--+++---+---++--+
----++----+-++-++-++
++--+-++-+-++--+-+--
++-++-+-+-++--+++-++
---+--++-++--+++++++
++-+-++-+--+-+++-+-+
+--+---+-+-+-++-++--
----+-++---+-+--++-+
+-----+-++++-+-+----
-++-++-++--+-+---+-+
----+++------++++++-

Generation = 876, Population = 99.
+++--+--+--+--+-+++-
--------------------
-+++----++-+--------
+-++-+-+-+-++++++-++
---+--+++++-+-+---++
--------------------
-++---+--++---------
+-------+-++-++-++++
+-+++++--++---++--++
--------------------
-+-+-+-++--++-+-++++
+-++-+---++++++--+-+
----+-+-++++---++---

Generation = 949, Population = 145.
-+--+---++----+-+-+-
-++-+++++--+++--++++
+++-+++++-+++-+--+++
-----+++++---+--++-+
++--+++-----++++-++-
++--+-++----+++----+
-++--+-++--+--++----
-+-+----+++--+-+--+-
+-++-++++++-+--+++-+
++++-+++++++++++--+-
--++--+-++-++++--+-+
+-+++-+++++--++--++-
------+++-++-+++-++-

Generation = 1022, Population = 124.
+-+-+-+-+----+++-+--
++---+---------++---
+-+-+-+---+++++++--+
+-+----+-----++--++-
+-+-+-+-+++++++-++--
++--++---+-+---+++-+
+-+-+-++-+++++++-++-
--+---++-+-+-+-+-+--
+++-+++-++-+++--+---
----+---++-++--+++--
+--+++++--+++-+---+-
------+------+----++
-+++-+-++++-+-+-+---

Generation = 1095, Population = 130.
-+-----+-+++-+------
-++-+++--+++-+-+--++
+-+-+-+-+-+--+--++++
--+++-+--+--++-+--++
+---+-+++---++--+++-
-+-+++-+-+--+--+--++
---++++++-+++-+----+
-+--+-+--+-+---++-+-
++-----+++++--+--+--
++--+++--+-+-+++++--
--+++-+--+++-++---+-
+-+--+-+---+---+++++
---++++-+++---++-+-+

Generation = 1168, Population = 85.
+--++-+------+-----+
--------------------
--+-+-+-++++-++++---
+--++--+----++--++-+
--+++--++--------+-+
--------------------
+-+-+++----+----+--+
--++-----+++++++-++-
+-+-+-+--+-++++--++-
--------------------
-++--++------------+
-+++-+-+-----+-+--++
--+-+-+-+--++--+---+

Generation = 1241, Population = 132.
-++++--+--+++++-++++
--++-++-+++-----++--
+---++--+-+----++-++
-----++++-++-+--++++
--+-++---++---++----
+---+-++-++-+--+--++
+++---+---------++++
-+--+--+-+--++-+--++
--+-+-++---++----++-
++-+----+-+++--+-+++
+++--+-++++-++++-+--
-+--++-++++--++---++
--+++--+-++--+++++-+

Generation = 1314, Population = 109.
------------+++--+--
+-+---++--+---+--+-+
----+---++--++-+-+-+
--+--+---+-----+++--
-++++++--++-++-+--+-
+-++---+--++---+-+++
---+--+++-+----+++--
-+--++--++--+----+--
+--------+----+-++-+
+++------+-------+--
++-+++-+-+++--+-++--
-+++-+-+++-++--+-+-+
--+-+++-+-+-+++-+-+-

Generation = 1387, Population = 142.
--+++-+++++++-+-+++-
-++-+-+-----++--+-++
++-++-+-+++--+-+++-+
--+++---+-++-+-++++-
+-++--++++++-++-+-+-
-----++-+-+--++++-++
+-++++-++++-+-+----+
--+----++----++++--+
+++-+++---+-+++++-+-
+-+---+--+--++++---+
+++++-+++--+-++-----
--+-+---+-+++--+---+
+-+-+++++-++----+-+-

Generation = 1460, Population = 101.
---+++-+----+-+-+++-
--------------------
-+-+---+-++---++++-+
--+---+---+++++++++-
+-++++--++++--++----
--------------------
-++++-+++-++----++--
-+-++++-+-+-+--+++-+
+-+---++--+---++-+-+
--------------------
---++-+-+--+-+-+----
--+--++--+-+-+--++--
-+--+++-+++-++++++--

Generation = 1533, Population = 121.
-----+-++-+++++--+++
-++----++++-+-++++--
-+++-+-+-+-+----++--
---+---+---++-------
++++------+-++--+-+-
------+-+++-+--+-+--
-----++++--+--+-+--+
-----+--+-+-----+++-
++-+--+++++--+-+---+
++--++-+-+--+-++-++-
---++-+-++---+++--++
-++++--++++++---+--+
++-+--+++-+-++-+-++-

Generation = 1606, Population = 127.
+-+-++-+-+-+--+--+-+
+-+---+------+--+-++
+-++--+----++++++-++
--+-----+--+--++++++
+---+--+--+----+-+++
+++-++---++-+++----+
-+++-+--++-+-+---++-
--+-+-+---++------+-
-++--+-+-+-+-+-+-+-+
-+-+++-++-++--+-++-+
+++----+++---+--++--
-+--+-+++--+-+++++--
-++++----++-+++-+++-

Generation = 1679, Population = 126.
--++---++-+-----+--+
++--+--+-+-+---++---
++---++++-+-+-++-+-+
--+--+-++++++---++--
-+--++--+++---++++--
--+---+--+--++--+-++
---++--+-+-+++--++++
-+-+-++-++++++--+-++
+---++-++---++-+++++
------+++++-++--++--
+---+-+++-+---+----+
---+++-++-+---+-----
-+--+++------+++++++

*** Life<FredkinCell> 9x9 ***

Generation = 0, Population = 8.
---0-----
--0----0-
-----0---
--------0
---------
---------
-----0---
---0-----
--------0

Generation = 72, Population = 48.
---+5+0-6
+-++--+--
-5--5++20
+-++----+
5-5----6+
+---+-+++
++++-+-+6
+-+++-++-
+-++++++-

Generation = 144, Population = 48.
---+++0-+
+-++--+--
-+--+++20
+-++----+
+-+----++
+---+-+++
++++-+-++
+-+++-++-
+-++++++-

Generation = 216, Population = 48.
---+++0-+
+-++--+--
-+--+++20
+-++----+
+-+----++
+---+-+++
++++-+-++
+-+++-++-
+-++++++-

Generation = 288, Population = 48.
---+++0-+
+-++--+--
-+--+++20
+-++----+
+-+----++
+---+-+++
++++-+-++
+-+++-++-
+-++++++-

Generation = 360, Population = 48.
---+++0-+
+-++--+--
-+--+++20
+-++----+
+-+----++
+---+-+++
++++-+-++
+-+++-++-
+-++++++-

Generation = 432, Population = 48.
---+++0-+
+-++--+--
-+--+++20
+-++----+
+-+----++
+---+-+++
++++-+-++
+-+++-++-
+-++++++-

Generation = 504, Population = 48.
---+++0-+
+-++--+--
-+--+++20
+-++----+
+-+----++
+---+-+++
++++-+-++
+-+++-++-
+-++++++-
