*** Life<Cell> 8x8 ***

Generation = 0, Population = 5.
--------
-0------
--------
--0-----
----0---
---0----
------0-
--------

Generation = 2, Population = 12.
--------
--10----
----0---
01-11---
--1-----
-01--0--
--------
---0----

Generation = 4, Population = 12.
----0---
--.*-0--
------0-
*.-.--0-
1-.-----
-*-----0
--1-----
--10----

Generation = 6, Population = 24.
----0---
0-..-000
-00-----
..-.11-1
.-.---1-
-*---010
-0*-0---
0-1*10-0

Generation = 8, Population = 30.
-00-0-1-
00..---*
0**---*-
..1...*-
*1*0--.-
1*100*.-
0-*1*---
0-1*.---

Generation = 10, Population = 28.
----0-10
0-..11-*
-.*-11.0
.*1.**.-
**.--1*0
*.-0**.-
0-.-*0--
---..1--

*** Life<Cell> 9x9 ***

Generation = 0, Population = 4.
0--------
---------
--0------
---------
----0----
---------
------0--
---------
---------

Generation = 3, Population = 6.
---------
---------
---------
---------
---------
--------0
-------0-
------0-0
-----0-0-

Generation = 6, Population = 4.
---------
---------
--------0
---------
------0--
---------
----0----
---------
--0------

Generation = 9, Population = 6.
-------0-
---------
-------0-
--------0
---------
---------
---------
0-0------
---0-----

Generation = 12, Population = 16.
----0-0-0
---------
----0-0-0
---------
0-0-----0
---------
0-0-----0
---------
0-0-0-0--

*** Life<Cell> 7x7 ***

Generation = 0, Population = 3.
-------
-0-----
-------
---0---
-------
-----0-
-------

Generation = 2, Population = 0.
-------
-------
-------
-------
-------
-------
-------

Generation = 4, Population = 0.
-------
-------
-------
-------
-------
-------
-------

Generation = 6, Population = 0.
-------
-------
-------
-------
-------
-------
-------

Generation = 8, Population = 0.
-------
-------
-------
-------
-------
-------
-------

*** Life<Cell> 6x6 ***

Generation = 0, Population = 6.
0-----
-0----
--0---
---0--
----0-
-----0

Generation = 4, Population = 0.
------
------
------
------
------
------

Generation = 8, Population = 0.
------
------
------
------
------
------

Generation = 12, Population = 0.
------
------
------
------
------
------

*** Life<Cell> 9x8 ***

Generation = 0, Population = 8.
--------
-0------
--0-----
---0----
----0---
-----0--
------0-
-------0
0-------

Generation = 5, Population = 16.
-0---0--
0-0-0---
-0------
0-------
-------0
0-------
-0-----0
0-0-0---
-0-0----

Generation = 10, Population = 10.
0-0-0---
--------
--0-----
-------0
--------
--------
--0---0-
-0------
----0-0-
