28

17 4
9
2 3
4 1
5 1
9 2
2 1
9 1
4 3
13 1
9 0
5 5

20 20
12
0 18
15 8
16 2
2 6
4 13
17 15
12 5
8 6
4 13
10 3
17 5
2 19
5 5

17 7
10
16 5
7 6
14 1
1 0
15 3
0 4
12 0
2 2
2 6
1 0
5 5

14 4
7
10 3
6 2
8 0
1 1
3 2
10 0
6 3
5 5

18 11
13
3 1
8 9
11 1
16 1
13 4
6 0
4 2
10 9
14 7
14 4
6 0
8 3
11 10
5 5

19 11
7
2 10
1 7
6 2
9 4
16 7
10 8
13 6
5 5

1 12
14
0 11
0 1
0 10
0 5
0 1
0 8
0 10
0 2
0 8
0 0
0 0
0 4
0 6
0 0
5 5

15 3
9
13 0
1 0
8 2
10 2
11 2
5 0
14 1
5 2
9 1
5 5

10 20
15
4 5
0 4
3 6
6 4
7 16
3 7
0 4
2 2
6 5
6 0
3 11
8 2
3 18
5 4
6 15
5 5

14 19
1
4 3
5 5

10 8
6
3 1
5 1
9 3
6 2
8 7
7 2
5 5

16 12
9
2 3
14 6
5 0
1 9
10 3
10 3
14 4
4 1
6 5
5 5

12 9
15
4 1
1 3
10 0
10 2
6 2
3 3
2 1
11 5
9 5
10 4
6 4
5 0
2 2
1 0
11 4
5 5

2 8
2
0 3
1 3
5 5

20 3
5
0 0
0 0
11 0
5 0
8 2
5 5

4 1
5
3 0
0 0
0 0
1 0
0 0
5 5

2 2
9
0 1
1 1
0 1
1 1
1 0
1 1
1 0
1 1
0 1
5 5

19 1
7
16 0
0 0
0 0
14 0
16 0
1 0
1 0
5 5

15 16
6
14 6
3 12
1 6
13 13
6 12
10 12
5 5

5 7
5
4 6
3 6
1 2
1 3
1 6
5 5

1 1
12
0 0
0 0
0 0
0 0
0 0
0 0
0 0
0 0
0 0
0 0
0 0
0 0
5 5

10 3
14
0 1
1 1
8 0
0 1
5 2
3 1
4 2
2 0
8 1
4 2
3 2
9 1
0 1
3 0
5 5

13 1
11
3 0
0 0
9 0
3 0
2 0
9 0
2 0
9 0
6 0
4 0
2 0
5 5

3 16
6
2 12
1 4
2 10
1 15
1 3
1 0
5 5

15 15
9
4 0
5 14
12 7
8 2
6 7
6 6
5 14
3 9
7 1
5 5

11 18
6
3 3
0 16
10 9
4 1
10 7
1 4
5 5

1 19
13
0 15
0 7
0 8
0 8
0 3
0 10
0 8
0 13
0 8
0 17
0 0
0 1
0 2
5 5

15 12
9
8 9
11 2
5 8
12 8
5 10
1 5
11 1
0 6
1 6
5 5
