*** Life<Cell> 1x1 ***

Generation = 0, Population = 1.
0

Generation = 3, Population = 0.
-

Generation = 6, Population = 0.
-

Generation = 9, Population = 0.
-

Generation = 12, Population = 0.
-

Generation = 15, Population = 0.
-

*** Life<Cell> 2x19 ***

Generation = 0, Population = 10.
---------0--0--0---
00-0-000---------0-

Generation = 4, Population = 16.
--------10-101-00*-
1*---*--*101-1-.---

Generation = 8, Population = 19.
-1-000-.-1*-*11*-*-
..101....*01..1.-*-

Generation = 12, Population = 8.
-11-..1.1-*-.-.*-.-
..........-....**.-

Generation = 16, Population = 3.
......-.--.-.-.*-.-
..........-....**.-

Generation = 20, Population = 3.
......-.--.-.-.*-.-
..........-....**.-

Generation = 24, Population = 3.
......-.--.-.-.*-.-
..........-....**.-

Generation = 28, Population = 3.
......-.--.-.-.*-.-
..........-....**.-

Generation = 32, Population = 3.
......-.--.-.-.*-.-
..........-....**.-

Generation = 36, Population = 3.
......-.--.-.-.*-.-
..........-....**.-

Generation = 40, Population = 3.
......-.--.-.-.*-.-
..........-....**.-

Generation = 44, Population = 3.
......-.--.-.-.*-.-
..........-....**.-

Generation = 48, Population = 3.
......-.--.-.-.*-.-
..........-....**.-

*** Life<Cell> 11x14 ***

Generation = 0, Population = 10.
-------0-0----
--------------
--------------
----0---------
-----0--------
-0----------0-
0-------------
--------------
---0----------
--------------
-0---0--------

Generation = 7, Population = 54.
-*-1------0-0-
-0-*0----0-0--
*---01--0-0-0-
*1---110-0-0-0
---.*--10-0---
-0-1-1--10----
*-*--0*-0-----
----1--0-0----
**-0----0-0---
0.0*---0------
-0--0-0---0-0-

*** Life<Cell> 2x19 ***

Generation = 0, Population = 5.
----0--0-----------
-00-------0--------

Generation = 8, Population = 11.
*0.**-...-0-0--0---
*...1---1---------0

Generation = 16, Population = 12.
.-...-....-1***.-*-
.....-----.*11*0*-*

Generation = 24, Population = 3.
.-...-....--*...-..
.....-----.**....-.

*** Life<Cell> 9x8 ***

Generation = 0, Population = 4.
-----0--
--------
------0-
-0------
0-------
--------
--------
--------
--------

Generation = 4, Population = 14.
01----1*
--------
--0--.1-
-0---1--
--0-01--
--------
------0-
-0------
0-------

Generation = 8, Population = 20.
1*1-0**.
-.-----*
--*0-.**
-1-1-.-0
----.1*-
-----.--
0----.--
-0------
-----10-

Generation = 12, Population = 32.
.*.1-...
.*-1-*-.
00*0-...
0*-.1*01
0--..*.-
---*0.1-
---1-.0-
-0-*---1
0110**.*

Generation = 16, Population = 27.
...**...
.*-*-.-.
--*--...
..**..-.
**-....0
.0-*****
-11*1.-*
-.-.0.-.
.*1**..*

Generation = 20, Population = 21.
........
.*-*-.-.
1-.0*...
*..*.*-.
*.*...*.
.-0...**
-.*...1.
0.1*0.-.
..1.....

Generation = 24, Population = 7.
........
..-.-.-.
.-.-....
......-.
........
.00.....
1**.....
0...-...
..*.....

Generation = 28, Population = 2.
........
..-.-.-.
.-.-....
......-.
........
.--.....
-.*.....
-*..-...
........

Generation = 32, Population = 2.
........
..-.-.-.
.-.-....
......-.
........
.1-.....
1.......
-...-...
........

*** Life<Cell> 9x12 ***

Generation = 0, Population = 7.
----0-------
------------
0---------0-
---0----0--0
-----------0
------------
------------
------------
------------

Generation = 8, Population = 32.
--0-----*0**
-----------*
--1-.--*.--*
0--1--.1***.
0--1-11-0*..
-------1-0--
----*---.-1.
---0----0*-.
0---0-----11

Generation = 16, Population = 48.
.1**11***.**
--1.----10.*
0-.-*0.**.-.
*.*..*.*....
.-1.-.*****.
*.-...1*..1.
-0...-*..-1*
.0-0..*0.***
-*---1-0-1..

Generation = 24, Population = 38.
.*.***......
.0*.1--**-..
.1.***....-.
.........*.*
..*.1**....*
..-*****.*.*
--....**...*
.1--*.....**
...0*.*..*..

Generation = 32, Population = 28.
..***.......
**.*.*......
*.**.*......
**..**......
**..........
*.**.*......
*.*.*.......
.1***.......
............
