20

7 9
65
0 5
2 6
5 1
3 0
2 6
2 6
0 3
5 2
1 2
3 8
1 3
3 6
1 1
6 6
4 0
2 7
0 5
5 1
1 2
6 8
2 3
0 4
0 3
4 5
4 7
4 2
1 5
2 8
2 8
4 3
3 3
2 8
3 8
6 3
3 4
2 1
4 6
2 7
6 0
2 6
3 4
2 1
6 2
4 0
5 1
0 0
0 0
3 6
2 4
1 4
3 7
6 3
6 8
3 0
1 1
1 5
4 6
6 1
0 8
2 5
3 3
1 0
5 2
2 6
5 8
12 7

7 9
64
4 0
5 3
2 5
1 8
5 0
6 2
1 2
3 0
2 8
2 4
6 5
3 4
5 4
6 0
4 5
2 1
1 1
4 5
3 6
5 7
5 2
3 6
3 4
5 5
0 1
0 3
3 4
4 7
2 7
1 4
3 0
1 5
1 7
1 7
0 1
4 5
6 7
3 0
3 2
0 8
4 0
0 7
4 5
5 5
0 4
0 5
1 2
5 6
4 1
3 6
5 1
3 3
5 1
6 2
4 0
6 1
5 6
6 2
4 4
1 6
0 5
0 2
6 5
2 8
1 16

7 7
61
2 1
6 0
4 3
6 2
2 5
5 5
5 0
5 0
3 6
6 0
3 0
3 4
2 1
4 6
6 5
4 6
2 0
6 3
0 0
2 0
5 1
5 5
2 2
5 1
2 5
2 0
2 1
1 3
2 0
0 1
4 5
1 3
3 3
6 3
5 5
3 0
3 0
1 2
0 5
2 2
6 1
1 4
6 3
4 3
5 4
4 5
0 4
2 5
3 2
1 3
1 2
2 1
0 2
6 2
1 4
2 6
2 5
6 6
5 5
4 1
4 4
13 8

7 8
63
4 4
1 7
6 4
6 5
4 4
4 0
4 5
2 3
6 5
3 1
3 1
1 5
4 6
5 2
6 4
2 5
2 0
6 7
2 5
1 4
2 4
0 0
2 2
4 3
1 7
4 4
0 4
3 3
2 4
3 0
0 5
3 3
3 4
1 1
0 3
1 3
6 6
6 6
1 7
6 1
4 1
1 6
0 5
0 1
5 4
5 0
4 7
1 1
5 4
5 4
5 3
2 1
0 7
2 3
3 6
0 1
1 0
1 7
5 7
6 5
1 4
5 4
5 5
1 1

7 9
60
3 7
2 3
6 6
5 7
3 6
3 6
5 2
2 8
4 6
2 0
6 6
4 4
1 8
1 0
6 2
0 2
0 2
2 7
3 8
5 1
2 5
2 4
3 6
6 6
5 6
1 3
4 6
3 5
0 6
0 4
4 6
3 8
6 5
2 0
2 1
4 1
1 1
1 8
6 2
2 5
0 5
2 5
4 6
2 4
2 7
3 7
0 0
2 3
0 0
2 0
4 8
4 0
2 4
1 0
1 6
0 0
6 0
1 1
3 5
1 6
5 4

7 12
63
2 10
0 5
1 8
2 3
1 5
5 11
5 6
3 5
5 11
5 10
2 3
1 6
6 3
4 7
4 6
0 9
4 6
3 10
3 8
5 0
0 0
0 7
3 9
2 1
5 0
2 9
2 8
3 0
5 5
2 2
3 11
1 3
1 1
5 10
1 9
5 1
3 3
1 8
4 6
3 0
0 11
2 0
0 8
2 9
2 3
1 5
5 11
5 4
1 2
6 0
5 7
0 5
1 5
4 0
5 9
6 1
3 9
5 8
0 5
5 9
0 8
6 6
6 2
6 1

7 9
65
1 6
5 7
5 8
3 1
2 4
1 5
6 1
4 5
5 2
4 0
3 0
5 2
1 0
3 3
6 0
2 1
2 3
6 4
3 0
2 3
4 0
5 8
2 4
1 7
4 2
2 2
0 2
1 6
1 4
1 0
0 5
5 7
5 8
4 8
3 5
0 8
5 3
5 5
3 1
5 0
6 1
2 4
3 7
2 1
4 6
3 6
2 2
3 2
1 7
6 4
1 2
4 8
3 7
0 6
3 0
1 6
4 6
5 6
4 5
1 8
6 1
1 0
3 0
0 5
6 5
19 2

7 8
62
1 1
0 3
2 2
5 1
4 4
1 0
6 3
0 1
4 6
0 5
1 5
4 5
6 7
4 6
3 6
6 5
6 6
0 4
0 7
6 6
2 5
1 0
0 3
5 0
0 2
6 0
3 2
5 0
5 7
5 5
4 3
3 0
3 2
3 4
6 7
1 4
2 0
1 0
2 7
4 0
6 6
3 3
4 4
0 7
4 3
3 4
0 1
2 6
2 0
1 0
5 0
5 6
1 2
1 7
5 5
2 0
1 4
5 6
6 6
0 3
4 5
3 7
17 15

7 9
65
1 4
2 4
6 2
5 8
2 7
4 1
0 7
6 2
4 6
2 3
6 3
1 5
2 0
0 3
6 6
3 7
1 6
4 2
0 2
0 8
6 2
5 3
3 8
5 8
0 6
3 8
1 2
5 4
0 4
3 6
4 6
1 3
2 8
4 1
4 4
2 3
2 5
4 7
3 7
6 2
4 0
1 6
0 1
0 6
6 3
4 7
6 8
5 5
2 5
3 4
6 2
1 7
5 1
3 4
3 7
3 4
2 3
0 4
5 8
6 0
4 8
1 5
3 4
1 4
6 2
4 18

7 8
65
5 2
3 5
4 1
3 0
5 2
1 4
6 1
1 2
2 7
4 0
2 5
5 7
3 5
5 5
6 7
1 2
5 4
0 2
6 2
1 4
0 2
6 3
1 1
4 3
5 5
1 6
3 2
5 1
3 6
1 3
5 0
2 0
5 0
5 5
0 1
3 7
0 4
6 2
0 4
5 5
0 0
5 0
5 5
2 7
6 5
2 4
4 3
0 3
5 4
5 1
1 7
0 3
5 5
6 4
3 3
5 5
5 0
6 1
6 1
6 2
1 5
3 1
6 3
1 4
3 1
13 18

7 12
64
1 4
0 9
6 9
4 2
2 9
6 8
2 5
4 6
2 9
4 5
3 9
3 3
2 1
6 2
2 7
0 3
5 4
4 11
4 0
2 4
1 9
5 7
2 5
4 2
3 10
4 4
0 0
4 5
4 4
0 7
5 1
0 3
1 3
3 4
4 2
5 4
2 6
2 2
4 9
0 3
6 1
4 11
5 10
3 4
4 2
3 8
1 5
4 4
2 11
0 5
2 7
4 11
4 10
2 5
5 5
1 5
2 10
5 0
6 11
5 7
0 7
6 10
1 1
2 4
12 18

7 7
62
5 5
5 3
4 0
3 6
1 4
1 0
4 0
0 3
1 0
2 6
0 1
5 6
1 5
5 0
1 5
2 6
3 6
4 6
5 3
6 1
0 0
4 5
5 3
1 6
2 1
4 1
6 6
5 6
0 5
6 4
1 0
3 6
1 1
4 5
1 0
4 3
1 1
1 4
3 5
4 4
6 4
4 6
0 2
0 3
0 6
6 5
4 5
2 6
1 5
1 6
3 4
2 4
0 0
4 1
5 5
0 5
4 1
3 2
3 0
5 1
4 2
2 0
10 13

7 10
65
1 4
5 5
0 3
4 8
0 4
0 8
3 0
0 9
5 2
3 6
6 1
3 9
1 4
6 1
3 5
4 5
0 8
0 9
3 0
3 3
6 7
4 7
2 1
3 7
6 9
4 2
4 9
1 7
0 8
3 7
2 0
2 6
1 8
0 0
3 0
5 3
2 0
1 1
6 7
2 4
2 3
4 3
1 9
2 5
4 4
0 6
4 7
5 0
2 4
6 1
1 1
3 0
1 5
2 3
3 1
3 6
1 7
4 3
5 5
1 0
1 9
1 2
3 2
1 2
3 8
11 4

7 13
65
4 3
2 8
6 2
0 5
6 8
5 5
6 3
1 9
5 9
3 6
3 5
0 0
1 3
1 7
3 0
1 3
0 12
5 4
1 1
4 10
3 5
0 10
6 0
5 2
0 8
1 3
6 1
4 6
2 8
3 11
6 4
5 7
0 4
6 5
4 8
4 9
3 9
0 2
0 2
0 12
1 8
2 7
2 1
1 0
3 0
6 1
5 6
0 1
5 11
1 7
6 0
2 12
3 1
6 3
0 7
5 10
6 11
6 9
5 2
6 7
3 8
1 10
2 7
3 12
1 8
13 12

7 9
64
3 8
1 6
1 7
3 8
2 8
2 8
1 2
5 0
1 0
0 2
3 7
6 7
0 5
6 6
0 3
4 1
2 4
5 0
2 0
6 5
4 4
1 1
1 1
1 1
2 8
1 1
1 6
5 4
6 4
0 4
5 5
4 8
5 7
2 1
4 2
3 4
6 0
1 3
0 4
0 0
2 6
2 2
1 5
5 8
0 3
5 8
1 1
5 8
3 1
3 4
5 1
0 6
2 6
4 8
2 8
2 2
2 6
0 1
5 8
3 3
4 4
3 4
1 0
4 2
5 14

7 11
61
3 10
2 6
4 7
2 5
0 0
5 2
6 1
5 5
6 2
4 1
4 4
4 3
6 9
5 4
3 8
4 3
5 10
3 3
5 0
0 6
3 10
4 10
3 1
6 4
1 1
3 6
0 2
4 3
4 4
4 1
0 10
3 9
2 9
6 10
3 6
4 6
2 2
4 10
3 6
6 8
2 0
6 5
6 5
6 9
4 1
2 8
5 7
4 3
3 10
4 0
3 10
2 0
0 4
5 2
5 7
4 0
5 7
3 6
3 5
0 3
2 9
16 9

7 11
63
0 2
0 0
4 7
0 3
0 3
1 5
4 1
5 8
0 0
6 1
2 4
2 9
3 2
4 4
4 3
2 2
3 8
6 8
5 4
0 7
2 4
6 8
3 1
5 1
1 1
0 9
5 9
6 9
6 6
5 1
2 6
3 0
4 10
5 5
0 0
2 3
6 4
2 4
6 10
4 5
0 8
5 6
5 10
6 8
3 4
3 6
2 3
6 10
5 3
1 4
2 10
3 0
5 3
2 0
5 5
1 5
6 4
2 2
5 0
0 0
2 0
3 2
2 6
8 5

7 11
63
3 0
0 2
5 6
6 0
2 3
1 9
3 10
3 8
0 9
6 8
4 5
3 1
2 5
2 9
0 10
4 7
2 1
0 10
4 0
5 5
2 1
0 2
5 4
5 10
0 4
1 4
2 8
6 5
5 4
0 2
1 2
6 8
6 2
3 10
0 3
3 10
0 7
6 7
0 6
1 0
1 10
6 10
6 6
5 4
2 8
6 6
4 1
3 0
3 4
2 4
2 7
6 8
1 4
0 1
6 0
5 9
2 0
3 0
3 2
2 3
4 8
6 4
2 4
1 18

7 10
63
4 7
1 7
6 1
3 7
6 9
4 6
6 5
6 6
1 5
0 6
1 7
0 8
4 9
2 0
0 2
4 5
1 2
5 9
3 6
0 2
0 2
1 0
2 8
6 4
0 1
6 6
1 4
0 5
2 3
0 6
2 3
4 1
5 8
1 6
6 9
6 4
6 6
4 9
3 1
6 7
6 8
6 8
0 4
4 3
1 9
1 9
1 7
4 5
2 4
5 9
3 6
6 1
5 7
3 0
0 9
6 4
2 4
0 9
3 6
4 2
4 9
3 9
6 6
15 15

7 10
65
3 5
5 8
5 0
4 8
6 2
6 0
1 7
0 5
1 0
4 2
2 6
2 2
4 7
2 3
3 8
2 2
5 1
0 7
0 9
5 7
3 8
3 1
2 2
0 7
6 8
4 1
2 7
3 8
6 8
5 4
6 2
5 0
6 8
6 4
5 1
3 2
0 6
3 3
3 5
5 8
4 5
3 0
0 0
5 5
5 0
0 2
2 8
0 6
3 0
4 0
4 6
2 5
3 6
3 6
6 8
1 8
1 7
4 0
1 5
3 6
3 3
4 3
4 3
5 7
2 3
6 1
