27

13 19
13
0 17
0 11
9 2
7 12
5 4
7 1
4 2
11 8
3 8
1 6
2 15
5 9
8 4
6 4

20 13
23
16 6
18 5
8 4
0 0
1 2
13 7
10 7
9 9
3 5
17 9
10 7
4 3
3 3
15 12
2 8
14 7
11 0
17 9
12 6
18 9
7 1
9 10
10 0
4 1

8 4
25
2 2
1 0
3 1
0 0
1 1
4 3
7 0
0 1
3 3
0 3
5 2
7 1
6 2
0 1
3 1
3 1
0 1
0 3
4 2
7 1
1 1
7 3
6 2
5 0
1 2
10 4

4 20
14
0 1
0 15
2 13
3 1
0 9
1 12
1 17
3 1
0 3
1 2
1 15
3 16
2 18
3 4
8 3

20 4
22
15 1
13 1
18 0
12 0
19 2
9 2
1 3
4 1
7 3
15 0
1 2
19 2
13 0
17 2
1 2
6 0
12 3
6 1
6 1
6 1
10 0
2 3
9 5

4 2
20
1 1
3 0
3 0
1 1
2 1
2 1
0 0
1 1
1 0
3 0
2 0
1 1
1 0
0 0
3 0
1 1
3 0
0 1
0 0
2 0
1 1

18 1
12
3 0
17 0
0 0
11 0
0 0
5 0
6 0
4 0
1 0
7 0
8 0
13 0
4 1

7 11
23
0 4
6 6
2 8
3 7
3 3
3 7
3 3
4 9
5 4
6 3
6 9
3 8
0 1
3 0
3 1
2 9
2 7
4 7
2 3
6 4
0 10
2 6
2 4
10 4

6 12
1
2 5
6 3

1 17
4
0 11
0 2
0 8
0 8
8 1

15 11
1
7 2
10 5

2 15
12
0 14
1 4
1 10
1 10
1 6
0 7
1 6
1 14
1 13
0 10
0 8
1 3
5 2

14 8
20
0 3
7 7
4 4
3 7
13 7
11 7
3 3
8 0
11 7
5 1
13 5
0 5
5 1
2 7
1 5
0 2
2 6
1 5
9 3
1 5
3 2

1 20
24
0 11
0 17
0 18
0 5
0 4
0 17
0 11
0 4
0 12
0 13
0 1
0 2
0 17
0 17
0 2
0 19
0 7
0 15
0 8
0 3
0 6
0 11
0 11
0 11
8 5

14 3
15
8 1
3 0
10 1
6 2
3 1
0 0
0 0
11 1
13 0
13 2
8 0
4 0
7 2
3 1
11 2
6 1

8 14
19
4 4
0 13
7 0
5 5
1 7
5 13
6 0
6 3
7 11
2 1
3 3
2 6
1 7
5 12
7 8
6 7
6 1
6 12
3 2
10 2

6 19
7
4 17
4 2
5 10
5 6
2 1
5 2
3 16
7 4

17 19
7
14 3
1 10
8 16
14 4
7 10
3 4
6 2
9 1

4 10
1
2 5
10 3

12 7
1
7 4
9 2

19 17
21
17 16
10 9
5 6
3 2
5 4
16 14
11 16
4 5
6 15
9 5
14 5
9 8
8 9
18 10
0 13
1 1
0 5
7 8
0 5
14 10
16 3
1 1

14 6
22
11 1
12 1
12 5
8 1
5 1
13 0
3 0
5 4
3 4
9 0
11 0
2 4
6 2
0 1
6 1
2 4
7 0
9 0
12 1
8 0
4 5
6 0
10 3

17 17
7
6 6
4 15
0 15
9 1
14 10
15 3
5 8
4 5

11 6
16
7 0
6 1
6 5
5 1
9 3
8 3
5 5
10 3
7 0
2 0
5 2
9 0
7 3
2 0
6 0
1 4
7 2

2 4
12
0 0
1 2
0 2
0 3
1 0
1 3
0 1
1 1
1 1
1 1
0 0
0 3
3 5

7 2
6
5 1
0 0
2 0
0 0
4 1
1 1
6 1

14 20
5
5 17
13 16
2 17
12 0
1 17
1 2
