10

1 7
8
0 1
0 2
0 2
0 1
0 3
0 1
0 6
0 1
5 1

5 6
8
0 2
3 5
3 4
2 2
1 0
0 1
1 2
2 4
5 1

3 6
8
1 4
2 1
2 5
0 0
1 5
1 0
0 0
2 5
5 1

7 4
8
0 1
2 0
4 3
0 1
4 3
6 3
0 1
3 1
5 1

2 1
8
0 0
0 0
1 0
0 0
1 0
1 0
1 0
0 0
5 1

8 7
8
0 3
4 3
3 2
0 5
4 5
1 6
7 2
7 5
5 1

1 4
8
0 2
0 1
0 2
0 0
0 2
0 2
0 3
0 3
5 1

7 3
8
4 1
4 2
2 1
1 1
4 0
0 1
6 2
1 1
5 1

1 6
8
0 0
0 1
0 1
0 5
0 0
0 1
0 5
0 0
5 1

1 6
8
0 0
0 5
0 0
0 4
0 1
0 3
0 0
0 2
5 1
