*** Life<ConwayCell> 7x1 ***

Generation = 0, Population = 6.
*
*
*
*
*
*
.

Generation = 1, Population = 4.
.
*
*
*
*
.
.

Generation = 2, Population = 2.
.
.
*
*
.
.
.

Generation = 3, Population = 0.
.
.
.
.
.
.
.

Generation = 4, Population = 0.
.
.
.
.
.
.
.

Generation = 5, Population = 0.
.
.
.
.
.
.
.

*** Life<ConwayCell> 1x10 ***

Generation = 0, Population = 8.
******.*.*

Generation = 1, Population = 4.
.****.....

Generation = 2, Population = 2.
..**......

Generation = 3, Population = 0.
..........

Generation = 4, Population = 0.
..........

Generation = 5, Population = 0.
..........

*** Life<ConwayCell> 4x2 ***

Generation = 0, Population = 7.
**
**
**
.*

Generation = 1, Population = 4.
**
..
..
**

Generation = 2, Population = 0.
..
..
..
..

Generation = 3, Population = 0.
..
..
..
..

Generation = 4, Population = 0.
..
..
..
..

Generation = 5, Population = 0.
..
..
..
..

*** Life<ConwayCell> 3x1 ***

Generation = 0, Population = 3.
*
*
*

Generation = 1, Population = 1.
.
*
.

Generation = 2, Population = 0.
.
.
.

Generation = 3, Population = 0.
.
.
.

Generation = 4, Population = 0.
.
.
.

Generation = 5, Population = 0.
.
.
.

*** Life<ConwayCell> 2x3 ***

Generation = 0, Population = 6.
***
***

Generation = 1, Population = 4.
*.*
*.*

Generation = 2, Population = 0.
...
...

Generation = 3, Population = 0.
...
...

Generation = 4, Population = 0.
...
...

Generation = 5, Population = 0.
...
...

*** Life<ConwayCell> 10x4 ***

Generation = 0, Population = 14.
.*.*
..**
*...
....
....
.***
.*..
....
..**
*.**

Generation = 1, Population = 15.
...*
.***
....
....
..*.
.**.
.*..
..*.
.***
.***

Generation = 2, Population = 12.
...*
..**
..*.
....
.**.
.**.
.*..
...*
....
.*.*

Generation = 3, Population = 13.
..**
..**
..**
.**.
.**.
*...
.*..
....
..*.
....

Generation = 4, Population = 7.
..**
.*..
....
....
*.*.
*.*.
....
....
....
....

Generation = 5, Population = 2.
..*.
..*.
....
....
....
....
....
....
....
....

*** Life<ConwayCell> 9x6 ***

Generation = 0, Population = 18.
*...*.
**..*.
..*.*.
.*...*
...*..
*...*.
....*.
.*..**
..*.*.

Generation = 1, Population = 24.
**....
**..**
*.****
..***.
....*.
...**.
...**.
....**
...***

Generation = 2, Population = 11.
**....
.....*
*.....
.**...
..*..*
.....*
......
......
...*.*

Generation = 3, Population = 7.
......
**....
.*....
.**...
.**...
......
......
......
......

Generation = 4, Population = 5.
......
**....
......
*.....
.**...
......
......
......
......

Generation = 5, Population = 4.
......
......
**....
.*....
.*....
......
......
......
......

*** Life<ConwayCell> 10x8 ***

Generation = 0, Population = 17.
.*.*..*.
..*.....
.....*..
..**.*..
...*....
.......*
*..**.*.
........
..***...
........

Generation = 1, Population = 16.
..*.....
..*.....
..***...
..**....
..***...
...**...
........
..*..*..
...*....
...*....

Generation = 2, Population = 12.
........
.**.....
.*..*...
.*......
........
..*.*...
...**...
........
..***...
........

Generation = 3, Population = 10.
........
.**.....
**......
........
........
....*...
...**...
..*.....
...*....
...*....

Generation = 4, Population = 14.
........
***.....
***.....
........
........
...**...
...**...
..*.*...
..**....
........

Generation = 5, Population = 14.
.*......
*.*.....
*.*.....
.*......
........
...**...
..*..*..
..*.*...
..**....
........

*** Life<ConwayCell> 2x7 ***

Generation = 0, Population = 12.
*.*****
*****.*

Generation = 1, Population = 4.
*.....*
*.....*

Generation = 2, Population = 0.
.......
.......

Generation = 3, Population = 0.
.......
.......

Generation = 4, Population = 0.
.......
.......

Generation = 5, Population = 0.
.......
.......

*** Life<ConwayCell> 7x1 ***

Generation = 0, Population = 6.
*
*
*
*
.
*
*

Generation = 1, Population = 2.
.
*
*
.
.
.
.

Generation = 2, Population = 0.
.
.
.
.
.
.
.

Generation = 3, Population = 0.
.
.
.
.
.
.
.

Generation = 4, Population = 0.
.
.
.
.
.
.
.

Generation = 5, Population = 0.
.
.
.
.
.
.
.
