*** Life<Cell> 9x2 ***

Generation = 0, Population = 8.
0-
0-
--
0-
0-
-0
0-
0-
0-

Generation = 5, Population = 11.
-0
1-
-0
1-
*-
11
*-
**
.0

Generation = 10, Population = 7.
*-
*-
.-
**
.-
**
*-
..
.-

Generation = 15, Population = 7.
.*
**
.-
**
*-
..
.1
..
.-

Generation = 20, Population = 7.
**
**
.-
**
*-
..
.-
..
.-

*** Life<Cell> 12x15 ***

Generation = 0, Population = 33.
---------0-----
-----------00--
------0-0----0-
-0-------0--0--
--00-----------
---------0--0--
0----0---------
-0---0--0-----0
0---00--0-0----
------0--------
0--0--0----0---
-00-------0--0-

Generation = 2, Population = 75.
------0010-1-0-
-0--------1-*00
--000-0-0001---
---1---0-01---0
-0--1-0-0----0-
-----1-010110--
----1*-01-0----
-------1-11---0
0----001*-010--
--0-10----1--00
-00------00--1-
0**00-1-0-0010-

Generation = 4, Population = 72.
--00-1*-1---1--
-------101.-.**
0-*-*0----0.-1-
---.-0-------0-
----1100*10----
-----.1-1-*1*00
0001..0-10-0-0-
--0-1----.*-11-
01-0--0*.1--*-0
-0--.----0--00-
-0*001*---*0---
-..0--1-01---0-

Generation = 6, Population = 83.
-1--0**1.-0---1
------0.-*.-*.*
--*1.-1-*1-*-1-
--1.1-0--1101--
-01*..*-.---1--
--1--.1--0**.*-
*-*..**1--0-000
01*-1--*-..11--
-11011*...1**0-
--10*1---*--0-1
-0.*0-.1--.--10
1..*10*0-.0-*--

Generation = 8, Population = 82.
-1-****..10**-*
-----00*-*.-*.*
0-...-1-**1*0-0
0-1.-0-1-1-*---
-*1...*-.1--*0-
-01--.1---*.**1
*1**.*.--1*1---
-*.-.-1.-..1*--
--1*1....*.*.*0
0-10.----.10*-*
-0*.-*..-*.1-.0
-..**0*0**--.--

Generation = 10, Population = 86.
1--....**10**1.
1----00.*..***.
*1.**1.0.*1*0--
-1..-0-111-.*--
0......0..--.0-
-*.00..1--*...*
.-*.**.1**.-1-*
-..0*01.-**.*-1
--1......*...*-
--*0**100**-*-*
0*..-..*0..*-.*
-.*****0**--*-1

Generation = 12, Population = 72.
.*1...**.1-..-.
-0--0-*.*......
*1****.*..-.*1-
-...-*-.111*.1-
-...***0..10.-0
0..*0..--1**.*.
.-...*.1..*-.1*
-..*.**.1.*..-*
-*......**....-
1-*-..-*-**1.-*
*...-...*...-.*
-.********1-.0.

Generation = 14, Population = 85.
.********--..-.
10-0*-..*.*....
*....*.**.-**1-
*...-.0.*-...*-
1..**..*..**.-0
0.**0.*--***.**
.-.*.**1*..1.1*
-.***.*..*.*.1.
-****....*.**.0
*-.-*.-*1.**.**
*.*.-.......-**
-..*..*****-*0.

Generation = 16, Population = 75.
.*...****-1*.-.
---0.-......**.
*..*..***.-..1-
**..*.0..-*...0
-.*.*.*.....*-*
****0.**-*..***
*-*....-***1*..
0......*.**.***
-*...***...**.-
*0*-*.*.***....
**.*-.*....*0..
-......**..0.-.

Generation = 18, Population = 57.
.******..-*..-.
-11*.-..**....*
......*.**-...-
*.....-*.-*...*
-..*..*..**.*-*
*...0...-...*.*
*-.....*...-...
-.*....*.......
**.**...**....-
.-*-..*..**.**.
...*1*****..-..
*.....*....-*0.

Generation = 20, Population = 45.
.*..***..-...-.
--***-*........
.**..*..*.-*..-
......1.*-.*...
-.......**..*-.
....-...-.*....
.-*........1...
-*.*...*.*.....
.*..*.*****...-
.-.1*..........
..**-*..*..*1..
.......**..**-.

Generation = 22, Population = 51.
.....***.-...-.
1*..*-.*.......
.**..**..**...-
.....*1.*1..*..
-......*.....-.
....-..*-...*..
.-*....*...-...
*****..*.*.....
***.*....*.*..-
.-*1.......*...
..***.*.**..-..
...*...**..***.

Generation = 24, Population = 46.
.*..**.**-...-.
*.*.*-.***.....
*.*.*.**..*...-
.*....1.*1*....
-........*...-.
....-...*......
.1...**.*..-...
.*.*.*.*.......
....**..*.....-
.-.-**.*...*...
....**.....*-..
...**..*....*..

Generation = 26, Population = 46.
.******..1...-.
*.*.*-.*.......
*.**..***.*...-
.*...**.*.**...
-.........*..-.
....0*...*.....
.***.**....-...
.**.**...*.....
..**...**.....-
.-.*...........
...*........1..
....*..........

Generation = 28, Population = 42.
.*...*...1...-.
*....0...**....
*.****.**..*..-
.**...*.....*..
-*.......***.-.
..***.**.......
..**.......-...
......***......
....*..**.....-
.0***..........
...**.......-..
...............

*** Life<Cell> 14x10 ***

Generation = 0, Population = 26.
0---0-----
---000----
00------0-
0----0----
----0-0---
---0---0--
0----0----
----------
----0-----
----00----
----------
--0-----0-
------0-0-
-00-----0-

Generation = 2, Population = 61.
01--*-0-0-
011*--10--
--11------
*-0000----
-00-010---
10---1---0
0-01--11--
---011-0--
0-0--00---
---1--100-
----1-0-1-
010--01-*-
----0-0-0-
1*-10-1---

Generation = 4, Population = 54.
-10-.-*---
0***1*--00
-1..0---0-
.1*-*----0
--0-----0-
-----.-1-0
*-*-0-.-11
0-1--1--1-
0---1-----
1-01--*0-1
1----1--1-
*1*-1-.0.1
-01---0-*-
..-*--*---

Generation = 6, Population = 69.
0--0*-*---
-...**----
0-..0-0-*-
.1*-*-0-10
00----1--1
-00-1*-10*
.-.1--*111
--*-*--*.-
0-0-101--1
--**01.--1
10011-011-
.**-1-.0.1
0010-1*1*0
..-.--.--0

Generation = 8, Population = 64.
0*--*1*---
-.**..*111
--..01--.0
.-*1.0----
*-*-0-.-11
10--**-1-*
*1.1--.1.1
11.1.11.*0
00--.-*01*
10*.--.*-.
.*-**--*.1
...0.1.-.*
**.-*..*.-
*.-.--.--*

Generation = 10, Population = 54.
-.--.-.-11
-.****.11-
0-..----*-
*-...--0*-
**.1*-.0.-
*010..0.**
.*.*0-.*.-
...*..1*.*
----.1.*.*
--..-1.*-*
*.-..-*...
...*.1.0..
...-**..*1
**1.10.1-.

*** Life<Cell> 15x11 ***

Generation = 0, Population = 33.
00---------
0-----0----
------0--00
----------0
---------00
----0-00---
-00--0---00
------0----
----0------
-0----00---
---00------
-----------
-0-----000-
-------0---
----0---0-0

Generation = 2, Population = 75.
-*10--1--00
*-0-0---0-1
10--0--1-*-
0---0--00-0
-00--0111-0
--1-01--100
1-------1*-
-1------0--
-1-1010--00
---101*-10-
--1-*11100-
-1----0----
-----0100*-
-----0---1-
-00-0--0000

Generation = 4, Population = 66.
-*.-011----
*------0--*
.-----**0.-
--------0--
0*--101*.*-
-0*0---1.-0
1--01-0-..1
-.1--------
1.---.01--*
-1010-.*--0
001-.*11-0-
------0--0-
-1-01-*--*1
-1-0--0--1-
1*-0--1*0**

Generation = 6, Population = 73.
-..*-1*----
.----1-*-1.
.1--01..-*1
--00--0-*01
*.00.0-..*-
1-.0*--**1*
1---*-0-**.
0.---0---00
1*-**.-1-1.
11-1--*.*--
**1-...11--
--1-1---100
-*--*0*-1.*
---00*--01-
..-*---.-**

Generation = 8, Population = 76.
-...-1.00*-
.----1**0**
.1----**-*1
-0-0--0-.01
.*--.0-..*1
1-*-*11..1.
1*--*1--.**
0.1-10011--
*.-...--1.*
*.-*1-*..1-
..-1*...*--
1-.-.010*0-
1.--***-1*.
-*-0-.--0--
.*-*0-1.0**

Generation = 10, Population = 84.
-...-*.0*.-
.1--*-.*-..
**-11-.*1.*
*000-0*1***
*.0-***.*.1
*0.0.1..*-.
..-1**11**.
-.-01*-1111
.*1*..--*..
..**1-.**--
..*1...**--
*-.-.0.-*--
..00***-*.*
-*--**0-0-1
..1*-01.-**

Generation = 12, Population = 66.
0*..1..-**-
.*--.1.*-*.
*.-11-..1.*
.**0--...**
*.*-.......
.*.*.-...-.
.**...-..**
-*1-**-11**
..*...1-***
...**-..**1
.**1*.*..--
*-.-.-.0*11
..--...0..*
1.--*.-1---
....*0-*0**

Generation = 14, Population = 62.
**..-..-**-
..-1.-..-.*
*.0-.1..-.*
**.01-...**
**.*.....**
**.**-...-.
*..***1***.
1.*1.*-**..
*.***.-*...
*....-*...-
.*....**.--
.-.-.-*-.11
..1-..*0.*.
-.0*..--1*-
...*.-1.-..

Generation = 16, Population = 58.
....-..-**-
..-1.-..-.*
..0-*1..1*.
...-.0...**
.........**
.....1..*1*
......-****
-*.***-*.*.
..*...-**..
..**.*...*1
.**....***-
.-.-.*.-.-*
..*-..*-..*
-.0**.1-***
..***-1.1..

*** Life<Cell> 5x4 ***

Generation = 0, Population = 19.
0000
0000
0000
00-0
0000

Generation = 2, Population = 10.
-**-
*-0*
-0*-
---0
-*0-

Generation = 4, Population = 10.
-**-
*--*
--.*
1-1-
-**0

Generation = 6, Population = 9.
0.*-
.01*
--..
1-.1
0*.-

Generation = 8, Population = 7.
-**-
*-.*
--.*
*1.-
-..-

Generation = 10, Population = 8.
0.*-
.-.*
1-.*
**.-
-..1

Generation = 12, Population = 10.
-..0
.1**
*1..
*.*1
1..-

Generation = 14, Population = 13.
0..*
.1..
*1**
*.**
**.*

Generation = 16, Population = 4.
-...
**..
**..
....
....

Generation = 18, Population = 4.
1*..
....
**..
....
....

*** Life<Cell> 3x18 ***

Generation = 0, Population = 27.
0-0-0-----0-0-0000
00000-000--000--00
------0-0----0-0-0

Generation = 10, Population = 24.
...1.1.---*0**.**-
-1.-*.*1--*.*-1--*
.-.1.0.0.0.1.*1.1.

*** Life<Cell> 9x18 ***

Generation = 0, Population = 26.
---0--------------
0--0----------0--0
---------0----0-0-
0----0---------000
---0--0-----0---0-
------0-----------
-0---------0------
--0-0---0-0--0----
--0---------------

Generation = 4, Population = 71.
---.--10-0--1-1---
1-*10-11--0--1-0-0
-1-0-1----100-*-1-
-1------01101--*1*
---1.--0*-*.1---.1
0-*1-*----*---1-1*
-1---0*1-0----11*-
*1.0-0---1*-10100-
0-*-*------*0---0-

Generation = 8, Population = 72.
-1-.10.0------*01-
--..*01-.-.--*1-1*
-*-.--*.--*--1.0*0
-*-*-1-1-.-1*11.**
-*0*.--1*-*..-.1.*
*1.*0.*-1-*0-...*.
-.---*.*-*.0.*...-
.-*-*1111-.--0.*.1
--.-.11-01-*0-1010

Generation = 12, Population = 55.
0--.-*.*-*1-*-*-11
--**.-.-.-.0..*1..
1...--.*-..-1-.1.-
1...--*.-.....*.**
-.-..1*-*-...1*1..
.-..*.*0.-.-1..*..
-.-.....0*.1.*.*.1
*..1.*..*-*--....*
-**0*1-.-.-**..**-

Generation = 16, Population = 65.
-1-.**...**-*****.
-*.**.*-.1.*......
**..1-**0..**-*.*1
*...-*..**.**.**..
..-....*.**...*1..
.-.*...*.1*--.....
1.-...*.1.*1.***..
*...........*.*...
-..-**-*1*-**.**.0

*** Life<Cell> 4x9 ***

Generation = 0, Population = 11.
---0-----
----0-0--
0---0-0-0
-0-0--00-

Generation = 2, Population = 18.
00-0001-0
-000*--11
0--0*----
-------*0

Generation = 4, Population = 18.
*-----*1*
100-*0-*-
----*1-00
-001-0-.-

Generation = 6, Population = 19.
.-1-*-*.*
-0*-*0*.-
1-00..00-
-*-.-*1**

Generation = 8, Population = 16.
.-*0*-**.
1-.-.-..-
--0*..*0-
0.0.1***.

Generation = 10, Population = 12.
.1.-.-...
1-.-*0..1
1-0....--
0**.**...

Generation = 12, Population = 13.
.-.0*1...
.-*-**..1
-1-.*..0-
-***.....

Generation = 14, Population = 8.
.-**.-...
.-.-.*..-
-.*.**.--
-..**....

Generation = 16, Population = 12.
.-*.**...
.-*1.**.-
-.*..**--
-...**...

Generation = 18, Population = 13.
.-..**...
.-..***.-
-**.***-1
-....**..

Generation = 20, Population = 7.
.1.....*.
.-.....**
-.....*-1
0........

*** Life<Cell> 20x12 ***

Generation = 0, Population = 46.
0-----------
---------0--
----0--0---0
--0---0-0---
-0--0---0--0
---0--------
-0-------0-0
-00-0--0-0--
---0-----0--
----00--0---
-0-----0-0--
--0-00------
----0----0--
------------
--0------00-
0---------0-
--0-0----0--
-----------0
---0-----0--
-----------0

Generation = 5, Population = 105.
0**0--0*1---
---*0--*1-0.
-1-*11-*000-
**0*0-*-.1-0
-*-*1--.--1-
--0-.---..--
1*0-.--..---
--.0*1.111-.
-.*-0*-**-0-
*--*1.-0---0
----1*-----1
1-.-*....-*0
*-*-.-10-0-*
--.--.0-*0.-
*10-1-0*-1-.
00-0-1--1--*
---1*1.11-0-
---00--1011-
0-.-..--00-.
-0-0-00*-*1*

Generation = 10, Population = 98.
-.*---..-00-
*.1.-0**.*-*
-...-.*.-.-1
..1*.-**..10
0.-.---.**1-
-..0.-.*..00
..0-..0..-*1
.0.1*-....-.
.*.1*.-...0.
*-***.1*1.1-
-00-*.-1--1.
.*.*..****.*
.-.******.-*
11.0-.--.*.*
..1-.*..1*.*
0-*.-.-1*01*
.-*..-*-*-.-
.00*----**1.
--.0...--*1.
011-*.1.-...

*** Life<Cell> 15x16 ***

Generation = 0, Population = 52.
-------0-0--0---
-0--0----0---00-
0------0--------
-----0----0-0---
----------------
-0------0-0000-0
----0-----00---0
-0----0--00----0
--0-000------0--
0-----0-----00-0
00-0--00-------0
------0-----0---
0---0----0------
---0------------
------0---------

Generation = 1, Population = 105.
-0--0-0--100--0-
--00-0--010--110
----000-000-000-
0---0-00-0---0--
-0---0--0--0-0-0
0-0-0--0---1-1-1
---0-00-0-1--00-
0-----1001---001
0---1-10-00--10-
1-000------01--1
-1--00110----001
-0-0001--0-0-0-0
-0---00-0-0-0---
0-0---0--0------
---0-0-0--------

Generation = 2, Population = 103.
0----0-0--110-1-
--11-100--1----1
0-0--1-0----1---
---01--1-1-0---0
0---0--0--01---1
-0-0-0--0--*--0*
----01--10--01-0
10-00-*11-0-01-*
-00-*---0-1----0
*01-1---00-1*00*
-*-011*-1------*
0--11-*-0-0-0101
-1-0--1----0---0
-0---01-----0---
0-----0-00------

Generation = 3, Population = 115.
-000010101--1---
-0-*-*-101*-----
--10-*0-000--0--
---1--0---01--01
---01-01--1*0---
-----10-1--*--1*
0--0----*1----0-
*-0110*-*11----*
01-0*01--0*-----
*--0--00110**--*
0.0---*---00--0.
-00*-0*-1--01--*
-*-1---00---00-1
-10001*000---0-0
------1-110-0---

Generation = 4, Population = 103.
0--1-*-*1--1-0--
01-.0.----.001--
--*1-*-0-11-1--0
--------0-1---1*
--0-*01*-0-.10--
0----*-0*--*-1-*
10-1---0.--0-110
*01-*1*-.--0---.
1*01.1*-01.-0---
*--1--1--*-.*0-.
1.10--.----100-*
--1*-1*0*0-----*
0.----1-1-------
0--1--.1----01-1
-0000-*0-*1----0

Generation = 5, Population = 122.
1-0-0.-.*11*111-
-*-.-*--01.-1-11
0-**0.--0*-0*--1
---11-01--*1--**
00--*1-.---**---
1-00-*01.-0*0-1*
*-0----1*-1-----
.---.*.-*111-10.
*.1-.-.-1-*-1---
*-1-1-*0-*0..-0.
*.-111.11-0*1--.
-0-*-**-*100110.
1*0---*-*---00--
1--*--.*-0001*-*
-1-11-*--.*00001

Generation = 6, Population = 107.
-0---.-.**-**---
0.1.0*011*.0-1--
-0*.-.0--.1-*00-
-0--*01*--.*00**
-1-0.-1.--1..0--
-0-10*--*0-.--*.
.-1-----.1-001-0
.---...-.--*0*1.
..*1.1*-*-.0----
*-*1*0*--.1.*0-.
*.--*-.---1.---.
011*1..0.-11-*1.
-.11--*0.0-011-1
*1-*--**0111-.0*
----*-.--*.111--

Generation = 7, Population = 110.
----0*0..*-**---
-.**1*1-*..1-*--
--*.-.-00*--.---
0---*--*0-*.1-.*
0--1.1*.0--*.101
110--*-1*--*01*.
.---01--**--1---
.--1...-.11.1.*.
.**-.-*-.1*11-0-
.-**.1*01**.*10.
*.-1.-*1-0-.1-0.
--*.-**1*---1**.
-.-*-0.1.1-1---*
.*0*-1*.---*1.1*
01--.0.0-*.--*-1

Generation = 8, Population = 102.
--0--.-*..-**---
-.*.*.-1...*1.1-
00*.-.---.-0*0-1
100-*--.11**--.*
----.-..-0-..-1-
--1--.0*.-0*1*.*
.01-1-0-..------
.0--**.-.*-.-...
.*.1*-*-.*.-*1-0
.-.***.1-....-1*
.*1*.1.*-1-.---*
01**1*.-.1---.**
-*1*--.*.--*110*
**-*-*.*--1*****
1--1*1.--..1-*0*

Generation = 9, Population = 101.
-0110.0...1**11-
0.*...1*..*.*.--
-1..-.-00*-1.10*
-1--.0-.**.*-0.*
01--.-.*-11..--1
--*10*-*.-1*-**.
.---*11-..1011-0
*---..*-..1.1...
...-.-*-*..1.*01
.-.....*1....-**
*.*..-..-*1.--0.
1-..-*.-.*111...
1.*.--..*1-.**-.
*.0.0*..01*.....
*-0-.-*0-.**1.1*

Generation = 10, Population = 91.
-1*-1*1*..-.*-*0
-....*-.......-1
-**.-.--1.1*.--*
--0-.-1....*-1.*
1--1.-.*0--..--*
1-*-1.0**-*.1*.*
.-1-.*--.**1*-1-
.0--..*1.**.*..*
...-.1*0**.-**1-
.-.....*-.*..-..
.*...1..-.-.101*
-1..1..-..*--...
-..*0-...*0.**0.
*.-.1**.-*....*.
.-11.-*1-.***.*.

Generation = 11, Population = 99.
1*.-**-...-..-*-
-..***-*...*..--
0**.-.00-.***10*
1-1-.0-.****--.*
*10-.-..-11*.-1*
*-*1-*1..0*.-*.*
.-*1.*1-...-.1-0
.---...-.......*
...-.*.-...1***-
.0...*.*-*.*.-.*
.....-..-.-**--.
1*****.-.**1-..*
1..*1-...*-*.*-.
..0.-.**0*....**
.1***-**1.**.*..

Generation = 12, Population = 85.
*..-.*1...-..1.0
-..*..1*..**..-1
-.*.0.1--....--*
---1.--**...-1..
*-1-*-*.-*-.*-**
*1.--*-..-.*1*.*
.0*-.*-1...-.*--
.-11***-.......*
...-..*0..*-***1
.-....*.-....1*.
*..*.-*.-*-.*0-.
-**..*.-.*.*-...
*...--**..0**.-*
..1.-.*.1..*.**.
.***.-*.-.*...*.

Generation = 13, Population = 98.
...1.*-*..1..-*1
0..**.**......1-
-.*.-**01....10.
1-1-*-1**...--.*
*1-1*1**-.1*.-.*
*-.--*-..0.**..*
*-.-..1-...1.*1-
.---*..1....*..*
...1*..1...-*..-
.-...**.-..*.*.*
.**..-*.1.1.*--.
1**..*.1**..1*..
..*.--****1..*-.
..**-**.-*...***
.***.1.*1....**.
