*** Life<ConwayCell> 9x12 ***

Generation = 0, Population = 36.
..*.*..*....
*...*****...
.......*..*.
..***..*.*..
.***.**.***.
.**.........
......**...*
*..**....*..
.**.*.......

Generation = 4, Population = 23.
........*...
..***...*...
........*...
.......***..
.*.....*...*
*...*....*.*
....*.*.....
**..........
....***.....

Generation = 8, Population = 20.
........*...
..***..***..
..........*.
........**..
.......***..
.....***....
............
....*.**....
.....*......

Generation = 12, Population = 21.
....*....*..
..**.*..*.**
.....*..*..*
..........**
.......***..
.......**...
............
....*.......
.....**.....

Generation = 16, Population = 16.
...**.....*.
...*.*....*.
....*.......
.......**...
.......*.*.*
........***.
.........*..
............
............

Generation = 20, Population = 12.
...**.......
...*.*......
....*.......
............
.......*....
........***.
........***.
............
............

Generation = 24, Population = 12.
...**.......
...*.*......
....*.......
............
........**..
.......*..*.
........*.*.
.........*..
............

*** Life<ConwayCell> 4x2 ***

Generation = 0, Population = 8.
**
**
**
**

*** Life<ConwayCell> 14x11 ***

Generation = 0, Population = 29.
....**.....
.........*.
...........
..*....**..
...........
..*..*.....
....*......
.*......*.*
......*..**
.*.*...**..
....*..*..*
*..........
.*..*......
**....*...*

*** Life<ConwayCell> 8x11 ***

Generation = 0, Population = 28.
*...*.*....
.....****..
**.....*.**
..........*
.*...****.*
*..*.*..*..
...*..*...*
..*.*......

Generation = 4, Population = 14.
.......*..*
..........*
.....*....*
....*.....*
..........*
.**......*.
.*..*......
...*.......

Generation = 8, Population = 8.
...........
...........
........**.
........**.
...........
.**........
.**........
...........

*** Life<ConwayCell> 10x10 ***

Generation = 0, Population = 16.
*....*..*.
..*.....*.
....*.....
..........
.....*....
.......**.
......*...
..*..*....
.**.......
........**

Generation = 4, Population = 8.
..........
..........
..........
..........
..........
......**..
......**..
.**.......
.**.......
..........

Generation = 8, Population = 8.
..........
..........
..........
..........
..........
......**..
......**..
.**.......
.**.......
..........

Generation = 12, Population = 8.
..........
..........
..........
..........
..........
......**..
......**..
.**.......
.**.......
..........

Generation = 16, Population = 8.
..........
..........
..........
..........
..........
......**..
......**..
.**.......
.**.......
..........

*** Life<ConwayCell> 18x2 ***

Generation = 0, Population = 9.
..
..
*.
..
..
..
**
.*
..
..
.*
.*
.*
..
*.
.*
..
..

Generation = 6, Population = 4.
..
..
..
..
..
..
**
**
..
..
..
..
..
..
..
..
..
..

Generation = 12, Population = 4.
..
..
..
..
..
..
**
**
..
..
..
..
..
..
..
..
..
..

*** Life<ConwayCell> 3x11 ***

Generation = 0, Population = 25.
****.*.*..*
**..*******
.*******.**

Generation = 9, Population = 0.
...........
...........
...........

*** Life<ConwayCell> 13x5 ***

Generation = 0, Population = 41.
.*.*.
***.*
.**..
***..
*****
..***
*****
****.
.**..
.*.**
.**.*
.*.**
*.*..

Generation = 6, Population = 13.
**...
**...
.....
.....
.....
.....
.....
.....
.**..
.*.*.
...**
..*.*
...*.

Generation = 12, Population = 14.
**...
**...
.....
.....
.....
.....
...*.
..***
.*..*
..*.*
...**
.....
.....

Generation = 18, Population = 14.
**...
**...
.....
.....
.....
..**.
..*.*
....*
....*
....*
..*.*
...*.
.....

Generation = 24, Population = 11.
**...
**...
.....
.....
.....
..**.
..*.*
....*
...**
.....
.....
.....
.....
