8

9 12
41
0 4
0 2
3 3
4 1
3 7
5 2
1 0
7 4
4 5
2 7
1 6
1 6
4 8
4 10
1 8
8 1
7 9
8 4
1 4
1 5
5 1
4 3
3 9
6 11
1 7
8 2
5 1
0 7
6 6
3 2
3 4
6 7
4 6
4 6
4 2
7 3
4 9
3 3
8 4
7 0
2 10
25 4

4 2
51
1 1
3 1
2 0
0 0
3 1
1 0
1 1
0 1
1 0
1 0
2 0
0 1
1 0
2 0
3 0
3 0
1 0
1 0
0 1
0 1
3 1
2 0
2 1
3 1
1 1
0 0
0 1
0 0
2 0
3 1
0 0
0 1
3 0
3 0
2 0
1 1
0 1
2 0
2 1
1 1
1 1
2 0
0 0
1 0
2 0
0 0
2 0
0 1
2 1
0 1
0 1
5 8

14 11
32
10 10
12 4
13 1
0 4
3 7
9 7
7 10
7 1
8 6
7 1
10 4
0 5
5 5
9 1
5 2
11 0
6 4
13 0
3 2
13 6
9 8
13 0
8 9
8 10
7 8
13 10
3 8
9 3
1 9
3 7
12 1
10 7
1 8

8 11
31
2 7
1 5
2 7
4 6
4 7
2 0
5 3
1 7
6 10
2 9
1 8
5 0
4 5
0 0
4 1
6 3
5 5
7 2
2 1
0 6
5 3
2 10
6 6
0 4
3 10
7 4
5 8
4 8
1 6
0 6
4 10
11 4

10 10
16
9 8
1 2
1 8
5 8
0 8
8 1
0 0
8 2
7 2
9 9
7 5
0 5
5 7
4 5
2 4
6 6
18 4

18 2
13
6 0
12 1
14 0
12 1
14 0
15 1
11 1
7 1
6 1
6 1
10 1
12 1
2 0
12 6

3 11
39
2 5
1 9
2 3
0 10
0 5
1 9
2 7
2 9
0 10
2 10
1 6
1 5
2 6
1 10
2 6
0 3
0 0
2 2
2 10
0 0
1 4
0 7
1 1
1 0
1 9
1 7
0 0
0 2
2 10
1 8
0 5
2 1
2 4
1 1
1 6
0 3
2 5
0 1
2 1
9 9

13 5
64
1 2
3 1
11 1
10 2
7 0
5 3
7 3
11 4
12 0
2 2
1 4
0 1
1 1
8 2
9 3
8 2
8 2
5 4
11 4
3 2
9 1
1 1
10 1
11 3
8 1
3 2
11 1
2 1
4 1
8 2
5 2
4 4
9 4
4 1
12 2
7 1
0 3
6 3
3 2
4 2
1 0
1 0
4 0
10 4
12 2
5 3
6 4
6 1
1 4
7 2
1 0
11 4
1 0
10 2
4 3
6 3
11 4
3 0
6 0
11 4
6 2
4 2
12 0
1 0
24 6
