*** Life<ConwayCell> 10x10 ***

Generation = 0, Population = 12.
*........*
.*........
..*.......
...*......
....*.....
.....*....
......*...
.......*..
........*.
*........*

Generation = 5, Population = 0.
..........
..........
..........
..........
..........
..........
..........
..........
..........
..........

*** Life<ConwayCell> 10x10 ***

Generation = 0, Population = 12.
.........*
.*......*.
.......**.
.......*..
......*...
.....*....
....*.....
...*......
..*.......
*.........

Generation = 5, Population = 4.
..........
........**
........**
..........
..........
..........
..........
..........
..........
..........

*** Life<ConwayCell> 10x10 ***

Generation = 0, Population = 12.
.*........
*.........
.*........
..*.......
...*......
....*.....
.....*....
......*...
...*...*..
..*.....*.

Generation = 5, Population = 8.
..........
..........
.***......
.*..*.....
.*..*.....
....*.....
..........
..........
..........
..........

*** Life<ConwayCell> 10x10 ***

Generation = 0, Population = 12.
*........*
.*........
..*.......
...*......
....*.....
.....*....
......*...
.......*..
........*.
*........*

Generation = 5, Population = 0.
..........
..........
..........
..........
..........
..........
..........
..........
..........
..........

*** Life<ConwayCell> 10x10 ***

Generation = 0, Population = 10.
.*........
*.........
.........*
........*.
.......*..
......*...
.....*....
....*.....
...*......
..*.......

Generation = 5, Population = 0.
..........
..........
..........
..........
..........
..........
..........
..........
..........
..........

*** Life<ConwayCell> 10x10 ***

Generation = 0, Population = 10.
..*.......
.*........
*.........
.........*
........*.
.......*..
......*...
.....*....
....*.....
...*......

Generation = 5, Population = 0.
..........
..........
..........
..........
..........
..........
..........
..........
..........
..........

*** Life<ConwayCell> 10x10 ***

Generation = 0, Population = 10.
.......*..
......*...
.....*....
....*.....
...*......
..*.......
.*........
*.........
.........*
........*.

Generation = 5, Population = 0.
..........
..........
..........
..........
..........
..........
..........
..........
..........
..........

*** Life<ConwayCell> 10x10 ***

Generation = 0, Population = 10.
....*.....
.....*....
......*...
.......*..
........*.
.........*
*.........
.*........
..*.......
...*......

Generation = 5, Population = 0.
..........
..........
..........
..........
..........
..........
..........
..........
..........
..........

*** Life<ConwayCell> 15x15 ***

Generation = 0, Population = 20.
*.............*
.*.............
..*............
.....*.........
...*......*....
...........*...
.....**........
.......**......
........*......
.........*.....
..........*....
...........*...
............*..
.............*.
*.............*

Generation = 7, Population = 7.
...............
...............
...............
...............
...............
...............
...............
...............
...............
..........**...
..........***..
..........**...
...............
...............
...............
