*** Life<ConwayCell> 6x6 ***

Generation = 0, Population = 12.
***...
***...
***...
...***
......
......

Generation = 1, Population = 10.
*.*...
...*..
*...*.
.****.
....*.
......

Generation = 2, Population = 10.
......
.*.*..
.*..*.
.**.**
..*.*.
......

Generation = 3, Population = 13.
......
..*...
**..**
.**.**
.**.**
......

*** Life<ConwayCell> 8x8 ***

Generation = 0, Population = 15.
****....
****....
****....
***.....
........
........
........
........

Generation = 1, Population = 6.
*..*....
....*...
........
*..*....
.*......
........
........
........

Generation = 2, Population = 0.
........
........
........
........
........
........
........
........

Generation = 3, Population = 0.
........
........
........
........
........
........
........
........

*** Life<ConwayCell> 10x10 ***

Generation = 0, Population = 18.
***.......
***.......
***.......
..........
..........
.....***..
.....***..
.....***..
..........
..........

Generation = 1, Population = 14.
*.*.......
...*......
*.*.......
.*........
......*...
.....*.*..
....*...*.
.....*.*..
......*...
..........

Generation = 2, Population = 17.
..........
..**......
.**.......
.*........
......*...
.....***..
....**.**.
.....***..
......*...
..........

Generation = 3, Population = 19.
..........
.***......
.*.*......
.**.......
.....***..
....*...*.
....*...*.
....*...*.
.....***..
..........

*** Life<ConwayCell> 12x12 ***

Generation = 0, Population = 20.
****........
****........
****........
****........
....****....
............
............
............
............
............
............
............

Generation = 1, Population = 15.
*..*........
....*.......
....*.......
*....**.....
.******.....
.....**.....
............
............
............
............
............
............

Generation = 2, Population = 13.
............
...**.......
....*.......
.**...*.....
.***...*....
..**..*.....
............
............
............
............
............
............

Generation = 3, Population = 10.
............
...**.......
..*.**......
.*..........
......**....
.*.*........
............
............
............
............
............
............

*** Life<ConwayCell> 15x15 ***

Generation = 0, Population = 25.
*****..........
*****..........
*****..........
*****..........
*****..........
...............
...............
...............
...............
...............
...............
...............
...............
...............
...............

Generation = 1, Population = 10.
*...*..........
.....*.........
.....*.........
.....*.........
*...*..........
.***...........
...............
...............
...............
...............
...............
...............
...............
...............
...............

Generation = 2, Population = 15.
...............
....**.........
....***........
....**.........
.****..........
.***...........
..*............
...............
...............
...............
...............
...............
...............
...............
...............

Generation = 3, Population = 12.
...............
....*.*........
...*..*........
..*...*........
.*...*.........
....*..........
.***...........
...............
...............
...............
...............
...............
...............
...............
...............

*** Life<ConwayCell> 18x18 ***

Generation = 0, Population = 22.
..................
..................
..................
..................
..................
..................
..................
..................
........****......
........****......
........****......
........****......
........****......
........**........
..................
..................
..................
..................

Generation = 1, Population = 13.
..................
..................
..................
..................
..................
..................
..................
.........**.......
........*..*......
.......*....*.....
.......*....*.....
.......*....*.....
.......*...*......
........*.........
..................
..................
..................
..................

Generation = 2, Population = 23.
..................
..................
..................
..................
..................
..................
..................
.........**.......
........****......
.......**..**.....
......***..***....
......***..**.....
.......**.........
..................
..................
..................
..................
..................

Generation = 3, Population = 14.
..................
..................
..................
..................
..................
..................
..................
........*..*......
.......*....*.....
......*......*....
.........**..*....
.........*.*.*....
......*.*.........
..................
..................
..................
..................
..................

*** Life<ConwayCell> 20x20 ***

Generation = 0, Population = 24.
....................
....................
....................
....................
....................
....................
....................
....................
....................
.........****.......
.........****.......
.........****.......
.........****.......
.........****.......
.........****.......
....................
....................
....................
....................
....................

Generation = 1, Population = 16.
....................
....................
....................
....................
....................
....................
....................
....................
..........**........
.........*..*.......
........*....*......
........*....*......
........*....*......
........*....*......
.........*..*.......
..........**........
....................
....................
....................
....................

Generation = 2, Population = 32.
....................
....................
....................
....................
....................
....................
....................
....................
..........**........
.........****.......
........**..**......
.......***..***.....
.......***..***.....
........**..**......
.........****.......
..........**........
....................
....................
....................
....................

Generation = 3, Population = 16.
....................
....................
....................
....................
....................
....................
....................
....................
.........*..*.......
........*....*......
.......*......*.....
..........**........
..........**........
.......*......*.....
........*....*......
.........*..*.......
....................
....................
....................
....................

*** Life<ConwayCell> 6x12 ***

Generation = 0, Population = 16.
............
............
..******....
..******....
..****......
............

Generation = 1, Population = 11.
............
...****.....
..*....*....
.*.....*....
..*.........
...**.......

Generation = 2, Population = 16.
....**......
...****.....
..****.*....
.**.........
..**........
...*........

Generation = 3, Population = 9.
...*..*.....
..*.........
.*..........
.*..........
.*.*........
..**........

*** Life<ConwayCell> 12x6 ***

Generation = 0, Population = 16.
......
......
..***.
..***.
..***.
..***.
..***.
..*...
......
......
......
......

Generation = 1, Population = 12.
......
...*..
..*.*.
.*...*
.*...*
.*...*
.*..*.
..*...
......
......
......
......

Generation = 2, Population = 20.
......
...*..
..***.
.**.**
***.**
***.**
.**...
......
......
......
......
......

Generation = 3, Population = 11.
......
..***.
.*...*
*.....
......
....**
*.**..
......
......
......
......
......

*** Life<ConwayCell> 8x16 ***

Generation = 0, Population = 18.
................
................
................
.......****.....
.......****.....
.......****.....
.......****.....
.......**.......

Generation = 1, Population = 11.
................
................
........**......
.......*..*.....
......*....*....
......*....*....
......*...*.....
.......*........

Generation = 2, Population = 17.
................
................
........**......
.......****.....
......**..**....
.....***..**....
......**........
................

Generation = 3, Population = 11.
................
................
.......*..*.....
......*....*....
.....*..........
.....*..*.**....
.....*.*........
................

*** Life<ConwayCell> 16x8 ***

Generation = 0, Population = 18.
........
........
........
..****..
..****..
..****..
..****..
..**....
........
........
........
........
........
........
........
........

Generation = 1, Population = 11.
........
........
...**...
..*..*..
.*....*.
.*....*.
.*...*..
..*.....
........
........
........
........
........
........
........
........

Generation = 2, Population = 17.
........
........
...**...
..****..
.**..**.
***..**.
.**.....
........
........
........
........
........
........
........
........
........

Generation = 3, Population = 11.
........
........
..*..*..
.*....*.
*.......
*..*.**.
*.*.....
........
........
........
........
........
........
........
........
........

*** Life<ConwayCell> 10x20 ***

Generation = 0, Population = 20.
....................
....................
....................
....................
........****........
........****........
........****........
........****........
........****........
....................

Generation = 1, Population = 14.
....................
....................
....................
.........**.........
........*..*........
.......*....*.......
.......*....*.......
.......*....*.......
........*..*........
.........**.........

Generation = 2, Population = 26.
....................
....................
....................
.........**.........
........****........
.......**..**.......
......***..***......
.......**..**.......
........****........
.........**.........

Generation = 3, Population = 16.
....................
....................
....................
........*..*........
.......*....*.......
......*......*......
......*..**..*......
......*......*......
.......*....*.......
........*..*........

*** Life<ConwayCell> 20x10 ***

Generation = 0, Population = 20.
..........
..........
..........
..........
..........
..........
..........
..........
..****....
..****....
..****....
..****....
..****....
..........
..........
..........
..........
..........
..........
..........

Generation = 1, Population = 14.
..........
..........
..........
..........
..........
..........
..........
...**.....
..*..*....
.*....*...
.*....*...
.*....*...
..*..*....
...**.....
..........
..........
..........
..........
..........
..........

Generation = 2, Population = 26.
..........
..........
..........
..........
..........
..........
..........
...**.....
..****....
.**..**...
***..***..
.**..**...
..****....
...**.....
..........
..........
..........
..........
..........
..........

Generation = 3, Population = 16.
..........
..........
..........
..........
..........
..........
..........
..*..*....
.*....*...
*......*..
*..**..*..
*......*..
.*....*...
..*..*....
..........
..........
..........
..........
..........
..........

*** Life<ConwayCell> 7x14 ***

Generation = 0, Population = 15.
..............
..............
..............
......****....
......****....
......****....
......***.....

Generation = 1, Population = 9.
..............
..............
.......**.....
......*..*....
.....*....*...
.....*........
......*..*....

Generation = 2, Population = 10.
..............
..............
.......**.....
......****....
.....**.......
.....**.......
..............

Generation = 3, Population = 7.
..............
..............
......*..*....
.....*...*....
........*.....
.....**.......
..............

*** Life<ConwayCell> 14x7 ***

Generation = 0, Population = 15.
.......
.......
.......
.......
.......
.......
..***..
..***..
..***..
..***..
..***..
.......
.......
.......

Generation = 1, Population = 12.
.......
.......
.......
.......
.......
...*...
..*.*..
.*...*.
.*...*.
.*...*.
..*.*..
...*...
.......
.......

Generation = 2, Population = 22.
.......
.......
.......
.......
.......
...*...
..***..
.**.**.
***.***
.**.**.
..***..
...*...
.......
.......

Generation = 3, Population = 16.
.......
.......
.......
.......
.......
..***..
.*...*.
*.....*
*.....*
*.....*
.*...*.
..***..
.......
.......

*** Life<ConwayCell> 9x18 ***

Generation = 0, Population = 16.
..................
..................
..................
..................
........****......
........****......
........****......
........****......
..................

Generation = 1, Population = 12.
..................
..................
..................
.........**.......
........*..*......
.......*....*.....
.......*....*.....
........*..*......
.........**.......

Generation = 2, Population = 20.
..................
..................
..................
.........**.......
........****......
.......**..**.....
.......**..**.....
........****......
.........**.......

Generation = 3, Population = 8.
..................
..................
..................
........*..*......
.......*....*.....
..................
..................
.......*....*.....
........*..*......

*** Life<ConwayCell> 18x9 ***

Generation = 0, Population = 16.
.........
.........
.........
.........
.........
.........
.........
.........
...***...
...***...
...***...
...***...
...***...
...*.....
.........
.........
.........
.........

Generation = 1, Population = 12.
.........
.........
.........
.........
.........
.........
.........
....*....
...*.*...
..*...*..
..*...*..
..*...*..
..*..*...
...*.....
.........
.........
.........
.........

Generation = 2, Population = 21.
.........
.........
.........
.........
.........
.........
.........
....*....
...***...
..**.**..
.***.***.
.***.**..
..**.....
.........
.........
.........
.........
.........

Generation = 3, Population = 13.
.........
.........
.........
.........
.........
.........
.........
...***...
..*...*..
.*.....*.
.......*.
.....*.*.
.*.**....
.........
.........
.........
.........
.........

*** Life<ConwayCell> 11x22 ***

Generation = 0, Population = 14.
......................
......................
......................
......................
......................
..........***.........
..........***.........
..........***.........
..........***.........
..........**..........
......................

Generation = 1, Population = 10.
......................
......................
......................
......................
...........*..........
..........*.*.........
.........*...*........
.........*...*........
.........*............
..........*.*.........
......................

Generation = 2, Population = 13.
......................
......................
......................
......................
...........*..........
..........***.........
.........**.**........
........***...........
.........**...........
......................
......................

Generation = 3, Population = 11.
......................
......................
......................
......................
..........***.........
.........*...*........
........*...**........
........*.............
........*.*...........
......................
......................

*** Life<ConwayCell> 22x11 ***

Generation = 0, Population = 14.
...........
...........
...........
...........
...........
...........
...........
...........
...........
...........
.....***...
.....***...
.....***...
.....***...
.....**....
...........
...........
...........
...........
...........
...........
...........

Generation = 1, Population = 10.
...........
...........
...........
...........
...........
...........
...........
...........
...........
......*....
.....*.*...
....*...*..
....*...*..
....*......
.....*.*...
...........
...........
...........
...........
...........
...........
...........

Generation = 2, Population = 13.
...........
...........
...........
...........
...........
...........
...........
...........
...........
......*....
.....***...
....**.**..
...***.....
....**.....
...........
...........
...........
...........
...........
...........
...........
...........

Generation = 3, Population = 11.
...........
...........
...........
...........
...........
...........
...........
...........
...........
.....***...
....*...*..
...*...**..
...*.......
...*.*.....
...........
...........
...........
...........
...........
...........
...........
...........

*** Life<ConwayCell> 13x26 ***

Generation = 0, Population = 16.
..........................
..........................
..........................
..........................
..........................
..........................
............***...........
............***...........
............***...........
............***...........
............***...........
............*.............
..........................

Generation = 1, Population = 12.
..........................
..........................
..........................
..........................
..........................
.............*............
............*.*...........
...........*...*..........
...........*...*..........
...........*...*..........
...........*..*...........
............*.............
..........................

Generation = 2, Population = 21.
..........................
..........................
..........................
..........................
..........................
.............*............
............***...........
...........**.**..........
..........***.***.........
..........***.**..........
...........**.............
..........................
..........................

Generation = 3, Population = 13.
..........................
..........................
..........................
..........................
..........................
............***...........
...........*...*..........
..........*.....*.........
................*.........
..............*.*.........
..........*.**............
..........................
..........................

*** Life<ConwayCell> 26x13 ***

Generation = 0, Population = 16.
.............
.............
.............
.............
.............
.............
.............
.............
.............
.............
.............
.............
......***....
......***....
......***....
......***....
......***....
......*......
.............
.............
.............
.............
.............
.............
.............
.............

Generation = 1, Population = 12.
.............
.............
.............
.............
.............
.............
.............
.............
.............
.............
.............
.......*.....
......*.*....
.....*...*...
.....*...*...
.....*...*...
.....*..*....
......*......
.............
.............
.............
.............
.............
.............
.............
.............

Generation = 2, Population = 21.
.............
.............
.............
.............
.............
.............
.............
.............
.............
.............
.............
.......*.....
......***....
.....**.**...
....***.***..
....***.**...
.....**......
.............
.............
.............
.............
.............
.............
.............
.............
.............

Generation = 3, Population = 13.
.............
.............
.............
.............
.............
.............
.............
.............
.............
.............
.............
......***....
.....*...*...
....*.....*..
..........*..
........*.*..
....*.**.....
.............
.............
.............
.............
.............
.............
.............
.............
.............

*** Life<ConwayCell> 15x30 ***

Generation = 0, Population = 18.
..............................
..............................
..............................
..............................
..............................
..............................
..............................
..............***.............
..............***.............
..............***.............
..............***.............
..............***.............
..............***.............
..............................
..............................

Generation = 1, Population = 14.
..............................
..............................
..............................
..............................
..............................
..............................
...............*..............
..............*.*.............
.............*...*............
.............*...*............
.............*...*............
.............*...*............
..............*.*.............
...............*..............
..............................

Generation = 2, Population = 28.
..............................
..............................
..............................
..............................
..............................
..............................
...............*..............
..............***.............
.............**.**............
............***.***...........
............***.***...........
.............**.**............
..............***.............
...............*..............
..............................

Generation = 3, Population = 14.
..............................
..............................
..............................
..............................
..............................
..............................
..............***.............
.............*...*............
............*.....*...........
..............................
..............................
............*.....*...........
.............*...*............
..............***.............
..............................

*** Life<ConwayCell> 30x15 ***

Generation = 0, Population = 18.
...............
...............
...............
...............
...............
...............
...............
...............
...............
...............
...............
...............
...............
...............
.......***.....
.......***.....
.......***.....
.......***.....
.......***.....
.......***.....
...............
...............
...............
...............
...............
...............
...............
...............
...............
...............

Generation = 1, Population = 14.
...............
...............
...............
...............
...............
...............
...............
...............
...............
...............
...............
...............
...............
........*......
.......*.*.....
......*...*....
......*...*....
......*...*....
......*...*....
.......*.*.....
........*......
...............
...............
...............
...............
...............
...............
...............
...............
...............

Generation = 2, Population = 28.
...............
...............
...............
...............
...............
...............
...............
...............
...............
...............
...............
...............
...............
........*......
.......***.....
......**.**....
.....***.***...
.....***.***...
......**.**....
.......***.....
........*......
...............
...............
...............
...............
...............
...............
...............
...............
...............

Generation = 3, Population = 14.
...............
...............
...............
...............
...............
...............
...............
...............
...............
...............
...............
...............
...............
.......***.....
......*...*....
.....*.....*...
...............
...............
.....*.....*...
......*...*....
.......***.....
...............
...............
...............
...............
...............
...............
...............
...............
...............

*** Life<ConwayCell> 17x34 ***

Generation = 0, Population = 20.
..................................
..................................
..................................
..................................
..................................
..................................
..................................
..................................
................***...............
................***...............
................***...............
................***...............
................***...............
................***...............
................**................
..................................
..................................

Generation = 1, Population = 14.
..................................
..................................
..................................
..................................
..................................
..................................
..................................
.................*................
................*.*...............
...............*...*..............
...............*...*..............
...............*...*..............
...............*...*..............
...............*..................
................*.*...............
..................................
..................................

Generation = 2, Population = 25.
..................................
..................................
..................................
..................................
..................................
..................................
..................................
.................*................
................***...............
...............**.**..............
..............***.***.............
..............***.***.............
..............***.................
...............**.................
..................................
..................................
..................................

Generation = 3, Population = 13.
..................................
..................................
..................................
..................................
..................................
..................................
..................................
................***...............
...............*...*..............
..............*.....*.............
..................................
.............*....*.*.............
...................*..............
..............*.*.................
..................................
..................................
..................................

*** Life<ConwayCell> 34x17 ***

Generation = 0, Population = 20.
.................
.................
.................
.................
.................
.................
.................
.................
.................
.................
.................
.................
.................
.................
.................
.................
........***......
........***......
........***......
........***......
........***......
........***......
........**.......
.................
.................
.................
.................
.................
.................
.................
.................
.................
.................
.................

Generation = 1, Population = 14.
.................
.................
.................
.................
.................
.................
.................
.................
.................
.................
.................
.................
.................
.................
.................
.........*.......
........*.*......
.......*...*.....
.......*...*.....
.......*...*.....
.......*...*.....
.......*.........
........*.*......
.................
.................
.................
.................
.................
.................
.................
.................
.................
.................
.................

Generation = 2, Population = 25.
.................
.................
.................
.................
.................
.................
.................
.................
.................
.................
.................
.................
.................
.................
.................
.........*.......
........***......
.......**.**.....
......***.***....
......***.***....
......***........
.......**........
.................
.................
.................
.................
.................
.................
.................
.................
.................
.................
.................
.................

Generation = 3, Population = 13.
.................
.................
.................
.................
.................
.................
.................
.................
.................
.................
.................
.................
.................
.................
.................
........***......
.......*...*.....
......*.....*....
.................
.....*....*.*....
...........*.....
......*.*........
.................
.................
.................
.................
.................
.................
.................
.................
.................
.................
.................
.................

*** Life<ConwayCell> 19x38 ***

Generation = 0, Population = 15.
......................................
......................................
......................................
......................................
......................................
......................................
......................................
......................................
......................................
..................***.................
..................***.................
..................***.................
..................***.................
..................***.................
......................................
......................................
......................................
......................................
......................................

Generation = 1, Population = 12.
......................................
......................................
......................................
......................................
......................................
......................................
......................................
......................................
...................*..................
..................*.*.................
.................*...*................
.................*...*................
.................*...*................
..................*.*.................
...................*..................
......................................
......................................
......................................
......................................

Generation = 2, Population = 22.
......................................
......................................
......................................
......................................
......................................
......................................
......................................
......................................
...................*..................
..................***.................
.................**.**................
................***.***...............
.................**.**................
..................***.................
...................*..................
......................................
......................................
......................................
......................................

Generation = 3, Population = 16.
......................................
......................................
......................................
......................................
......................................
......................................
......................................
......................................
..................***.................
.................*...*................
................*.....*...............
................*.....*...............
................*.....*...............
.................*...*................
..................***.................
......................................
......................................
......................................
......................................

*** Life<ConwayCell> 38x19 ***

Generation = 0, Population = 15.
...................
...................
...................
...................
...................
...................
...................
...................
...................
...................
...................
...................
...................
...................
...................
...................
...................
...................
.........***.......
.........***.......
.........***.......
.........***.......
.........***.......
...................
...................
...................
...................
...................
...................
...................
...................
...................
...................
...................
...................
...................
...................
...................

Generation = 1, Population = 12.
...................
...................
...................
...................
...................
...................
...................
...................
...................
...................
...................
...................
...................
...................
...................
...................
...................
..........*........
.........*.*.......
........*...*......
........*...*......
........*...*......
.........*.*.......
..........*........
...................
...................
...................
...................
...................
...................
...................
...................
...................
...................
...................
...................
...................
...................

Generation = 2, Population = 22.
...................
...................
...................
...................
...................
...................
...................
...................
...................
...................
...................
...................
...................
...................
...................
...................
...................
..........*........
.........***.......
........**.**......
.......***.***.....
........**.**......
.........***.......
..........*........
...................
...................
...................
...................
...................
...................
...................
...................
...................
...................
...................
...................
...................
...................

Generation = 3, Population = 16.
...................
...................
...................
...................
...................
...................
...................
...................
...................
...................
...................
...................
...................
...................
...................
...................
...................
.........***.......
........*...*......
.......*.....*.....
.......*.....*.....
.......*.....*.....
........*...*......
.........***.......
...................
...................
...................
...................
...................
...................
...................
...................
...................
...................
...................
...................
...................
...................
