10

9 9
10
6 5
8 6
3 8
2 6
8 1
5 8
4 2
1 3
7 4
3 7
1 1

9 9
10
6 4
5 8
4 1
7 8
7 3
3 2
2 6
8 7
8 5
1 8
1 1

9 9
10
8 8
5 7
8 4
7 1
6 8
8 2
3 6
4 3
1 8
2 5
1 1

9 9
10
6 7
2 8
8 8
7 5
3 1
4 3
1 2
7 8
5 4
8 6
1 1

9 9
10
8 1
8 7
5 7
4 5
2 4
1 8
7 2
6 8
3 6
8 3
1 1

9 9
10
7 8
1 8
3 5
8 2
8 8
6 4
5 7
4 1
8 3
2 6
1 1

9 9
10
7 6
8 1
2 8
1 2
6 8
3 5
4 7
7 8
5 3
8 4
1 1

9 9
10
2 7
4 6
1 8
8 5
8 3
6 3
8 2
7 4
5 1
3 8
1 1

9 9
10
6 4
1 8
4 6
5 8
8 7
2 1
8 5
8 2
7 3
3 7
1 1

9 9
10
4 2
1 5
8 8
7 8
2 3
6 8
3 6
6 7
5 4
7 1
1 1
