*** Life<Cell> 6x12 ***

Generation = 0, Population = 9.
------------
-0--------0-
---------0--
-0-0--------
-0----0----0
------0-----

Generation = 6, Population = 33.
-1-000011---
-*-0-*0-----
-*00-----010
-*0--.*011--
0-*.10.--.-*
0-0-1-*1----

Generation = 12, Population = 38.
.*0--**1.11*
*.--*.*10*.1
.*1-*-*.--*.
0*.1*..1.1*0
.*.***....0*
.1.-.-**--*-

Generation = 18, Population = 24.
..--0***....
..--***.-*..
..*.*-..--..
1..-*......-
*....*.***..
.****..***..

*** Life<Cell> 35x6 ***

Generation = 0, Population = 70.
0----0
00--0-
--00--
------
---00-
-0----
-00-0-
-000--
-0--0-
-0-00-
-00---
------
0-0---
0--00-
----0-
-0---0
0-0-0-
-0----
----0-
-0---0
--0--0
-0-0-0
--0-00
-0----
---000
----00
-----0
----0-
--00--
0-----
0--0-0
0---00
0---00
-0----
0--00-

Generation = 2, Population = 91.
------
0--0--
-0-*--
0---1-
--1**1
-*0---
1*0-0-
1*---0
--01*-
-----1
-0*0--
11----
-0----
*-----
--0-*-
00-010
----0-
---0--
0-0-00
---0--
0-001-
-0---0
0----0
-0--0-
-1-**-
-0000*
--001-
0-1-00
-1-*00
--1--1
-1--1*
-1-0-*
*--10-
1--101
00-*--

Generation = 4, Population = 103.
-0-1--
-11-10
-01.0-
-011.-
-0-..*
0.-0-1
-.-000
1*----
-0*1*1
--01--
00.*-1
*.-1-0
-*--0-
.-1110
000-.-
-*-*--
1-0--0
1---1-
0-0-**
---*--
-1*-.0
-0-10*
-1-0-*
------
11-..0
-----*
10*-.-
-1*0-0
--1.**
-110-1
1*0-.*
0.0*0*
.0-.0-
1--.-*
0-0*11

Generation = 6, Population = 99.
-*1-01
1.--1*
1-..*0
--...1
-*-..*
-.-*11
-.--0-
**-100
--.**.
1--*--
0*..0*
*.1.1*
1.0--1
.111.*
*--1.-
-.0*--
*-0---
11--.-
*0-1.*
1--.--
--.*.*
-0-1-*
1.0--*
-1-1--
*.-.*-
-0*-1*
.**-.-
0-***-
0-1..*
-1--11
1.*-.*
**0.-.
*00.*1
*-1.-*
*--*-1

Generation = 8, Population = 89.
-**-0-
*.--*.
.-.**-
1-*..-
1.*.*.
-.-..1
-.-101
..-10-
--**.*
*0-*-*
-.*.-*
*...-.
*.----
*.*1..
.-1-*-
1.0**-
*-*010
*---.-
.--1..
*-0.--
--**..
0--.0.
1*0-**
1-1-1-
..-.*1
-0.0-*
*..-**
*-*.*1
**...*
-1**..
...1..
..-.*.
*-*.*1
*-.*-*
**-.1.

Generation = 10, Population = 93.
1**1--
.**1..
.1...-
.-*..-
*.***.
1.*.*.
1*11-1
..-*0*
--*..*
.-0*0*
-***-.
.*..1.
..--1-
......
.-1-*1
*.*..-
*0.-*-
.*--.1
.0--..
.-**--
-****.
*-0.-*
*.01..
***1-1
*.-..1
00*--.
*.*-..
***.*.
****.*
1-.*.*
..*...
..-.**
.-*..-
*0**-.
*.-*-.

Generation = 12, Population = 81.
...1-1
...1..
..*..-
.-*..-
...*..
-..***
-..11*
..-*0.
01**..
*1**-*
****-*
***...
..0-.-
......
.**-..
*...*-
*0.**1
*.-0.-
*-0-..
.1*.0-
0*....
*1-.1.
*.-1..
.*.1-*
.*-*.*
--*1-.
..***.
....*.
....*.
.1....
..**..
..-*.*
.1*..*
.0*.*.
..1*-.

Generation = 14, Population = 62.
..**--
....*.
.....-
.*..*-
....*.
-*..*.
-***1.
.*-.0.
0.....
.1..-.
....-.
......
..-1.-
.*....
**.-..
*...*-
*-**.*
..0*.*
*--1..
.-.*--
-..**.
.11.-.
*.-*..
*..--.
**-*..
-0..-.
....**
...***
...**.
.1*.*.
....*.
.**...
.1***.
.0..*.
..-.-.

Generation = 16, Population = 66.
....1-
......
.....1
.....*
...*..
-**...
*.**..
..1.**
-*....
.1..-.
....-.
......
..*1.-
*.*...
...1..
*.***-
.1*.*.
..0...
.--1..
.-**--
-*..*.
.**.*.
*.-*..
*..1-.
*.0*..
--**-.
..***.
......
......
......
.*****
**....
******
**.***
..-.*.

Generation = 18, Population = 56.
....1-
......
......
......
......
1.....
...*..
..*...
1.**..
***.-.
....-.
..*...
.*.*.-
.*..*.
..****
.....*
.*****
.*-...
.-*...
.-..--
-...*.
..*.**
*.-.**
...--*
**-...
**.*-.
.***..
...*..
..*.*.
....*.
.*..*.
.****.
......
.....*
..1.*.

Generation = 20, Population = 60.
....1-
......
......
......
......
-.....
......
.**...
*..*..
..**0.
..*.-.
.***..
.*...1
.*.*..
.**.*.
.*...*
*...**
.*-.**
.1.*..
.-.*1-
-..***
..*...
.**...
*..11.
*.1**.
....-.
**...*
***.**
...**.
...*..
.*....
.*....
.*..*.
...*..
..-...

Generation = 22, Population = 42.
....1-
......
......
......
......
-.....
......
......
......
....-*
.*..1.
**.*..
.....1
.....*
.....*
...*..
......
..-*..
...*..
.*..--
-.**..
......
*.**..
*..-1.
*.*.*.
*...*.
*.*..*
*.**.*
.*...*
.****.
......
..**..
..*...
......
..-...

Generation = 24, Population = 54.
....1-
......
......
......
......
-.....
......
......
......
.*..-.
*.**1.
*.*.**
.*....
...*..
....**
......
......
..*...
..**..
..**1-
-.*...
.*....
**.*..
*.*1**
*.....
*..*..
*.*..*
*.**.*
*....*
******
.*..*.
.*..*.
..**..
......
..-...

Generation = 26, Population = 57.
....1-
......
......
......
......
-.....
......
......
..**..
.****.
*...1*
*....*
.**...
..*.**
......
......
......
..**..
.*..**
**.***
-.*...
*.....
*..**.
*.*.*.
*.*...
*.....
*.**..
*.***.
*....*
.*..*.
.****.
..**..
..**..
......
..-...

Generation = 28, Population = 56.
....1-
......
......
......
......
-.....
......
......
......
***.**
*...-*
*.....
*....*
.*....
..*...
......
...*..
.****.
*....*
*..*.*
0.....
.*....
*...*.
*.*.*.
*...*.
*.*.*.
*.*.*.
*.*.**
*.*..*
*.****
**..**
..**..
......
......
..-...

Generation = 30, Population = 46.
....1-
......
......
......
......
-.....
......
......
**....
**..**
....-*
......
..*...
**....
......
......
....*.
.**..*
*....*
......
*.*...
..*...
*...*.
**.*.*
**.*..
*.....
*.....
*.*.**
*.*...
*.....
*...*.
.****.
..**..
......
..-...

Generation = 32, Population = 36.
....1-
......
......
......
......
-.....
......
......
**....
**..**
....-*
......
......
......
......
......
......
......
***...
***...
..*...
.*.**.
..*.*.
..*...
......
......
**....
**....
**....
*..*..
*..*..
***.**
......
......
..-...

Generation = 34, Population = 37.
....1-
......
......
......
......
-.....
......
......
**....
**..**
....-*
......
......
......
......
......
......
.*....
*.*...
*.....
**....
****..
.**.*.
..**..
......
......
.*....
..*...
..**..
..**..
*...*.
*..**.
**.*..
......
..-...

Generation = 36, Population = 31.
....1-
......
......
......
......
-.....
......
......
**....
**..**
....-*
......
......
......
......
......
......
......
**....
......
......
......
.*..*.
.***..
..*...
......
..*...
.**...
*.....
*.....
*...**
*....*
*...*.
.***..
..-...

Generation = 38, Population = 31.
....1-
......
......
......
......
-.....
......
......
**....
**..**
....-*
......
......
......
......
......
......
......
......
......
......
......
......
**.**.
.*.*..
...*..
.**...
*.*...
*.*...
......
..*.**
.....*
*...*.
....*.
.***..

Generation = 40, Population = 34.
....1-
......
......
......
......
-.....
......
......
**....
**..**
....-*
......
......
......
......
......
......
......
......
......
......
......
......
**.**.
...*..
...**.
*...*.
...*..
.*.*..
....*.
..**.*
...*..
..*..*
.**.**
.***..

*** Life<Cell> 38x16 ***

Generation = 0, Population = 41.
----------------
--0----------0--
------0----0----
----0--------0--
---------0------
----------------
------------0---
----------0-----
----0-----------
-------------0--
----0-----------
----------0-----
-----0-0--------
---------0-0----
----------------
----------------
-----------0----
--------0-----0-
--------0-------
-----0----------
---------00---0-
----------------
---------------0
----------------
-0--------------
----------------
-0--------------
-0--------------
----------------
0-------------0-
----0-----------
--------------0-
----------------
0---------------
0-------0-------
0-0-------------
-0--------0-----
-----0----------

Generation = 6, Population = 225.
--1-0-*-1-0.11-1
0-*---.0-*0*-*-*
0-----0-0-*01-10
--1---*0*01*1---
---1..--1-1-1---
----1-1-10---100
0-11.0-0--1--1--
------.-----*.*-
--0000-*-*0-11--
----0----1-0-0-0
-100111*0-----1-
---111-1*1-.-*1-
10-..11*---10---
-------*-00-01.*
-00111--------11
---00.----0.-0-1
---0-.-----111--
-00-.100*----0.-
-10-----1110--.-
---01---.-0-1-*-
-*---..*-1..----
-----11--11-0---
---0----.-*--*11
1------01-------
-*--1*-------1.1
100---------0-*-
1*-**010-00--010
-.1-0--0--0-0---
-.--11---------0
..0-110-0-0-----
-*-0------0-----
.-.100--0-*-----
*.101---0-------
.-.0-*-0--1-1---
0*1-------0-----
*-*-.*-100--1-*-
---100-1----0---
-**--110-0-0--1-

Generation = 12, Population = 263.
--.-***11....-0.
-0.-*-.-*.1.1*0.
*-.0.*.-.-.*-1*-
.0--.-.-.0....-*
1*-..*1..0.0..0-
-1*0.-.**..----*
11.**---.1-.-..1
------.-1-.-...*
--*--*...*.-..*-
0--1**-*1*11**01
*.-.*...--.**-**
-111*.....**-.**
*-0****.0*0.-*-.
0--*-11***1-....
0.0...11-111.0..
*1*1-.--1.*.***.
0*-.-.-*--1.-.-1
*--*.*.-.-.*.-*-
*.-1--.-*-.**..*
--1..--1.1*0.0*-
1...1*..-...-0*.
-----**1.111--*0
-1-.-0**...*-*1.
111-**-..0-10-.-
-*0-..*-1..---.*
--**10.--1*-01.*
.*0..-1.-*001*.-
***.--0*-0*0--0*
1*1-.-10-*-*---*
*.-1-..0-1.1-000
-..1-0-1.-.--10-
*0**.*.0.0.-0*10
..*--**--1----0-
..*...1-1-*-1--0
-.**.---01110-11
..*1.*1-0-01.0.-
.-0*0*1.0*-0.-.1
.*.-..--0----..-

Generation = 18, Population = 224.
...-...-****....
10.-.-**.....*-*
**.-.**.**..*-*-
*-.0*-..**..*.*.
..1.**....*-**0-
1.***1..*..-11-.
*-..*..1....-...
*.-**1.111.-....
**.-1....**-....
.-*.**1.*..*..0.
..*...*.1*.*.*..
..********.**...
*.-*..*.-.*.1.0.
-.*..--***.-....
1.*.*...1*1..*..
.*..-.1-....*..*
..1.-.*.....*...
.-...*.1.-..**..
....--.1.1..****
*.*****....*.-..
**......-...10..
1--0*..-...1***.
0.1..-...*.....*
**--..-..-*****-
-*1-..*-**..1...
1*.**..-0-.*-...
**...-**..-.....
**..---.-**..-*.
...1..1*0..*.0..
..0*.**-..**-**-
0..*-**...**1*.-
.-.....-**.*...-
...1...*.*1*0--1
..**...-.*.*..1.
..*..-1*1**..-..
...*....010*.-.*
.*-..*..*.**.**-
.**1...-*-*--*.-

Generation = 24, Population = 199.
..*1.*****.***..
-1**.-..*....*..
*.......*.*....1
**...1......*...
.**..*..*.****1.
......*....--*..
.**.............
*.....**1-*1....
...-.**....-....
*-..**-.......0.
.***............
................
........-.***...
-....-1...*-..**
-.***...1..**.**
.*..-..**.**.**.
....*..*.*...**.
.-*......*..**..
....-1..*...*...
.....*...*.*....
....***.-....-..
..-..**-.******.
**-..-***...**..
**.**.**.......-
**.*..*-...*....
..*.....1..*-...
***.*...*.**....
......-.*....1**
***..*****.*.1**
..-**..*...**..*
-.*.-*..**..1.**
.-....*.**.*..*.
.........*-***..
.....**-..***.-.
.....****.......
**...*.****...*.
*.1***.*****..*.
*****......1-..-

Generation = 30, Population = 143.
...1***.........
....*-..........
.....****.....**
......*.**.*....
.......**.*.*.**
........*...**..
........**.*....
..***....**.....
...*....**......
....**...*....-.
**...*..........
..*..*...***....
**......0*..*...
-*...--.*....*..
.**.....**......
.**.-..*...*..*.
.......*.*.*.**.
.-...***...**...
....***....**...
..**....*..**...
.....**.-*.**-**
..*...*....*..*.
.....1...***....
*...**....*....-
....*..-*..***..
.**.........-...
...*.*.*........
....*.-...*..-..
....*........**.
....*.........*.
-.*..**.....**..
.-.**..*...*....
....********....
.......-*.....-.
.......*...*....
.......*...*....
.......*.*......
...............-

Generation = 36, Population = 133.
................
.....-.....***..
....***....***..
....***.....*...
...**...........
..****...**.**..
..*.***.***.**..
.**..***...*....
........*.*.....
.......*****..-.
.......*..**....
..........***...
*.**.*.*-..*..*.
*..**..**...***.
**........**...*
....-...**.**.**
........*.......
.1**.......*....
..**........*...
..*.............
.....*..0....*..
.....**..**....*
......*.*....*..
...............-
.......-........
................
................
......-.......**
..***......*...*
.****.....**..**
1*......*...*...
.0*.*..*...*....
...**...*****...
....*....****.-.
................
................
................
...............-

Generation = 42, Population = 124.
................
.....-......**..
......**...**...
....**.**.*.....
....*..*.*......
....*.....*..**.
..*..**..*...**.
.*.*...**.......
..**............
..............-.
......**.*......
.*..**.*.***.**.
*...***.0......*
*........*...*..
.*....*.*.**....
....-..*......*.
.*..*.***...*.*.
.*......*.......
..*...*.**......
........*.**....
...*...*0.***...
.......***.*....
....*.**..*.....
.....*....*....-
......*-........
................
................
......-....***..
..***......**.*.
.*..*....**...*.
**.......**.*.*.
.1.*.**.....**..
****.**.........
......*.......-.
................
................
................
...............-

*** Life<Cell> 36x4 ***

Generation = 0, Population = 39.
---0
-0--
0-0-
0-00
---0
----
----
----
----
----
0---
----
---0
-00-
-0--
--0-
----
-000
00--
-0-0
0---
-0--
-00-
0-0-
----
--00
----
0---
----
--0-
000-
0---
----
--00
--0-
---0

Generation = 8, Population = 58.
--.-
-0-1
.-.-
*-..
-.-*
-.-*
**.*
-01.
-.1-
1--1
1-1*
0.-1
*-11
*0.-
0*-*
.*.-
--*-
.-.*
.-.-
-.*0
-.--
*..*
-*-*
-.-*
.*-0
*..*
-*1-
1*--
*-.-
**.-
-.01
.*-1
---*
-.01
.*.1
*.*.

Generation = 16, Population = 53.
*.**
*.-*
.**1
.-..
.**.
-*0.
*.*.
.*..
...*
*.**
**..
*.*-
.**.
.*.0
-.1.
...1
0-.-
*-*.
**.-
..*-
**.-
....
....
....
...-
.***
..*0
....
.-..
....
....
**.-
**1.
1*..
*..*
.**.

Generation = 24, Population = 35.
.**.
*...
.*.-
.-*.
..**
1***
..**
*.**
*.*.
.*..
....
....
....
...-
1**.
**..
...*
*-*.
...1
.*.*
.*.-
....
....
....
..*-
.*.*
..*-
....
.-..
....
....
...-
....
....
....
....

Generation = 32, Population = 13.
.*..
*.*.
*.*.
.*..
....
....
....
....
....
....
....
....
....
.*.-
.*..
....
....
.1..
....
....
....
....
....
....
..*-
.*.*
..*-
....
.-..
....
....
...-
....
....
....
....

Generation = 40, Population = 10.
.*..
*.*.
*.*.
.*..
....
....
....
....
....
....
....
....
....
...-
....
....
....
.-..
....
....
....
....
....
....
..*-
.*.*
..*-
....
.-..
....
....
...-
....
....
....
....

*** Life<Cell> 38x1 ***

Generation = 0, Population = 9.
-
-
-
0
-
-
0
-
-
-
-
-
-
-
-
-
-
-
-
-
-
0
-
-
-
0
0
0
-
-
-
-
0
-
-
0
0
-

Generation = 3, Population = 17.
0
-
0
0
*
*
0
0
-
0
-
-
-
-
-
-
-
-
0
-
0
-
-
0
*
.
-
.
-
-
1
0
0
-
0
-
1
-

Generation = 6, Population = 15.
0
-
1
-
.
.
-
1
1
1
-
-
0
-
-
0
-
-
-
-
1
*
-
.
.
.
-
.
*
*
.
-
1
-
0
1
-
1

Generation = 9, Population = 12.
-
0
-
0
.
.
-
.
-
.
0
-
-
*
*
0
0
1
-
*
.
.
-
.
.
.
-
.
.
.
.
0
*
-
.
.
-
1

Generation = 12, Population = 8.
0
-
1
-
.
.
-
.
-
.
1
*
*
.
.
1
1
.
-
.
.
.
-
.
.
.
-
.
.
.
.
-
.
-
.
.
1
-

Generation = 15, Population = 3.
-
0
-
0
.
.
-
.
-
.
.
.
.
.
.
.
.
.
-
.
.
.
-
.
.
.
-
.
.
.
.
-
.
-
.
.
-
1

Generation = 18, Population = 3.
0
-
1
-
.
.
-
.
-
.
.
.
.
.
.
.
.
.
-
.
.
.
-
.
.
.
-
.
.
.
.
-
.
-
.
.
1
-

Generation = 21, Population = 3.
-
0
-
0
.
.
-
.
-
.
.
.
.
.
.
.
.
.
-
.
.
.
-
.
.
.
-
.
.
.
.
-
.
-
.
.
-
1

Generation = 24, Population = 3.
0
-
1
-
.
.
-
.
-
.
.
.
.
.
.
.
.
.
-
.
.
.
-
.
.
.
-
.
.
.
.
-
.
-
.
.
1
-

Generation = 27, Population = 3.
-
0
-
0
.
.
-
.
-
.
.
.
.
.
.
.
.
.
-
.
.
.
-
.
.
.
-
.
.
.
.
-
.
-
.
.
-
1

Generation = 30, Population = 3.
0
-
1
-
.
.
-
.
-
.
.
.
.
.
.
.
.
.
-
.
.
.
-
.
.
.
-
.
.
.
.
-
.
-
.
.
1
-

Generation = 33, Population = 3.
-
0
-
0
.
.
-
.
-
.
.
.
.
.
.
.
.
.
-
.
.
.
-
.
.
.
-
.
.
.
.
-
.
-
.
.
-
1

*** Life<Cell> 26x6 ***

Generation = 0, Population = 8.
------
------
------
------
------
0-----
------
----0-
------
0-----
------
---0--
------
------
0-----
------
------
------
------
------
------
------
---0--
------
-0----
---0--

Generation = 9, Population = 60.
------
------
---0--
--0-0-
---00-
0--1.0
1-0-0-
1.*.1-
100---
****.*
*--0--
0*-**.
.1--*0
-0.--1
--1**0
-1--*0
--1.1-
---.--
0-----
-0----
1-00--
0*0.0.
*100--
01----
-0-.-.
0---0-

Generation = 18, Population = 63.
*----0
**-.-1
*0..*-
--***.
.-.-*1
*.-**0
*..*1-
*.*.*-
*..1*-
.*...*
..*0.*
1.-...
...-..
.*.-*-
.0*.**
...1**
..**..
0.*.**
-*-.*-
....-0
.--.1.
.*.***
.-.---
*.1*--
*...**
-*..1.

Generation = 27, Population = 64.
.-1.**
..-.*.
**....
**.**.
*....-
.*-.*-
.****-
**...*
*.****
*.****
.***..
......
.*.*.*
*....*
*.....
.....*
*.....
-....*
1**...
.*...*
.-1...
.***..
*..1-.
*..*1-
**..*.
1****.

Generation = 36, Population = 25.
.**...
*..*..
*.*...
**....
......
..-...
...*..
.*..*.
*...*.
*...*.
.*.**.
..**..
....*.
......
......
......
......
-*....
*.....
......
......
......
...*-.
....*.
......
-.....

*** Life<Cell> 16x42 ***

Generation = 0, Population = 16.
0-------------------------------0---------
----------0-------------------------------
------------------------------------------
------------------------------------------
------------------------------------------
------------------------------------------
-0------------------------0---------------
------0----------------------0------------
-------0-0--------------------------------
------------------------------------------
---------------------------0------------0-
------------------------------------------
------0---------------------------------0-
-----------0---------------------------0--
------------------------------------------
---------------------------0--------------

Generation = 8, Population = 85.
-1----*100--------------0-0-------------0-
--0-.-------------0-----------------------
-*-------------------------1------------0-
------------------------------------------
------1---------------------------------0-
----------00---------------------------0--
.----*---0--------0---------.---0-0-------
*----------0--0------0-----.---------0----
00----..--0.1--0-0--------.-----1---------
-----0.1---*1--------------*-.------------
--.---.----1-------0----..-0-.--1--10-----
---------1-0--------------010.-.-------0--
*.----1.**1.--0----------1---1--1---0---0-
---0--.--1---------0----00-.-01*-----0----
-1-----.-----------------01*-*----------0-
------1------------0------0*0*-----0------

Generation = 16, Population = 230.
-**.**.*1...1-0--------1-00..--1----0-----
*--*.-...1**-0----1--..--0-0-1---------0--
-**-100-*-1------..1-.-..0*-*-1---------0-
*-1**-.0-..**-0*--1---..-1-*0----------0--
-*.0**..--0-111.1.-----.--.*-1------------
0--..*.----..0.--0.----10-10--11---*------
.-11*.*0*.****-*-.1-.--1*.11.1-1*-..1.--0-
.*11..-0*1.-1..*-..1-00.100.-10.-1-.-1-1--
.*......*.*...0*.*.10-..1-*----..1---1----
.0---...0.....*.-----.**-11.***---0--.-*--
0.*--..11*.--1..-.0-----..---..*---.**-.-.
*.*.*-**-***-0-.-10*0-0*0.....0*0*0*-1-.--
..-.-.-...**.-..-.*1--1.*..*0.*--0-..-1---
1*-*--*.-.-..--.--0*0*-.**...1**..*-001---
-.1.--.*0*.--0----1*---*1..*.*-.***0-.----
1-.1*1**-*.--------111.-*-*.-.**-**------0

Generation = 24, Population = 260.
-...........1.0-1000-1*-.*...*-**1--1--0--
..***1......--1---*-1.*-0--.0.----10-1-0--
....1-***-.*1*--...10*0....1.-.*.*11-0-1--
.-*..*.11...***...****......-10..1-11*0---
*..1..**-.1.*.....*.-.*.01...*...--.11--*0
*--..**1*...*****-*1.-1--*1.**..-.-*1*.*00
*.....*-****.**.**...*0**...*.1-.-..1....-
...-**.***.-.....**.....**.*.**.**1.-.*1-1
**.*...*........***.1...*-..***.*.*1..-**1
*..**..........***--.****.*.....*.**1.1*0-
*....*.....-*..*-*1-.--**....****.*...-.-.
....**..-..***1*.*-*.*-*......-**.0*....0*
..-...1.**..**.*........*...-..*.***....*-
.*.*....-*.*..-.1...-...*.*.....*..*.1...*
-***....1*.***.*.....-***..*..-.**...*..-*
.-.....*-..0011*-.*-*.*-*..*....1*.-0*1.--

Generation = 32, Population = 163.
-.******........**.-......*.******.*1*.*-*
..*.*...*...-..*.1..*..1--0...*-**.0-.**.*
.........-***.1....**.*...**.*.......-.*-1
.......*1..*...*...*...*.**.*1....1*...**.
.**1........*...***.-..**1*.......***..*.-
.**....*...*.....-....*1..*.......0*-***..
.***...**.............***........-.**..*.-
...-.......-.......................*-..1.*
....................-.............**.....*
.....*.............-........**....*......*
....*..*...-..*.-..-.-0.....**...**..*...*
.*....**.....***..-...*.....*.-..**.....-*
............*..**...........-*...*.***.***
*.....*.-....*-*....-.......*.*.......*...
*******..............-......**.....*.*....
........-..-....-..-...-...........*.*..-1

*** Life<Cell> 29x6 ***

Generation = 0, Population = 65.
00---0
-000--
----00
-0----
0--0-0
-0--00
0-----
00----
-0-000
---0-0
00000-
----0-
----0-
---0--
-000--
0-0-0-
-----0
--00--
--0---
000---
00-0--
-0---0
---00-
0--0-0
0---00
-0--0-
---000
---0--
---0--

Generation = 3, Population = 85.
-110--
-00.11
-1--1.
-0-0-1
-*--*.
----11
1-1-*-
11-0-0
-1--10
-00-11
1-0-1-
00*00-
10--*0
1*----
-.---0
00*0--
-----1
-0-1--
-1-111
-*0-11
1.----
-.*-00
00*-.-
*-*.1*
*-0---
-0--0*
---0..
0-001-
0-01*-

Generation = 6, Population = 87.
**.*-*
-.0*-.
0--1..
01-0*1
0..0**
*-.-..
*--*.0
*11---
-1-01*
*0-0*-
*-1--0
*1*0.-
.*0-.*
1*--0-
1**-*-
*-..-1
0-*0*-
-.0.-1
*-*1**
-..-1-
1*-1*-
0*.-..
1-.*.1
.....*
**.*-0
00---.
0.-1..
1-0-11
.-1..0

Generation = 9, Population = 75.
.*.*-.
-...*.
*--1**
-.*1*-
0.*-..
*..1.*
.-***1
*..01-
--0-*.
.0-0.*
.-.---
**.-.*
..-1..
*.01.1
..*-.-
*1**11
.0.-.-
-*0.-.
***1..
-.**--
1.0*..
***1..
*-...*
..*...
....1*
.-*1*.
0.11*.
.1--*1
.**...

Generation = 12, Population = 63.
....-.
1.**..
.-**.*
-*...*
-..-.*
.....*
.-...*
...-.-
01--.*
.1--**
.0.---
.*.-*.
*.-...
*.1-.-
.....-
**.*-*
.1.-.1
-*1*0.
.*.-..
0..*.-
**1...
***-..
.-**.*
.*.*.*
.*..1*
**.**.
1.-...
*.1-*.
.****.

Generation = 15, Population = 62.
.**.-.
-...*.
.-....
1.*.*.
-..*.*
....*.
.-..**
...0**
---1*.
*-.0..
*-.---
*.*-*.
**0...
**--*-
*....0
.**.1.
.1.-*.
1.1.-*
*.*1*.
.***.-
..*...
*.*1..
*0*...
......
....1.
......
1.-.**
...1**
...***

Generation = 18, Population = 43.
....-.
-.....
.-***.
-*....
1**.*.
...*..
.-....
...1..
1-.*..
**.*..
*-*11*
...1..
.*1...
..-*.1
.....-
......
...-..
.*....
.**..*
....**
......
*..*..
*-....
*.....
...***
...***
-.-.**
...-..
......

Generation = 21, Population = 41.
....-.
-*..*.
.*..*.
*.*.**
**.**.
*****.
.-.*..
......
.-***.
*..**.
*-.*-.
**....
.*....
..-..*
...**0
......
..*1..
.*.**.
.*..*.
...*..
......
......
.-....
......
......
......
-.-...
...-..
......

Generation = 24, Population = 30.
....-.
.***..
*...*.
*..*..
.**...
..**..
.1.***
..*.**
.1....
.*.*..
.1.**.
.****.
......
..1...
.....-
......
...1..
......
......
......
......
......
.-....
......
......
......
-.-...
...-..
......

Generation = 27, Population = 26.
.*.*1.
*...*.
*...*.
*.**..
.***..
.**...
.*....
.**.*.
*....*
*....*
.-..*.
*..*..
......
..-...
.....-
......
...-..
......
......
......
......
......
.-....
......
......
......
-.-...
...-..
......

*** Life<Cell> 33x18 ***

Generation = 0, Population = 50.
-0----------------
--0-------0--0----
0-----0-----------
-----0------------
------------------
------0---0-------
-----0-------0----
--------0-0-------
-----------0------
----0-0--0--------
-----0-----00-----
------------------
-------0--0-------
-------0----------
--0---0-----0-----
---0--------------
-----0-----0------
---0--------------
-0----------------
-----------0------
------------------
---0--------0-----
-----------00-----
----0-------------
0--------------0--
-----0---0-----0--
------------------
------------------
---0--------------
------------------
---------0--------
--0---0---0-0---0-
----0-------------

*** Life<Cell> 41x44 ***

Generation = 0, Population = 80.
-----0--------------0-----------------0-----
---------------------------------0----0-----
---0------0-------------------------0------0
--------0---------------------------0-------
--------------------------------------------
-----------------0--------------------------
-0-------------------------0-------0--------
---------------------------0-----0----------
---------0----------------------0-----0--0--
-0------------------------------------------
-0------------------------------------------
---0-----------------0-------------0--------
-----------0-0-----------------0------------
------------------------0-----0------0------
--------------------------------------0----0
-------------0---------0--------------------
-----------------------------------------0--
0----0---0----------------------------------
-----------------------0---------------0----
--0--------0-----------------0---0----0-----
--------------------0-----------------------
----0--------0------------------------------
--------------------------------------------
-------------------------------------0------
-----0-----0--------------------------------
---0----0-------------------------0---------
--------------------0--------------------0--
--------------------------------------------
--------------------------------------------
--0----------------------------------------0
----------0---------0-0-0-------000---0-----
-----------0--------------------------------
--------------------------------------0--0--
---------------------------------------0----
------------------0-------------------------
----0-------------------------0-------------
--------------------------------------------
-------0------------------------------------
----------------------------------0---------
---0---------------0-----------------------0
--------------------------------------------

Generation = 1, Population = 278.
----0-0------------0-0-----------0---010----
---0-0----0---------0-----------0-0-0010---0
--0-0---00-0---------------------0-0100---0-
---0---0-00------------------------010-----0
--------0--------0------------------0-------
-0--------------0-0--------0-------0--------
0-0--------------0--------010----00-0-------
-0-------0----------------010-----00--0--0--
-0------0-0----------------0---0-----0-00-0-
010------0----------------------0-----0--0--
0100-----------------0-------------0--------
-00-0------0-0------0-0--------0--0-0-------
---0------0---0------0--0-------0--0-0------
-----------0-0---------0-0---0------0------0
-------------0---------00-----0--------0--0-
------------0-0-------0-0-------------0--0-0
0----0---0---0---------0----------------0-0-
-0--0-0-0-0------------0---------------0-0--
0-0--0---0-0----------0-0----0---0------0---
-0-0------0-0-------0--0----0-0-0-0--0------
--0-0------0-0-----0-0-------0---0----0-----
---0-0------0-0-----0-----------------------
----0--------0-----------------------0------
-----0-----0------------------------0-0-----
---00-0-0-0-0---------------------0--0------
--0-00-0-0-0--------0------------0-0-----0--
---0----0----------0-0------------0-----0-0-
--------------------0--------------------0--
--0----------------------------------------0
-0-0------0---------0-0-0-------000---0---0-
--0------0---------0-----0-----01-10-0-0---0
------------0-------0-0-0-------000------0--
-----------0-------------------------0--0-0-
------------------0---------------------00--
----0------------0-0----------0--------0----
---0-0------------0----------0-0------------
----0--0----------------------0-------------
------0-0-------------------------0---------
---0---0-----------0-------------0-0-------0
--0-0-------------0-0-------------0-------0-
---0---------------0-----------------------0

Generation = 2, Population = 256.
-----0-0--0-------0-0-0---------------*-0--0
--------0----------------------0---0----0---
-0------1---0-------0-------------0------0-0
------0---1------0---------------00---------
-0-0------0----------------0-------01------0
--------0------0---0-------1-----0--0-------
---0-----0---------------0---0--01---00--0--
-1---------------0-------0---0-0---1--------
-------0---0---------------1--0---000--11--0
---------------------0-----0-----0-0--------
---1-----0-0-0-----------------00-----0--0--
-----0-------------0---00-----0--0----------
-0-------0-0-0-0-------------0---0----0----0
---0---------1-------001--0-0---0------0----
-----------0-1-----------------0----0---0--0
0----0---0-0---0-----0--10----0------0------
-----------------------1--------------0-----
0--0---------0---------1-----0---0----0-----
--------------------00---0-----------0------
-----0---------------------0-------00---0---
------------------0---00---------------0----
------0--------0-------------0---0---00-----
-----0-----0--------0-----------------------
---00---0----0--------------------00---0----
---1---0-0---0------0--------------------0--
-0---10---0---------------------0---00------
-----0-----0------0---0----------------0---0
--00----0-------------------------0--------0
----------0-----------0-0-------000---0--0--
0---0------0-----------------------------0-0
--------0---0-----0-0---0-0---01*-*1--0-00--
--0------0---0-------------------------0---0
----------0-------0-0-0-0-------000-0-001--0
----0------0------------------0------0---1--
----------------0---0-----------------0--0--
--0---00--------------------0---0------0----
------------------0---------------0---------
---000---0---------0----------0------------0
--------------------------------0---0-------
-0---0-0---------0---0-------------------0-0
----------------------------------0---------

Generation = 3, Population = 648.
----0----0-0-----0-----0-------0---0-0.-100-
-0---0--100-0-----0---0-------0-0---0-101---
0-0---00*000-0---0-0-0---------0--1---------
---0-0-000*00---0-0-0------0----01--1----0--
0---0-0-0010---0-0-0------010------1-0----0-
-0-----0--0---0-0-0-0----00*00---10-1-0--0-0
-00-0-----0----0-0-0----0101010-1-00-1100-0-
0-00---0-0-0----0-0-----0101010--0-*-00000-0
-0----0-0-0-0----0---0---00*0-----1-100**00-
---0---0-0---0------0-0---010-00--01--0000-0
--0-00--0-----0----0-0-00--0---110-0-0-00-0-
-0-00-0--------0--0-0-0110-------10------0-0
0-00-0--0----1--0--0-00-0-0------10--0----0-
-00-0----0--0-00----01-*00----------0-------
0--0-0---001-*00------00000-0------0-----00-
-0--0-0-0--1000-0---0-0-*10--0----------0--0
---0-0---0-0-0-0-----00*-0---00--0----10----
-00-0-------0-0-----000*00--0-0-0-0---10----
0--0-0-------0-----011000-00-0---0-0----0---
----0-0-----------0-0000-00-0-----011----0--
-----00--------0-0-0-0110--0-0---0-000------
-------0---0--0-0-0-0-00----0-0-0-0-011-----
---0----0-0-00-0---0-0-------0---000-000----
--0-1------0010------------------0110-0-00--
-00*-0--0---010----0-0----------0-0000-00-0-
0-000-1------0----0-0-0--------0-0-01100-0-0
-00001--0---0----0-0-0-0--------0-0-000-0-01
-01100-0-000------0-----0-------0-10--00-001
0-000---00-----------0---0-----01--0-0-0010-
-0-0-0--0---------0-0-0---0---00-0-0--------
0-0-0--0---------0---0-0---0-01-.-.*00-01-0-
-0-0----------0-------0---0---00-0-00-010001
--0-0--------0---0-------0----001-1--011*-01
---0-0------0---0-0---0-0----0-0000---00-*00
--0-0-00---0---0-0-0-0------0-0-0-------010-
-0-0-0110-------0-0-0------0-0-0-00-----00--
--000000-0-------0----------0-0-00-0---0---0
--01-10-0-0---------0--------0-00-0-0-----0-
-0-00--0-0-------0-0-0--------00-0-0-0---0--
0-0-0---0-------0-0-0-0---------0-0-0---0---
-0---0-0---------0---0-----------0-0-----0-0

Generation = 4, Population = 265.
-0-0-----10-----0-------0---------0-0-*---10
-----------------0-----------0---00--0*---0-
-0---011.-----0-----0------0----0--0--0000--
----0-----.-1--------------1----1*------0---
-----0---1----------0-----------0--------0--
-1-----------0-------0-----.-----*----1-----
---0-0----1------------0------------0--1---0
---1----0------------0-0-----*-0---.01------
-----0-----0---------------.1--0--*-*1-..-10
-1---0-----------0------0-----1------0------
-----1---------------------1-------1--0----0
-------0-----0---0-----*-1-0---0-*-----0----
-------0-------0-0---------0----0--0--0-----
01---0---1----------1--.--0-0----00------0--
-0-----------.---------1----------0------11-
--00-----0-*-----0-0-0--.--0-1---0-0--0-----
-----------1-1------0--.-------0-----0-----0
-11--0---0-------------.1-----1------0------
-------------------1-------1-------1--0-----
0-----10-----0-0-------1-1---0---01-------0-
-----1-----0----0-------1----------------0--
---0-0-----------0----------------1---------
--------------------0--0---------------1-0--
--1--------1-----------------0--------1--1--
-1-.---0-0-----0----0-----------------------
--1----0----01----------------0-------1----1
----------0-----0---0-0---------101--11----*
-----------1-------------------------0------
-----0-----0--------------------------0--*--
0--1--0-1-----------------------0--------0--
------0-------0-0-------0-0--1*1.-..110--01-
----0--0-------0--------------1-0-0---------
----------------------------------*--1--.-1*
--0----0---------------------------0-----.--
----------0---0-----0---0-------10----0-----
0--1----1--0-------0------0-------1--------0
--------------------------------------0--0--
---*-------0---------------------------0----
------------------0-----------1-------0-----
---01--0-------0---0---0------0--------0-0-0
----------------------------------0---------

Generation = 5, Population = 656.
0---0---0*10---0-------0-0---0----1--0*0-0-1
---0-000-00---0---0-0---0--00-0--1---1.-1-1-
0-0--1-*.---00-0-0-0-0----0100-010--1---11--
-0-0-000-0.0-00-----------0*0--0**00--0-10--
-0----0-0-1-00-----0-------1---010----0---0-
0-00-----00-0-0-------00---.-----.0-10---0-0
-001--0-00-0-0--------010----1-0-1-01---0-0-
--0*0--0-000--------0--10----.-10-0.1-00--0-
-0-0010-0-0-0----0---0-00--.---100.-.*0..0*1
0-0-0-0----0----0-0----0-0-100----01-1----0-
-1--0*00-----0---------0000*0-01-00-0-----0-
-----0010---0-00010---0.----0-0-0.0---0-0--0
00---00100---10--10-0--0-0-1-----1--00---0--
1-0-0-000-0----0-0-0-1-.-0-0-0---1----0-01--
-1-0-0-----1-.---0-0000-0-0000---01---0-0-*0
--110---0--.00--0---0-00.-0---000-0-0--0-000
-0-0-0----0*--0--0-----.0--0-0--00-001----0-
0**00-0-0-00-0-----00--.-0-0-0-----001-----0
000--000-0---0-0--0-1--0000-000--0--0--0--0-
-0----*10--00------0--0-0-000-0-01*---0----0
0--00*-0--0-00---------------0---0------0---
--0--10----0------0-0--00--------0-0---0----
--00-0-----0-----0-0-00-0----0----0------10-
---0---0-00-0--0-------0----0-0------0--0*0-
0-0.--01--00010-0--0-0-------00----------0-0
---0--1100001*000-----0------0-0000---*0--0*
--0----0-0--00-0-0-0---0------00*-*00--0--0.
-----0-----*0---0---0-0---------001-010--0-1
0--00---0-010-------------------1------00.0-
-00-0-1--0-0--0-0-------0-0--00--0--00--0---
0--0001-0----0-0-0-----0---00****-..*-101-*0
---0-0--0---------------0-0---*0--100-0--0-1
--0-0----------0--------------0-10*-0-1-.0*.
-0-0--0-0-0---0-----0---0-------00--000--.00
0-00---000---0-0-----0-0-00----0*1-0-0-0---0
-00-0--1-0--0-0---0-----00-0----0--0-----00-
0-------0----------0------0-------0--0--0-00
--0.0-----0-0-----0-----------0-------0-00--
----0--0---0---0-0-----0-----0*0-----0-0-0-0
--01*00-0-----0-0---0-0-0----010--0---------
---00--0-------0---0---0------0--0-0---0-0-0

Generation = 6, Population = 650.
-0----0-1.*10---0-0-0-0-0-00-------00-*11-1-
----0---1---0--0---0-------------*---*.-*---
-0-00--..-0-1-----0-0-0-00---10-*1----00*---
-10---1-0-*--11--0---0---0-.--01..-1-01-----
-1----10--*0--0---0-0-00---*--0-*-011-1000--
----0---0--01--0---0-0-----.-0--0.-0-1------
-1-*-0-011-10-------00---1--0--11--1*-1--01-
-1-.--0---1--0---0-0---*11---.0*---.*1-1----
-------0-01--0---------1---.100-11.0..-*.1.*
---0----0----0-0-0-0-00--10-11--00-*0*------
---1-.-----0---0-0-------1-.10-*1111--0-001-
0----1-----0-----*-000-.1-001-10-.10--------
-1-------1---*-0-*-0-----1-*-00--*-0110-0100
*--0---1-1---1----01-*-*-10-010-0---0-1----0
---1---0-----.-0-1--11-1-0-1---0---000101-.-
-0*-10-0-00.11-0-0--10-1*110011---101---01--
-1-------0-.-1-0--00--0*---1-1---10---10--10
-..11-10-0---1-0-0-1-0-*11010---0-0---10--0-
-----1-------1--00--*1-111---1-0-1--1---00-0
01-000.-1--1-0-0-----0-111----1-1-*110--0---
---1-.-1-0---10---000-11--00-------0--0--0-0
0010-*1----1-0-----0---1-0------011-0-1--00-
-0---1-0-0-1---00-0-011-10-----------0-1---0
0-1110-1-1--1----0---------0--10--1-0-101.--
---*-0-*-011-*--100----0--------000--000-1-1
0-1-01---111-.11------------01--1---11*-0--*
-0---1-101-01-01------0-0-----11.-.---110-1.
0-11--0000-.1-----------------0-1--0--10----
---1--00-01--00-----0-0-0-0--000*00----1-.--
011--0*01-01---0----------------0-00-1-0-0-0
----11--1--00-0-0-0---0-0-01-...*-*..1---0*-
0--1-1-010---0---0----------0-.-0---1----1-*
------0---0-----0---0-----0--010-1.0-1-1.-..
---1-0-010-0---0---0------0---0-11---1---*--
--------1-------0-0-------1---01.--1010-0101
01-1-01*-100-0---0---0--1---0---1--10--0-1-0
----------0---0---0-0---0-----0-00--0--01--1
00-*11-000-0-0-0-------0--0---1---0--0-0----
----------------0---0-------0-.-0-0-0-0-01--
-01*.-1--0-0-0-----------0--0---0----0------
------------------0-----------1-0-0-0-0-----

Generation = 7, Population = 857.
0-0-00--**.--0-----0------110----01110*----1
----1000*0---00---0-0----000-00--*00-*.0.01-
0101-11*.01-*-00---0-0--1-0-0*-0*-10-0--*1--
0*1-00*0--*--*-00-0-0-00-10.--1*..-*11*0-0--
0*--00-101*---1----0--11000.0-10*-1-*----10-
------001--1-0--0----1-0-0-.-----.----100-0-
0*-.0-01**1----0-0-01-01-*01-----10-.---01*0
0*0.---000*--10-0----00*--0--.-.00-..*0*0-00
-0-0----01-00-00-----0-*--0*-1-1--.1..0.*-..
--010-----0001-1-1---11-0-1-**--110.-*-00-00
0-0*0.--0-010001--0-0-0--*0.*-0.****----1-*0
---00-0--00100--0*---10.--11-----.-1-0-----0
0-00-0-10*000.---*0----0-*-.--1--*0-*---1---
.-010-0*-*0-0*0--01-1*-.-*1-1*-0---0-----1-1
01-*-00-0-0-0*01-*---*--0--*0-0-------*---.0
0-*1*1-1--1.*----1----0*.*---**----1---0-*-0
0*-0-00-0--.----001--01.0-0--*---*1-01-----1
-..**0*1-10-0--1010*010.**-*10----1001----10
00--0*-000-00-001-0-.*-*-*-1--0---0-*-0--10-
1*----*---0---0--000010**--0---0-1***1-010--
-----.--0-0-0*1--01110**-0110-0--0010-10-10-
11---**0--0*-1-00-01000*01-0---01-*0-1*-0-10
010---01-1-*-00110-01-*0*-00--0000--0--*-1--
-0**-1-----1---0010-0000000-00*1--*-----*.--
--0.---.-1*-0*--*110--0-0--0000----00------*
-0-01*1--***-.---00---000--01*--*-00**.-1--*
0-00-*0-1*0-----0----0---0--0--**-.00-**---.
-0*-0---11-.*--0----0-----0-----*---01-1--0-
-00*0-11-----11----0-------0011-.--0-0--0.-0
1-*---.1-0---00---0-0------0-00--011-*-1-10-
-00-**-0----10-0-0-0-0----1*-..**-*..*1011.0
-00-0*01*1-0----0---0-0-0-----*-1-1--0-10*0.
0----0-0-0---0-------0---010-1*1-**-0*--*-*.
--0---01*10-0-0-0--------0-0----*-0----0-*-0
00----00*00--0---0---0--00*000-*.10-1*101---
1*---1-*1*11------0---00*000-0--*-1-1--1-*0-
----0-0-0010-0----------100-001--1--1-01*-0*
11-.-*-1-10---0---0---0--0-000*0--100-0100-0
0-0-00000--------0-0-0-0-00010.01-1----01*0-
01-..0-00-----0-0-0-0---0-001010-0--0-0-00--
-000--0--0-0-0---0-0-----0--00--1----0-0----

Generation = 8, Population = 428.
--------.*.-01-------------*1-0-0-**-1*--0--
-0----11.1-------0-------1----1--.-10..-.-*-
-*1*-*-..---*-----0--------11.--*1-11--0.*--
1.-0--.1-0.0-*--1----0----1.---...0.***11---
-.-0---*1-*--0-------------*---1*--1*------0
--------*00-------------0-0.0-000.--11*-----
-.-.----..---------1*--*-*1*0-----11.1-11-.-
-.1*0-----.--*-----0--1.1--1-.-.1--..*1.10--
-1-1-------------0--0--.-01.1*--1-.-*.1..1..
0----0-----------------0-1-1..---*-.0.011---
---.1.00-01------0-----0-.1.*0-**..*0---*-.1
--01-1--0-------1.0--*-*-1-*----0.1*0-0----1
---1-----.-11.0--.-00----*0.0---0.1-*--0----
*---1--.-.101.--01--**0.-**0-.--01----1----*
-*-.-----0--1.1*-*---*---0-*--1------0.---.-
--.-.*--00*.*-00-----0-..*-0-.*0-0---0---.--
-*0--1-----.----------*.1----.--0*----10-0--
-..*.-.---1011---*-.---...0*------*---------
--0--.-----1---1---1..-.-*----------.-------
-*0-0-*---1--------11-1..1----1---...*---10-
-----*-----01.--------..----1--0------------
----0*.----.0--------1-.1-----0---.--*.----1
-----1----0*--------*-.-.-------110----*---0
--.*---1---*-----------1-----1.---*-----*.-0
-11.0-0.0-.-1.0-.--1------------0-0-------0.
-----.-1-...-.--0---------0--.--*-1-..*--00.
-----.---.--1-----0----0----1-1**0*-1-.*--1.
--.-1------..----------------00-*0-0--1*-0--
---.--*-------------0--------*-0.0-10-01-.0-
--.--0.---0--1--------------0----1*--*0*--10
--1-*.1-----*-0-0-0-----00**0*..*0...*--**.-
-----.--.---------------------.-*0-0--0--.-*
-----1-----0-----------------***-.*-1*11.-.*
---1----.---------------------00.--0---1-*0-
--------.-1---------0-----.----*.*1--*--*101
-*0----.-.--0------0--1-.-------*-*---0--.--
---0------------------------------0-----.--*
-*-*1.-*-------0--------------.------------1
----1-----0---------0-0-0-1--1.1*0*---0--.1-
--1..1-----0---------------1-------0-0------
---10-------------0-------------------0--0--

Generation = 9, Population = 705.
-0----00*..11*0--0-------01.*-1---**1*.11---
01-0--****0--0--0-------0-0--0*0-.-*-.*0*0*0
-*-*-.-*.---*---0--0-0---0-**.00.*1-*--1.*--
-*--00**0-*-1*10-00-0-0--1-.0--*..-...***--0
0.010-1*--.-011-0----0--0-0*----*0-*.0-00-0-
---0----*--1-0-----00----01.1-11-*00-**-0--0
-.0*0---.*1--0----0-*0-*-.*.-101-1**.--*--.-
-.**10----.-0.0--00100-*-10*0*-.*00*..-.--0-
--0*-1-------0--0-0--00*--*.*.01*-.1*.-..*..
---1---0-00---------0-11-*--..-01*0.-.-----0
0-0*-.1101*1---------00-0*-.*1-**...10--*0.*
-01-0-----010-00-*---.-.-*-.10---.-.1---0-0*
0--*-0--0.---*-0-.-1-0000.-.-0-0-.*0*10-1---
.----0-.-.*1*.--1-1-..1.0..--.00-*--0-----0.
-.0.00---10--.-.0*0--.--0-0*00*-0---01*---.0
--*-..0111**.---01--11-.**-10.*1011-11-0-.--
0.1-0*0-00-.-100-0----..--0--.0-1*----*1--1-
-*.*.0.--1*1-*010.0.--0..*1.1---0-.0--10-0--
--1-0.0---0*-10-100**.0.1*-1--0---0-.0---10-
1*---0.1-0-10--0--0-*--..*0-00----....0-1*10
-00-0.-----1-.-----110..10-1-00-0--------100
---01**---0.11--------0.-1--00--11.-0..0--1*
---0-*01-11*-------0.-.0.----000*--0-00.--0-
-0**-1-----*--0----00-0-0---0-.---*1----..-1
0***---.-1.--.-0.-1-0--0--0--0-01--0--0-0-1*
-01-1.---...-*11-000---0-0-01.0-.0-0...-111*
----0.-1-.-0-0--00-0--0-0-00-0-..1.0-1.*00*.
--.1-00----..-----0-0--0--------.11101-.--0-
---.0-.1--1--1-----0-0-------*1-.-0-101*0*1-
--.---*--0-1----0-0-0---000-10-0-*.--.1.---1
-0--.*-0--00.0-----0---01-**1*...1..**1-**.-
--0-0*0-.--00-0-0-0-----00000-.-.-1--01-0.0.
---00-0---0-0---------------0*..-**-***-*0.*
--0-00--.-00--------0----------1.10----*0.-0
-000----.0-00--------00---.----*.*--1.--**1*
1.1----.-.11-0----0--0-0.-------*0*1---10*0-
---1---0----0--0---0--0---------0110--0-.-0.
1.-*-.0.0-0---0-0---0-0-0-0--0.000----0----*
-00-*--0-0-----0---0--------1-.**-*----0-.--
-1-..-1-----0-----0-0-0-0---10-000----0--00-
---*1------0-----0-0-------0-------0---00-0-

Generation = 10, Population = 744.
-100-0-1..**-*10--0------1-*.0*--0**-*.---11
1*-110...*1-01-01--0-0-0--1-01.-0*0.0..-.1*1
-*-*-.1..0-0*00-1---0----10**.-1..*1.00-..--
-*-0--..1-.-*.*1-110---0-*-.10-*..0***...---
-*1*-0-.1-.----0--000--1---.0-11.-1*.1--1--0
0-0-0-0-*---1---0--1-1-0-1*.-0--0.11-*.-10--
-.-.----.**--1----1-.--.0...0-1-1*...1-*--.0
-*..*-0--0.0-.-0-1--111*-*-.1.0..11...-.---0
-1-.0*00-11----0-01-0-1.00..*.1*.1.-*.-...*.
0-0-00-10----1--0-00--*-0*--*.-1-.1.-*--1-01
-1-.-.**-*.---01-0---1-01*1.*--*...*-100*1.*
01----01---*101--.00-.-.1*1.-11-0.1.-000-01*
---*0101-*--1*01-*---11--*-.-1110.*-.-1-*1-0
.-01--0.0.*-*.--*1*-.**.-..01.--0*---0--01-.
-.1*1--0--111.-*1.-01*01-01.1-.-10101**---.-
00*1..--*-.*.10--*-0**0.*.---..--**----10.00
-.*01.-0-10.0-1--1--00..101--.10*.-00-.*0--1
-*...1.---.--.-*-.1.011**.-.-0-01-*-0----11-
00-0-.---0-.0------.*.1**.--0--001--.-00-*--
*.0-0-*---1*1-----1-.-1*..1-1-1-1-....--*.--
--111.01-0-*1*-0---**1..*11--11-1---0-10---1
-1--*..---1.**0-----0--*-*0-110-**.--**-0-*.
-1--0.1*-**.-00---01*-*-*0--0---*--1011.-110
--..-*-1---*11-----------000-1.--0**00--.*0*
1...-0-.0-.1-*01*-*-10-1----0-01*---00--11-.
---0*.-1-...1*--0-1----10---*.--.1--..*-**-.
-00-1.--1.0--1--1--1-0---01-1--.*-.-1***11..
--.--110--0.*---0---------00--0-.-**1*-.-0-1
---.--.-0---0-1-0-0---00000--**-*011-1**-*--
-1.-0-*11--*0--0-----------0-10--**--.-.----
0---*.--1-11.-----0---01*-..-.*.***.*.*-***0
---1-.--.-0--0------------1110.-.0*011*--.-.
--011-10-01-100-0-0-0---001--*..1..-*..1.1.*
--1--1--.---0------0--0-----000*.*-0-1-.1.--
-1-1-0--.--11-----0---1---.---0*..1--.-0..**
-.*1---.-.*---00-0--01--.-------.-.----*1.1-
---*0-----------------1-1-0--0--1-*-101-*-1*
-*-*-.-.-1-000---0-0--1----0--*---10-01----.
--10.00-0---0-------0-----10*1...-*0--0-1.10
0*-.*1---0---0-0---------0---1--11-0-0-0-1-0
-00.*00---0-----0-0---0-0-0--0-0100-0--11010

Generation = 11, Population = 825.
----01--.***1*---0---0-00-1*.-*0--.*1..-----
*.0*--..**---*---0--0---01*---.-1.1.-.*-.*.-
-*-*-*-.*111.1--*-00----1-1...0*...-.-11..00
1*1-00.**-.-*..-1**-0-01-*-.*11***1......--0
-.*.0--.-1.----1----1-1-0-0*1-*-*0*..-10*-0-
-110-0--*-01-----00*0--10*.*1-1-1.---*.--10-
0*0*----***---000---.-0.-.**11*--..***-.-1*1
0...*01-0-.-0.01-*01--*.-*0*-.-..**...-.---1
-*-.1.1-0-*--0010--010-.-1***.-*.*.1..-..**.
-------*100-0--1---1--*11.-1*.--1.-*-*--*0--
0*-.1...0..100-*0-0-0-01-.-.*--*****-*11.-..
1-110-1*0-0**1*0-*110*0.-.-*----1.**1----1-*
01-*----0*--*.1*0.010--0-*-*--*-1.*0.1*0.*01
.1-*1-1.-.*1..00.**-....-*.1-.0-1.00-110--0.
0.*.*0--01-*-.-*-.--*.-*01*.*0.0--*--**--1*0
1-.*..-1*-...*---*--..-...--0..10..1-1---*1-
0..1*.0-0*1*-1*-0*--11..*-*1-.*1..11-1.*--1*
-*...-.1--*--*-.0.-.1**...1.--11*0*0111---*-
--1--*0-0--.11-1---.*.*..*011----*--.0110*--
*.1-1-*--0*.*--0-0--.--...*-*0*0--...*-0*.-0
0---*.-*---.-.1-0--***...**11-*----1-0-10---
1*--*..--0*...----01---*-.---*--**.00..0-0..
0*001.**-**.01-1-01-*-.0.10-1000*1--1--*----
00..-*0*-1-*-*000--0-001---1--*101*.-1--..1*
-...-10*-1.*-.--*-.-*1-*-00-101-*00----0-*-.
00-1**1-0*.**.----*-0-0-1-00*.00.-1-...0..1.
0110*.01-*101*01-0----00-1-0*01..-*--...**..
-0.--*-1111.*-00-000-0000011--10*-..*.1.----
-0-.00.1101----01--0-01----00..-*1--1-*.-.10
--.11-.-*0-.-1-----------0----100..-0.-.0-11
----**1-*---.0-0-0-0-01-.0*.1.***...*.*-.**1
0--*0*01*----1--0---0-00------*-.-.---*-0.0*
-0-**1*1-1---11----0-0001---0..*-..0...-*-..
--*1-*-1.10---0-0-0--0100000111..*0-0-0*-*0-
0--*-10-.--*-000----0-*0--.-0--**.---.11..**
-..*-1-.-..-0011---01*1-.-0--000.-.-10-.-.-0
-0-.10---0100000---00-*-----0--0--*0*1-1*--*
1.0.-*0.---1110-0----0*00-01-0*000*-0-*1---.
00*-.-1--0--10-0-0---00---*1.-*..-.10010-**-
1.1..*1-----------0-0-0---01--1----10-01-*--
--1**110---0-0-----0-0---0-001-1*110--0--1--

Generation = 12, Population = 757.
0-0-1*0-****-*1-010----1-1-*.0.1--.**..--0--
.*1*--....1--*0--1------1-.---.0-.-*0**-..*1
0.-.0*1..*-*.*00*--10-0-*-**..-...*-.0-*..1-
*.-0--**.0.-*..--.*01--*-.1.*--...-.....*-01
0...10-*1-*00-1-------*-1-1.*0.1.1*..-*-*11-
----0-00*--*1-0--1-*-10*1...*0--*.11-*.0--1-
-.1.--01*.*-01-110--*01.0...*-*11*****1.1-.-
1...*-----*0-.1*-*----*.1.-.1.0.**....-.--0*
-.0.*.*0-1*0011-1--1-11.--....1..*.**.-.***.
0------.---011--0--*0-.***--.*-1*.-*-*--*---
-*-.***.-..---0.101-111--.-.*10*....1*-*.-*.
--**--*.101..*.1-.-*-.-.-.1*--1--...*0--0*1*
--0.0----.01..*.1.1*-----.-*01.--..1.-.-.*1-
.*0.-0-*-..-**-1.**-*..*-..*-.10*.1--*--01-.
1.*..1---*1*1.-*1*00..0.-**.*1.110*01..-1-.1
-0*...-*.1.*.*-0-*0-**-*..--1..*1*.*---10.*0
1**-*.---.**-**--*10--*..-**-*.*..-*0-..0-**
-****1.-0-*--.-.1*-**.**..-.10-*.1.1---00-*-
0-*0-*-0---.---*-0-.*.*..*-------*-1.1**1*-0
..*-*0*--1.**--10-11.11....-.-*111...*01..1-
--11*.-.0--*1.-0---**....**---.-100*01-*---1
*.--*.*-0-**.*000---010.1.-01.0-.*.--*.-0-..
1.---..*-...1-0*11--*-.-.*10*111.*--*-1.0110
--.*-.-.--0*1*-1-------*0-0-01.*--.*--1-*.*.
-.*.-*-.0-.*-*0-*1.-.--.01----*-.110-001-*1*
--1-..*-1.....110-.-101----1..11*--0...1..-.
---1..---.*1-.1--1010-1--*-1.-*.*1.01..***..
--.11.1**-*.*0-10------1-1-*0---*-.*..**0001
010*--.----101--*--1----0---1*.0.*11--.*0*--
-1.**0.-.--.0*0-00------01-0-1-11..1-.-*-1**
0--0..-0.---*---0---01--*-*.-...*......0*..*
--0.-.-*.---0------0--1--01--0*0*-.011.-1.-*
--0..-.*0*--1--0----0-----1-1..*1.*-.**-*-.*
0-.*0.-*.-1--0-0--------1-----*..*10---.1*--
-1-*-*1-.0-*1-----0-1-.--0.-100.**1--.--**.*
1.**0--.-..1---*0-0--.*-.0-001-1.-.----.1.--
---**1--01-1------0---.-1----01---*-.-1-*01.
*.1*-.-.-----------0--.-1---01.1--.---.*-00.
1-*0.0-00-0---0-0-----1-00.*.-..*0.----1-**0
*.-...*--0-00--0---0--10---*--*-11-*-01--*--
00-****10-0---0-----0---0-0--*1**----01-1*1-

*** Life<Cell> 22x13 ***

Generation = 0, Population = 25.
-----0-------
-------------
------------0
--0------0---
-----0-------
--0--0-------
-------------
0----------0-
--------0--0-
-----00------
0----------0-
---0-0-------
-------------
--------0----
-------------
-------0-----
-------------
0----------0-
0------------
-------------
-------------
---0--0-0----

Generation = 5, Population = 135.
0---010-0-00-
---00-0-000-0
--0-0*-0-----
-0---*-1-0-10
-10-0*-0*--*0
--1..*0--10-0
*--00--0--0.*
1-011--*-.--0
-0----.1-1-*0
1---**-**-110
10---00----*0
*1--0-.0----0
-0--0000--0--
-0-01*1.0-011
0---0-0---0--
1---0-0-.-010
*-000000-----
.1.---*10-0-0
.1.-10--0--0-
*----01-10---
--000-0-0-000
-----.0-001-1

Generation = 10, Population = 112.
10-0-*1-*.-.-
1-1-.1.1--0--
--0-..-----0-
--.-..01-*110
0--...*-..-*1
*-..*.-1***-0
.*1----.0-**.
**..*0..-.-*-
1-01-**-***.*
*.-*.....*..-
.-*0*-.1.--.1
..1-1-.-0--**
-1-*-.--1..--
--0**...-..-.
--1*0*-*-----
-1--**.-*.0-1
.-.0*-0---1*-
....0*..*-01-
*..-.100-0-.1
*--1--.-..1.-
.-.-*--*.1110
1-*-**.*01.*.

Generation = 15, Population = 99.
1-**-*.-**-.-
*-.*...-1*10-
***.*.---**.0
--.-..-...-.-
**-*.*.*.....
*-....1..*.*.
.*..*.-.**...
.*...-.*.**.-
-1**1..*.*...
.*-.....*...-
.-.*.-.1*.-..
...**-*1.*-..
-1..***-..*-0
.-0..*...****
.-..0*-.-1**1
1.-.*....*1.1
.0.*.--*-**.-
.........--1-
...*.*-*-*.*-
.*.1-*.1....1
***-.*0....*-
-1.-....-.*..

Generation = 20, Population = 82.
.1.*1..*.*-**
*-.**...*...-
*.*...1.*...*
0-.*.*-.*.1.-
..*...*.**...
.1....-.*...*
.*........***
.**..-.*...*-
-......**....
..-.**.**...-
.-..*-.*..-..
.....*....-..
--...*...*.-.
.--*.....*...
.1*.**...*...
-**...*..**..
.1...*1.-**.*
.*........-.-
..**..-.0**.*
....-..*....*
***1...**...-
-..-....*..*.

Generation = 25, Population = 90.
....-...**...
.1....*.....-
*.*.*.....*..
-...****.**.-
.*...........
.**.***.**...
....*...*.**.
**...-.*.*.*1
1.........***
..-*....***.-
.-**...**.-..
.*.......*1..
1-.**...***-.
*--......**..
**.......***.
**.......***.
.-....-...**.
.........*.*-
......-.-*...
.***-*****..*
...*.....*.**
.**1......***

Generation = 30, Population = 80.
.*..-....*...
.*....*****.-
.....*...*...
....*......*-
....*........
....*....****
....*...*..**
..***-.......
*.*....**....
*.-..**.*....
*-....*..*-..
...*.**.*.1..
*.*...**...-.
*.0..........
.***.........
.***.........
......-.*.***
........*..*1
.*.*..-.1.***
....-..****..
...**.****...
.....****....

Generation = 35, Population = 44.
....-*....*..
.....*....*.-
......**.....
.............
.............
.........***.
.........***.
.....-...*...
...**........
..***....*...
.....*..**...
......**..1..
.......*...-.
..-....**....
.**..........
*.*..........
.**...-..*..*
.......*...*.
.....*..1.**.
....-...*....
.......*.....
.............

Generation = 40, Population = 35.
....-........
............-
.............
.............
.............
........*....
.......**....
.....-.......
.........*...
.........**..
...**....***.
...**....**..
..***......-.
.*1.*........
*****........
*..**........
.**...-......
...........**
...........**
....-........
.............
.............

Generation = 45, Population = 32.
....-........
............-
.............
.............
.............
.............
........***..
.....-..*.*..
........*.**.
.......*..*..
.......*...*.
.......*..*..
.........*.-.
**...........
**...........
.****........
.*..*.-......
....*......**
..**.......**
....-........
.............
.............

*** Life<Cell> 12x28 ***

Generation = 0, Population = 21.
--00------------------0-----
----------------------------
-0--------0-----------------
0-------0-------------------
-----------------------0----
----------------0----------0
----------------------0-----
-----0-0----------0---------
----00-------0--------------
--------0--------0--0-------
----------------------------
-----------------0----------

Generation = 2, Population = 69.
0-**10----0---------0-0-0---
0-------0-------------------
--1-----1---0---------00----
0-0---0---1-----0----------0
-0--------0----------01--0--
0----0-00-----0----------0-0
----01-------0------0--10---
---0-*-010-------1---------0
--01--11---0---0------0-----
-----101--0----0-0-1--0-----
----00-------0--------------
--------0------0---00-------

Generation = 4, Population = 71.
*-**1-10--0-------0----0--0-
--01------------0----------0
-1.1-01-.-----0-------------
--*--1-1--.-1-----0---------
--0001-------0-----0--.----0
--------*---0----0-----1-*--
-0---.----0-------0----.--0-
00-*-.--1*-1--0--1----1-----
01-----*0--------0-----1----
----0-------01---0---1--0--0
----------------------1-----
-----1-10----1---01-*1------

Generation = 6, Population = 177.
.0.**1**-10-0-0-1-0-00-0110-
*0-*0--1----0-1----------0-0
11**0-*-.-0-11--1-10---1--01
00*101-110.-1-1--1--0--0-0-1
01--0--1--10--10-10--1.--*10
0111-*0*.1-10--0-001-01--.-1
0*1-1*-0----10--01-10-1.---1
0*0.1*001.111--11.-001---0-0
01**-0**-0-----1--10-11--00-
1101-*1*-00--.----1-11-0-110
00-----11--------0-----11---
---01-0**1001---1-*1**000--0

*** Life<Cell> 37x9 ***

Generation = 0, Population = 12.
---------
---------
---------
---------
---------
---------
---------
-0------0
---------
---------
-0-------
-00------
--0------
---------
---------
---------
---------
---------
---------
---------
---------
---------
---------
---------
-----0---
---------
---------
-----0---
---------
---------
---------
-----0---
---------
0--------
--0-----0
---------
---------

*** Life<Cell> 11x41 ***

Generation = 0, Population = 9.
---0------------------------------0------
-----------------------------------------
-----------------0-----------------------
-------------------------0---------------
-----------------------------------------
-----------------------------------------
-----------------------------------------
-------------------------------------0---
0----------------------------------------
------------------0----------------------
----------------------------0-----------0

Generation = 4, Population = 32.
-------0---------0------------0-------0--
-----------------------------------------
---0---------0-------0------------0------
---------------------0-------0-------0---
0--0------------------------------0------
------------------0----------------------
-----------------0----------0-----------0
-------------------------0-------0-------
--0-0-----------------------0-----------0
--------------0---0---0------------------
0-----------------------0-------0---0-0--

Generation = 8, Population = 32.
0--0-------0--------------0-------------0
------------------0--.-------------------
---------0---------------0--0-----------0
-----------------1-------0-------0-------
-----------------0---.------0-----------0
------------------0----------------------
0--0------------------------------0------
-----------------------------0-----------
---0--0-0-------------------------0------
----------0-------------.-1--------------
-----------------0--0-----------0-0-0----

Generation = 12, Population = 98.
-.1-0----0-----0-1---10--*----0-----0-0--
--------------0-----0*---.---------------
-----0-----0-0---.-----.1-1--0--0-0-0-0-0
-------------0--1.*----.-----0-------0---
1-----0-1--0-0---*---*--1-*-----0-0-0-0-0
--1-------0---0---1---0---0--------------
-1.*1--0-1-------*--1----1--0-0-0-0-0-0-0
--1--------------1------0----------------
--0-1--0--.-1-------0-------1-0-0-0-0-0-0
------0---1---0---1-----.-----0----------
0-----0-*----0--0----0--1---1-0-0---0-0-0
