25

23 19
138
21 17
15 15
14 6
15 18
1 16
4 8
2 6
13 9
13 6
15 10
1 4
22 11
12 8
11 11
17 9
12 16
18 15
2 10
11 0
5 2
4 0
15 6
7 9
14 5
13 14
16 2
11 8
5 9
20 11
7 10
12 0
15 13
10 18
20 12
1 18
10 7
2 10
2 18
19 7
18 3
22 12
13 4
6 8
1 4
1 13
16 9
19 8
0 0
6 13
11 2
8 4
12 17
10 9
20 7
5 2
2 13
8 17
20 15
4 16
13 7
10 16
18 14
16 1
22 7
13 12
5 11
19 15
15 16
14 13
14 7
6 18
4 4
21 10
14 12
13 15
17 11
22 16
11 10
9 18
19 7
13 6
5 10
9 6
16 6
5 12
19 8
12 8
0 7
4 11
10 3
22 2
10 7
8 1
6 11
14 17
4 4
17 15
11 5
16 17
6 8
12 3
16 7
10 8
22 8
22 7
0 5
18 12
2 10
17 18
9 8
16 9
13 3
10 2
8 15
10 8
12 12
20 13
12 0
6 1
0 15
6 13
18 6
10 13
14 14
2 18
14 11
4 14
21 0
4 8
14 2
20 15
3 3
1 16
19 9
6 14
5 3
11 11
4 13
17 3

12 16
45
5 6
8 14
11 9
11 6
9 1
7 14
11 9
9 3
7 9
10 6
1 5
10 6
7 0
1 7
8 4
10 13
3 12
10 10
5 14
4 15
3 3
2 3
2 7
6 10
4 4
0 6
3 7
4 9
6 7
1 3
8 1
0 5
5 10
7 6
10 1
5 1
7 4
10 5
0 6
6 6
2 13
6 9
3 1
0 12
6 6
39 1

8 10
23
4 4
2 9
7 3
7 3
4 7
1 6
6 8
1 1
7 0
5 2
7 7
6 7
7 1
3 6
4 2
4 2
5 5
1 8
5 8
2 1
2 1
5 5
4 0
48 3

19 15
83
5 8
5 11
9 2
3 11
17 0
17 11
2 13
8 10
18 4
0 8
4 0
13 12
4 9
1 10
2 2
16 3
2 9
4 0
9 14
13 5
14 1
1 7
8 14
9 10
15 7
5 8
2 13
6 0
18 6
17 13
3 4
5 6
1 3
7 6
10 14
15 4
2 4
9 7
1 6
16 7
7 2
4 11
10 7
18 3
2 12
7 0
3 0
3 10
13 12
4 9
14 0
15 14
2 3
9 4
4 8
1 11
2 6
17 6
6 4
16 8
18 12
3 1
16 1
14 6
10 12
3 11
14 13
1 12
9 4
17 4
8 2
7 4
12 12
4 14
4 3
8 12
9 11
9 13
6 2
11 13
4 7
11 8
18 5
47 2

6 8
10
1 3
1 3
2 2
1 1
1 5
3 4
1 3
0 7
3 3
4 4
40 1

21 20
114
1 11
15 2
3 10
20 6
19 10
10 4
14 2
14 8
15 5
11 14
0 1
5 10
15 4
15 0
11 17
19 11
19 11
9 9
2 13
8 7
15 1
10 17
3 3
2 19
9 1
12 19
1 1
1 12
9 6
1 5
20 3
11 17
15 2
5 18
5 16
9 6
0 13
13 4
9 4
12 10
20 3
1 4
10 10
16 5
17 10
17 13
15 8
2 15
17 17
0 18
2 17
4 3
5 4
5 4
0 1
14 12
20 4
17 13
5 18
2 7
1 1
16 12
16 12
17 1
13 14
17 16
4 10
8 1
18 10
10 1
12 18
15 0
12 14
3 5
3 15
10 19
12 6
2 3
7 11
4 3
3 8
13 7
4 3
16 4
18 9
5 10
16 17
14 13
6 14
3 8
12 18
12 12
11 12
16 15
13 13
12 10
10 12
13 11
4 14
20 4
19 11
5 16
1 2
6 10
19 10
13 12
14 3
17 4
3 19
19 5
14 18
11 16
6 17
11 16
35 2

11 20
48
1 4
2 5
5 9
4 6
9 4
7 6
10 3
5 18
8 18
7 15
9 16
10 19
4 1
7 8
10 1
3 0
7 8
2 13
8 15
7 14
3 7
2 9
3 15
2 17
9 8
7 13
7 8
9 16
6 0
5 2
3 11
2 7
2 5
10 18
8 4
7 9
9 16
1 6
7 9
1 18
9 13
8 19
5 1
7 6
4 17
8 17
5 7
3 13
11 1

8 21
35
1 19
1 18
5 15
6 19
0 16
3 15
7 2
2 14
1 13
5 16
4 7
5 20
6 12
7 5
1 18
3 11
7 2
4 19
5 16
0 10
7 14
6 19
0 16
0 15
3 9
3 12
2 13
0 14
1 20
0 10
0 17
5 8
6 12
2 1
6 0
29 1

20 15
63
2 13
1 14
5 11
11 13
0 11
0 14
3 0
6 9
16 5
12 3
6 13
9 10
12 8
12 11
1 4
14 14
11 1
14 3
14 10
10 0
6 3
8 9
0 8
15 7
7 4
11 4
8 13
6 9
5 11
17 12
15 7
2 12
13 10
15 9
3 1
2 10
7 10
0 14
16 2
7 13
4 5
12 1
2 0
10 7
16 14
9 6
10 4
7 12
3 14
4 8
1 3
0 1
3 0
13 2
11 0
18 5
19 2
17 1
3 0
5 6
7 3
4 9
1 2
45 1

7 8
11
6 0
0 7
1 6
4 7
1 6
1 5
6 2
2 4
2 3
2 2
0 6
44 1

11 20
48
8 9
8 16
10 3
5 15
9 2
9 19
10 13
0 11
3 16
8 15
10 0
9 3
3 7
1 18
8 8
2 4
2 8
8 4
7 2
2 12
4 0
4 19
5 16
1 10
6 9
7 0
7 4
4 11
9 5
3 13
8 17
4 1
0 3
4 3
9 6
7 6
1 17
3 12
7 13
9 10
2 2
0 1
5 15
7 18
8 14
4 15
6 13
5 16
19 3

24 8
48
9 5
20 6
4 4
15 1
16 7
16 2
5 4
15 0
7 4
15 0
12 2
0 1
6 7
17 4
18 6
17 1
9 1
12 5
16 2
11 3
15 2
18 0
2 5
9 1
11 0
22 1
4 5
22 7
12 5
21 1
16 0
12 2
1 7
20 7
2 0
5 6
7 0
13 0
1 0
2 3
10 6
17 6
1 7
8 4
5 1
4 7
5 1
20 7
13 3

22 17
111
1 7
12 2
20 13
1 13
0 8
11 2
13 16
3 13
6 11
2 3
10 5
6 12
15 15
8 14
2 6
18 3
10 8
17 1
8 6
21 10
3 7
4 4
0 2
13 2
11 1
14 4
19 5
1 2
5 13
2 11
8 13
17 11
1 15
0 1
2 9
7 12
6 3
13 5
8 7
6 6
6 12
18 5
15 3
20 16
11 13
1 4
6 6
0 6
6 0
12 14
4 15
19 2
19 2
17 15
2 9
17 11
18 9
13 9
16 0
8 9
12 6
10 3
8 5
1 4
5 7
2 13
13 0
21 15
20 1
20 8
1 10
21 6
10 13
10 2
3 4
19 11
8 2
21 8
7 2
14 10
18 6
21 15
1 4
17 11
3 2
2 5
4 3
3 12
15 10
1 5
13 8
3 8
2 11
13 16
1 16
12 13
13 13
7 4
1 14
15 2
3 13
15 5
0 13
13 8
10 0
7 0
11 14
15 7
3 6
20 5
10 3
49 3

8 8
14
7 3
1 4
4 2
4 0
1 4
5 6
3 6
1 4
3 4
3 4
7 6
0 3
0 5
4 5
45 1

13 21
85
8 9
0 1
2 18
2 20
5 9
0 19
3 19
9 16
5 16
8 6
5 6
9 20
6 6
1 6
9 9
3 1
1 19
12 12
10 18
7 3
7 13
6 16
6 7
2 10
7 1
7 9
11 18
3 20
4 20
4 1
1 1
3 12
0 11
6 5
8 1
6 12
0 3
9 10
7 15
12 18
10 6
8 3
4 18
3 17
1 2
2 11
10 11
11 1
6 5
5 0
12 19
3 9
12 20
4 10
9 5
9 1
12 15
2 5
9 1
9 11
8 20
4 17
12 7
6 1
7 11
2 15
11 10
11 20
1 0
5 16
3 4
8 15
9 2
6 2
2 8
8 12
7 12
7 5
4 1
11 6
5 15
7 6
0 2
5 11
0 16
44 1

20 19
124
10 1
15 11
2 10
16 11
7 1
9 18
17 11
1 5
15 8
12 5
16 11
15 14
6 16
3 12
15 17
18 13
19 7
18 13
11 6
14 16
15 14
14 9
9 16
7 0
15 7
12 15
14 11
5 8
5 14
17 8
0 15
0 5
17 8
9 12
5 15
19 11
13 2
18 7
18 3
12 18
9 6
7 10
15 4
2 12
5 10
0 4
19 2
18 3
9 13
17 3
17 9
2 8
0 17
0 16
15 7
4 6
16 15
15 12
2 3
6 7
13 4
3 4
12 16
1 16
6 0
10 17
14 9
16 7
0 0
6 0
5 10
4 5
9 9
7 2
9 9
11 13
7 9
16 5
8 10
14 4
10 14
3 7
6 2
17 11
11 2
14 5
7 15
0 9
13 4
9 17
16 12
16 4
2 12
11 0
10 14
17 16
1 3
19 16
7 12
8 17
13 8
3 11
10 13
8 2
5 3
16 3
5 3
9 11
14 7
8 1
7 15
2 8
16 9
14 4
1 14
0 6
9 17
8 0
0 7
17 16
15 18
17 6
3 18
7 15
38 1

7 12
17
4 3
5 5
5 6
1 1
0 4
5 4
0 11
3 6
5 11
2 3
1 8
5 10
0 5
1 6
2 3
2 11
2 1
44 1

23 23
155
4 2
18 11
14 20
7 5
19 2
19 0
11 19
16 4
5 20
3 3
4 10
9 19
13 11
11 2
3 22
17 22
15 9
20 15
9 18
22 3
0 14
17 19
3 11
6 22
5 13
6 8
2 2
10 17
22 6
2 6
13 8
7 18
5 4
1 21
12 4
15 1
18 18
14 13
2 8
2 17
4 0
20 0
17 15
11 10
20 20
15 12
2 1
16 6
11 2
6 8
17 12
15 22
17 1
6 10
1 20
21 10
7 17
18 0
1 8
19 0
11 3
14 10
14 10
13 16
11 7
6 20
12 5
19 18
21 17
18 21
19 11
20 2
13 20
17 22
20 13
4 13
18 21
2 1
5 19
6 15
15 3
6 16
10 15
6 22
19 13
5 17
11 6
13 8
7 11
16 12
7 21
18 7
6 2
15 21
0 7
5 12
8 1
17 14
16 3
20 10
11 20
21 7
0 2
4 14
14 4
8 21
1 11
2 11
17 5
19 3
5 8
18 22
7 18
11 13
14 21
20 11
11 11
6 0
7 22
4 10
16 17
19 18
5 9
11 1
11 8
14 3
18 10
0 0
10 18
15 9
9 17
17 15
4 16
16 7
20 16
2 6
11 13
18 4
4 0
5 16
10 11
9 4
18 20
1 6
8 14
3 21
13 17
10 17
0 5
16 19
18 2
6 2
13 19
16 12
5 17
11 1

19 7
32
5 1
10 3
9 3
10 5
10 3
3 4
8 0
15 1
11 3
13 4
18 6
10 2
2 3
2 0
16 4
0 3
4 4
3 4
13 2
9 2
11 2
4 6
5 0
18 4
2 0
12 0
0 2
16 5
1 1
15 0
3 5
15 6
46 1

16 10
47
0 6
14 9
10 4
9 1
2 4
5 6
3 8
9 9
11 6
14 0
2 2
7 6
15 9
11 8
12 7
1 4
10 9
3 6
8 5
1 3
0 6
9 5
14 3
10 4
3 4
3 3
2 3
2 0
13 5
14 3
5 2
1 8
4 0
8 4
4 6
4 4
11 4
6 6
7 8
9 8
4 6
8 8
12 2
11 1
10 3
2 9
5 1
24 1

10 18
36
1 3
4 9
4 4
8 17
6 6
8 9
6 3
8 0
1 14
1 17
1 3
8 3
8 5
6 3
4 1
8 14
0 7
8 13
8 11
1 7
2 16
5 9
2 14
0 6
6 12
5 0
5 16
5 1
5 6
2 15
0 4
7 15
7 10
8 0
2 12
4 4
27 1

6 16
25
4 8
2 2
2 3
5 0
2 15
1 3
2 1
5 3
1 12
0 9
3 8
0 10
3 1
4 14
2 14
5 14
1 4
3 2
4 10
0 10
5 0
2 12
0 15
5 3
0 3
10 3

13 12
46
3 9
11 4
7 7
8 1
8 9
9 0
3 8
0 7
4 8
2 9
11 4
4 6
8 0
3 3
8 7
10 6
9 11
1 0
7 8
12 8
2 11
12 2
12 2
1 5
4 1
12 4
2 9
4 1
5 5
0 9
9 10
12 4
7 1
12 1
3 7
9 3
10 6
11 1
10 11
11 5
7 7
4 4
6 6
9 5
5 9
6 0
45 2

13 14
54
2 3
6 6
6 4
0 1
9 5
11 0
5 11
12 8
11 1
12 0
1 9
10 0
1 7
2 0
10 12
5 3
7 5
0 9
1 1
0 7
4 11
4 12
0 0
3 3
5 6
0 2
2 4
0 2
2 1
6 6
9 0
10 9
6 5
6 8
5 0
10 4
12 10
1 8
6 3
11 1
2 0
8 8
11 3
12 13
7 3
12 0
1 1
2 7
3 8
5 3
8 13
0 13
3 2
7 1
25 3

6 18
34
3 4
2 1
0 9
1 16
0 3
2 1
4 17
1 16
0 14
2 8
2 6
3 15
5 9
5 7
2 3
5 14
4 0
4 4
5 9
1 8
0 16
5 5
0 9
3 14
3 1
5 13
2 1
3 15
5 13
2 7
2 9
2 11
3 14
5 13
24 3
