25

11 5
14
0 4
3 2
0 3
3 4
3 2
1 2
2 1
4 2
10 3
6 0
0 2
10 4
0 0
4 2
13 2

22 8
43
14 6
16 0
12 4
20 0
4 2
0 2
20 2
11 5
1 7
19 5
9 6
13 5
17 4
10 3
0 5
14 2
17 2
15 5
20 5
21 7
16 7
9 2
19 7
3 7
1 1
19 2
12 2
6 2
1 0
20 1
19 0
4 0
11 7
4 0
1 0
0 0
2 0
14 0
20 3
9 1
11 6
0 1
8 3
40 2

25 24
141
20 2
12 10
7 23
9 18
17 21
19 11
5 10
0 21
14 3
9 12
15 1
19 16
12 23
6 8
0 2
14 1
24 3
14 13
18 12
23 0
22 9
14 15
10 21
16 15
15 10
23 4
16 23
3 12
23 15
23 6
1 4
17 23
20 16
2 16
17 18
5 21
12 5
4 19
5 19
6 21
15 0
5 6
7 23
9 17
10 22
15 23
7 8
19 14
3 16
3 2
4 13
13 2
1 9
18 4
16 14
5 12
9 3
2 4
1 18
19 3
20 11
15 13
0 5
23 1
24 4
6 12
2 2
0 2
13 1
6 20
24 9
9 1
15 17
8 23
12 19
8 6
14 3
16 18
12 19
6 16
1 16
2 8
13 9
0 17
19 20
19 3
22 15
21 12
10 8
1 5
20 2
9 21
4 23
19 5
5 10
9 13
20 2
24 19
3 23
8 2
20 19
14 1
20 20
16 21
13 8
23 21
18 11
6 23
6 21
4 20
0 20
23 0
24 8
5 13
19 17
0 5
17 5
3 7
15 11
3 19
17 3
0 12
24 3
15 16
16 13
13 13
8 17
6 10
5 14
9 6
16 19
1 17
23 3
15 18
9 12
16 7
6 7
11 14
15 9
1 2
20 16
12 3

7 21
38
0 5
0 6
5 7
0 1
0 0
1 5
4 13
4 2
4 15
3 6
6 17
6 20
6 19
5 16
4 6
2 10
5 3
1 2
3 17
6 16
4 15
4 15
0 19
5 13
2 5
5 3
5 14
6 14
2 1
4 9
3 16
3 2
1 2
5 17
0 6
4 10
2 13
5 17
28 3

9 13
31
3 3
0 3
4 5
4 6
5 9
2 8
4 9
0 1
8 7
2 3
4 11
5 5
3 12
6 6
1 12
4 1
8 8
6 8
1 12
4 7
5 3
5 3
2 3
2 1
2 6
6 0
5 2
5 9
1 0
3 2
5 4
35 2

18 25
140
13 2
17 1
12 23
0 5
8 3
8 10
5 21
17 4
10 2
15 8
13 9
4 17
12 12
10 16
10 16
2 21
0 0
11 20
15 6
1 13
7 6
9 10
5 16
1 7
9 0
3 3
13 17
5 5
16 12
15 4
12 9
17 24
11 7
1 9
7 2
0 4
8 9
1 14
9 11
8 16
1 17
16 15
5 7
1 4
7 2
15 2
15 5
15 16
5 14
17 17
0 15
3 13
3 11
16 20
14 18
2 12
9 20
7 13
4 15
10 2
4 23
14 17
1 10
1 12
9 7
0 17
7 20
4 9
10 21
4 6
11 8
6 2
1 1
15 23
7 1
1 23
12 12
14 8
8 2
12 1
10 19
10 2
0 16
11 10
15 8
0 13
14 11
12 21
12 15
16 0
11 19
16 4
2 12
5 9
15 10
17 2
3 12
4 5
16 24
8 2
15 7
12 15
15 19
12 23
17 24
4 19
15 24
0 17
2 19
15 6
4 1
15 2
2 10
5 16
12 5
3 7
15 21
0 6
13 8
7 15
17 7
14 13
5 23
17 24
17 10
16 15
7 18
12 4
13 20
11 21
7 8
1 19
14 12
4 20
10 9
1 7
17 3
15 14
5 10
9 17
25 3

19 7
26
13 1
1 2
5 3
18 3
2 1
5 4
12 6
0 1
5 2
15 4
17 6
16 5
10 5
17 4
14 2
8 4
13 0
3 1
8 5
2 0
6 6
2 1
15 6
8 6
10 2
18 3
13 2

20 5
26
12 1
17 4
0 1
19 1
4 0
11 3
13 0
8 4
9 0
2 4
19 2
10 4
6 3
16 2
12 0
15 2
15 3
10 4
7 1
17 1
10 4
19 1
7 2
5 1
9 0
19 4
10 2

22 23
101
20 4
17 16
21 3
1 5
21 20
7 0
11 6
11 1
6 6
3 21
11 20
5 11
5 13
18 16
1 9
6 11
5 15
20 12
2 0
12 4
14 8
19 19
21 19
20 2
4 13
13 7
12 0
0 1
11 21
12 19
2 22
10 0
13 15
16 3
3 15
2 19
9 22
6 17
12 2
13 13
8 4
5 22
7 8
21 6
10 8
3 6
21 4
7 22
4 4
15 19
17 15
2 12
17 17
21 18
6 22
9 21
17 9
19 0
17 21
7 4
0 16
16 2
1 20
19 11
21 19
4 10
7 7
7 13
19 17
18 8
2 0
7 0
16 19
7 2
4 2
10 22
12 15
20 16
8 10
1 21
11 9
10 21
3 7
20 19
18 1
5 0
6 6
2 3
2 14
0 18
1 20
3 9
5 7
20 3
4 5
17 7
9 11
20 14
1 22
9 4
11 16
13 3

17 19
77
16 14
11 17
2 15
5 18
9 0
5 2
8 11
16 17
2 7
7 4
3 13
15 3
16 7
2 12
5 16
8 5
11 2
15 12
15 16
7 6
9 8
13 6
7 1
8 9
15 5
7 8
3 9
3 15
0 11
7 11
0 2
15 2
8 12
14 16
12 17
15 6
12 1
7 4
15 4
8 18
9 1
14 17
3 6
2 16
1 5
6 7
6 14
9 5
15 8
14 13
12 2
7 14
16 0
10 2
7 17
10 12
3 2
9 12
5 16
15 7
12 15
1 9
11 17
10 10
2 17
8 13
0 10
11 9
10 0
5 13
11 0
13 2
16 6
4 5
5 6
1 15
1 8
50 2

12 14
48
11 6
7 5
1 7
7 3
6 8
5 8
4 9
9 10
9 2
3 13
4 6
1 4
5 2
1 13
7 13
11 4
2 4
7 8
3 11
8 0
5 13
11 0
9 10
0 13
8 0
4 9
5 3
7 8
1 2
11 0
10 1
3 9
6 7
9 2
0 2
0 0
1 3
8 4
0 9
6 10
5 8
10 1
5 5
0 9
2 6
7 4
5 0
3 10
39 3

24 6
35
21 5
2 0
21 1
2 5
15 0
14 4
14 1
11 3
21 2
2 1
17 1
16 2
2 2
21 4
4 4
17 5
22 3
2 2
9 5
6 1
11 0
23 1
1 2
11 0
2 2
6 2
12 4
20 4
6 3
16 2
15 4
17 0
15 5
9 4
3 3
32 3

18 13
70
14 11
7 5
11 0
10 5
10 6
15 0
13 4
15 8
15 7
9 3
7 5
14 4
12 0
11 6
17 8
14 11
7 9
3 5
5 5
8 2
7 1
13 9
16 0
15 8
6 0
13 7
6 10
5 0
3 5
17 4
2 1
11 7
1 10
6 6
1 1
16 0
3 5
8 4
1 5
6 6
2 3
10 9
15 8
9 7
16 12
4 1
13 7
1 12
11 11
10 7
8 1
16 0
9 8
16 8
2 2
15 8
2 7
15 12
10 0
8 9
2 1
16 3
15 0
15 11
14 11
13 5
9 3
6 7
11 7
1 3
41 3

25 8
49
7 1
16 5
17 0
3 0
10 6
8 0
14 3
21 4
14 4
7 7
9 7
23 1
4 5
5 7
19 7
4 1
10 2
10 1
24 1
18 7
19 7
16 3
7 1
21 5
10 6
1 0
12 2
7 4
2 0
0 1
20 2
9 4
13 5
4 7
12 5
7 2
12 4
11 1
23 0
24 3
3 2
18 0
12 4
24 4
10 4
9 2
16 4
10 6
17 7
32 1

5 7
11
4 2
2 0
4 6
3 3
2 1
1 4
0 3
4 5
4 1
2 3
3 1
39 3

11 13
34
6 6
5 3
6 9
2 7
1 11
10 12
8 8
1 9
3 5
3 4
2 3
5 8
7 6
5 12
2 8
10 2
4 1
3 3
7 7
8 11
9 5
9 9
0 6
5 12
3 5
1 12
9 11
1 11
2 2
3 5
1 12
3 9
8 12
0 9
33 3

10 23
75
7 3
7 3
3 4
4 0
7 14
5 12
9 0
5 20
6 20
8 19
0 22
5 15
3 22
3 11
3 17
1 17
6 3
8 8
5 16
9 12
1 14
9 10
3 16
8 22
1 1
9 0
1 2
8 4
7 7
8 17
7 15
8 7
7 17
8 12
0 21
9 13
8 19
1 7
6 10
0 12
2 4
4 18
9 6
5 2
1 21
2 12
6 10
2 10
3 0
3 15
7 16
7 18
9 6
5 10
7 8
2 17
9 17
1 16
7 9
8 3
7 20
5 22
1 0
6 1
9 20
1 14
0 1
2 17
1 4
3 4
2 10
3 11
1 9
7 15
8 2
37 3

15 14
60
10 12
5 1
2 12
7 1
4 3
0 11
8 3
6 0
12 3
11 0
6 11
8 10
0 4
13 3
11 9
4 4
4 5
4 9
7 7
9 4
0 2
6 7
2 4
4 7
4 6
10 5
1 9
14 13
0 6
6 4
8 6
12 6
12 10
10 5
2 10
10 1
8 8
7 6
3 3
4 8
4 5
11 2
3 3
9 12
7 3
5 2
9 3
5 2
4 0
5 10
8 2
3 3
3 3
10 6
8 4
6 13
2 8
0 4
8 4
10 12
17 3

25 21
127
16 2
17 15
12 9
17 7
20 9
14 9
6 12
12 1
11 3
17 4
20 5
18 16
2 1
2 6
21 1
5 14
11 19
19 11
13 20
3 17
4 7
12 6
24 11
22 0
24 4
4 14
10 6
11 4
5 0
11 19
13 19
24 4
22 4
15 8
4 11
9 3
10 16
6 18
23 12
0 8
6 15
9 11
17 9
18 5
12 6
21 15
5 1
23 7
11 20
11 13
17 12
8 1
11 17
4 19
23 20
4 14
4 20
21 1
20 16
24 4
0 7
21 7
2 2
19 19
1 19
1 19
0 18
17 9
19 8
16 13
22 9
8 9
23 6
19 20
15 1
11 2
23 14
1 1
15 7
2 5
19 17
24 13
2 4
19 0
12 18
23 11
15 8
14 0
3 1
7 8
5 10
15 6
13 20
3 11
19 5
19 11
5 6
19 1
6 9
3 5
7 6
3 1
22 11
17 17
21 19
19 12
4 15
21 19
19 15
17 13
24 5
21 12
6 20
22 18
18 16
11 5
10 16
0 0
13 13
4 15
2 18
6 13
14 4
19 1
23 14
15 14
2 7
15 3

22 16
106
21 1
16 9
7 4
3 10
9 4
1 11
13 7
19 6
4 11
13 3
12 15
0 5
21 15
9 0
15 9
4 10
10 11
19 8
19 9
6 2
4 7
11 12
21 11
6 15
4 4
9 8
5 14
2 2
2 12
0 14
2 14
0 7
0 12
18 11
14 8
3 11
17 11
14 0
9 9
18 3
16 4
10 6
12 7
19 5
19 3
16 9
0 13
3 15
4 4
20 8
16 4
2 9
13 4
20 2
17 5
8 15
21 5
17 0
1 12
0 15
16 3
18 9
19 15
8 14
6 8
14 14
13 14
6 14
6 5
8 1
18 2
13 6
19 10
11 10
11 1
11 0
4 14
10 7
9 9
19 8
0 0
9 11
1 6
12 6
21 15
9 3
2 2
15 13
20 12
19 14
19 3
10 13
13 14
21 13
15 3
10 9
17 5
6 3
5 0
16 5
5 2
10 2
6 1
4 12
10 7
7 0
18 2

6 23
45
1 11
2 7
3 14
4 9
4 20
4 12
4 9
4 12
5 22
0 7
0 4
4 21
0 2
2 2
3 14
1 14
5 18
1 3
3 10
2 4
3 16
4 14
0 10
3 16
1 18
1 10
2 6
1 2
3 16
1 2
0 21
0 13
0 1
5 10
4 20
0 18
5 4
2 10
3 4
4 5
3 0
3 17
3 9
0 14
0 6
31 2

10 21
60
8 14
4 4
0 11
8 0
6 3
1 10
5 8
8 13
9 4
2 10
1 3
7 12
1 2
8 2
1 5
8 18
1 15
6 8
5 10
7 13
9 3
8 5
9 16
0 2
8 10
2 16
5 10
8 6
0 12
6 5
0 5
6 0
2 15
9 4
6 12
0 17
9 12
8 1
0 17
4 14
5 12
6 1
7 7
8 16
1 12
5 2
5 3
9 14
0 15
0 14
8 4
5 2
7 19
8 20
1 20
7 16
9 6
7 15
7 9
4 6
18 3

13 23
63
12 13
5 3
4 2
8 5
0 16
3 16
11 20
8 2
6 16
10 9
6 8
1 20
0 17
0 15
6 6
0 0
4 20
6 8
8 14
1 17
1 17
5 10
0 2
12 3
8 4
0 3
11 22
12 5
0 0
7 6
5 0
0 17
0 0
11 1
9 16
0 6
10 3
1 17
3 6
2 7
0 11
10 10
9 11
11 21
12 10
8 13
8 20
11 9
10 13
10 13
11 5
0 8
4 0
11 10
12 6
1 9
2 11
6 18
3 19
12 15
4 13
5 6
7 3
31 2

16 15
62
1 13
2 7
14 8
4 4
6 8
14 1
10 7
1 0
7 12
1 4
5 12
7 0
12 5
14 8
12 14
10 0
0 11
15 1
11 5
10 10
15 13
13 3
6 1
10 8
13 13
14 2
8 14
12 7
15 4
13 10
0 14
12 7
14 9
5 1
5 8
15 6
11 1
1 6
7 9
7 9
1 0
14 0
0 9
8 0
14 1
11 2
2 12
12 14
0 9
2 3
12 10
12 9
2 4
10 3
3 2
1 6
4 10
3 5
2 1
1 2
5 9
0 3
49 3

10 23
60
2 22
1 13
0 16
2 0
9 13
7 20
2 11
5 14
2 13
8 8
3 17
0 13
3 10
5 14
3 1
3 13
4 6
8 2
3 4
8 4
1 21
1 15
4 1
4 20
7 15
7 1
4 6
4 5
7 17
6 5
0 6
8 20
2 10
9 13
9 5
0 8
4 22
2 19
1 22
6 11
3 16
8 15
6 17
8 3
8 22
2 22
6 12
5 7
9 20
3 16
7 22
2 11
3 22
8 13
3 15
4 22
7 10
3 15
9 20
2 8
24 3
