7

24 24
5
18 17
11 9
12 7
0 12
19 6
18 4

8 6
19
1 1
0 3
5 2
1 4
1 2
6 4
4 5
1 4
6 3
1 1
1 2
0 3
2 0
4 1
3 0
3 4
1 5
2 1
7 3
3 2

2 19
13
0 11
0 10
1 11
1 16
0 3
1 5
0 13
0 12
1 14
0 13
1 2
1 13
0 12
18 4

14 21
21
2 14
12 12
2 15
9 9
5 0
8 9
13 20
0 0
6 1
6 19
6 17
10 11
2 0
5 8
2 0
1 7
8 13
0 3
12 6
11 5
4 9
16 3

11 5
23
0 1
1 2
1 0
6 1
6 2
5 2
5 4
0 4
8 3
7 4
9 0
8 2
2 4
2 1
2 1
7 2
6 4
5 2
1 3
6 0
10 3
6 2
2 2
19 2

4 2
4
1 0
3 0
3 0
0 0
16 4

9 15
22
3 3
2 3
5 9
6 10
7 3
2 5
8 9
2 5
3 10
7 10
3 7
5 11
8 2
0 3
2 8
1 10
7 9
1 12
3 6
4 10
8 3
0 12
8 1
