20

4 3
17
3 0
3 0
1 2
1 0
0 1
0 0
1 2
3 2
2 1
2 1
0 1
0 2
0 0
1 1
1 2
0 0
3 0
43 8

5 8
1
4 2
61 14

6 5
14
0 0
4 0
3 0
0 2
3 3
3 1
5 1
5 0
4 4
5 0
2 2
0 1
1 1
1 1
58 8

9 3
21
1 0
0 2
8 1
2 0
6 0
1 1
0 0
4 2
0 0
4 2
1 0
8 1
6 1
0 0
4 1
8 2
8 0
3 2
5 1
0 0
8 0
44 9

2 7
8
0 1
0 5
0 0
0 4
0 5
1 6
1 1
0 2
15 15

10 4
39
8 3
3 0
8 2
7 3
9 1
5 3
2 1
3 0
1 2
9 0
0 0
4 1
7 3
4 3
7 3
7 2
9 0
0 0
3 1
3 2
7 2
5 2
0 0
5 2
3 3
9 0
5 3
0 1
6 0
9 0
3 0
4 0
5 3
2 2
0 3
5 3
8 3
6 3
3 3
16 5

5 6
46
4 5
2 0
2 5
3 4
2 5
0 1
0 2
2 0
3 1
0 2
4 2
2 0
2 4
1 0
4 4
4 3
4 0
3 3
2 0
4 1
1 0
4 5
4 3
4 1
4 0
4 4
3 1
0 3
0 0
2 4
2 5
1 1
2 4
2 0
2 4
2 0
2 3
0 3
1 3
1 2
3 4
2 0
4 4
1 0
1 1
2 4
99 1

4 3
1
0 1
9 6

7 1
10
1 0
6 0
4 0
5 0
6 0
4 0
3 0
2 0
5 0
6 0
98 2

4 8
14
0 6
3 4
1 5
1 3
2 3
1 5
2 6
1 2
0 3
2 7
2 1
0 7
0 2
1 4
60 10

10 1
14
6 0
7 0
4 0
5 0
2 0
5 0
5 0
4 0
1 0
8 0
9 0
6 0
1 0
4 0
30 12

9 10
31
5 2
2 0
8 6
7 1
0 4
1 0
8 6
6 4
3 7
8 7
1 8
8 5
7 5
4 6
2 2
4 4
3 8
1 3
8 2
4 5
6 2
8 7
5 1
7 7
2 1
3 9
3 1
1 7
8 2
0 5
7 8
57 8

1 10
13
0 0
0 2
0 1
0 5
0 0
0 8
0 0
0 0
0 2
0 5
0 8
0 3
0 7
93 2

8 2
19
1 0
6 1
0 0
7 0
0 1
2 1
4 1
5 1
2 1
1 0
1 1
1 1
3 0
2 1
1 0
7 0
6 1
6 1
1 1
3 12

5 7
38
0 2
0 0
2 5
4 0
2 3
4 2
4 1
0 4
4 1
3 4
1 2
1 4
1 4
0 2
3 2
1 0
0 1
3 3
1 2
0 5
3 1
4 3
1 0
0 4
1 3
4 0
3 2
0 5
4 6
1 3
1 6
3 1
4 4
4 6
3 3
0 0
1 2
4 6
1 12

9 10
3
5 8
3 7
7 6
96 12

9 4
26
6 2
1 0
0 0
6 1
1 3
8 3
7 3
6 1
7 0
3 3
4 2
0 0
7 3
1 2
8 2
2 1
6 3
8 3
1 3
3 2
0 0
3 3
3 3
6 3
5 1
2 2
59 9

2 4
4
1 2
0 0
0 1
0 1
87 9

1 7
36
0 0
0 5
0 3
0 5
0 1
0 3
0 0
0 1
0 5
0 6
0 6
0 2
0 5
0 4
0 0
0 5
0 0
0 1
0 3
0 4
0 4
0 2
0 5
0 3
0 3
0 6
0 2
0 1
0 4
0 2
0 4
0 6
0 6
0 6
0 4
0 4
95 20

10 2
21
7 1
4 1
4 0
6 1
2 1
9 1
5 1
1 0
0 0
7 1
5 1
5 1
9 1
6 1
9 1
1 0
8 1
9 1
3 0
9 1
6 1
87 18
